%YAML 1.1
%TAG !u! tag:unity3d.com,2011:
--- !u!1 &125428
GameObject:
  m_ObjectHideFlags: 0
  m_PrefabParentObject: {fileID: 0}
  m_PrefabInternal: {fileID: 100100000}
  serializedVersion: 4
  m_Component:
  - 4: {fileID: 425428}
  - 114: {fileID: 11425428}
  m_Layer: 0
  m_Name: AppAtlas
  m_TagString: Untagged
  m_Icon: {fileID: 0}
  m_NavMeshLayer: 0
  m_StaticEditorFlags: 0
  m_IsActive: 0
--- !u!4 &425428
Transform:
  m_ObjectHideFlags: 1
  m_PrefabParentObject: {fileID: 0}
  m_PrefabInternal: {fileID: 100100000}
  m_GameObject: {fileID: 125428}
  m_LocalRotation: {x: 0, y: 0, z: 0, w: 1}
  m_LocalPosition: {x: 0, y: 0, z: 0}
  m_LocalScale: {x: 1, y: 1, z: 1}
  m_LocalEulerAnglesHint: {x: 0, y: 0, z: 0}
  m_Children: []
  m_Father: {fileID: 0}
  m_RootOrder: 0
--- !u!114 &11425428
MonoBehaviour:
  m_ObjectHideFlags: 1
  m_PrefabParentObject: {fileID: 0}
  m_PrefabInternal: {fileID: 100100000}
  m_GameObject: {fileID: 125428}
  m_Enabled: 1
  m_EditorHideFlags: 0
  m_Script: {fileID: 11500000, guid: 4d0c51bb0b6e93049af5e88f93826e3b, type: 3}
  m_Name: 
  m_EditorClassIdentifier: 
  material: {fileID: 2100000, guid: a1cae3467e9a41e489aa8f8c70b67089, type: 2}
  mSprites:
  - name: '!'
    x: 329
    y: 1325
    width: 21
    height: 90
    borderLeft: 0
    borderRight: 0
    borderTop: 0
    borderBottom: 0
    paddingLeft: 65
    paddingRight: 66
    paddingTop: 6
    paddingBottom: 16
  - name: '@'
    x: 956
    y: 6
    width: 37
    height: 39
    borderLeft: 0
    borderRight: 0
    borderTop: 0
    borderBottom: 0
    paddingLeft: 1
    paddingRight: 0
    paddingTop: 1
    paddingBottom: 0
  - name: A
    x: 1396
    y: 199
    width: 86
    height: 90
    borderLeft: 0
    borderRight: 0
    borderTop: 0
    borderBottom: 0
    paddingLeft: 30
    paddingRight: 36
    paddingTop: 7
    paddingBottom: 15
  - name: arabia
    x: 956
    y: 274
    width: 100
    height: 105
    borderLeft: 0
    borderRight: 0
    borderTop: 0
    borderBottom: 0
    paddingLeft: 0
    paddingRight: 0
    paddingTop: 0
    paddingBottom: 0
  - name: arabiaFlag
    x: 1396
    y: 17
    width: 86
    height: 86
    borderLeft: 0
    borderRight: 0
    borderTop: 0
    borderBottom: 0
    paddingLeft: 22
    paddingRight: 20
    paddingTop: 20
    paddingBottom: 22
  - name: ArrowDown_icon
    x: 261
    y: 8
    width: 30
    height: 21
    borderLeft: 0
    borderRight: 0
    borderTop: 0
    borderBottom: 0
    paddingLeft: 2
    paddingRight: 2
    paddingTop: 8
    paddingBottom: 5
  - name: ArrowLeft_icon
    x: 337
    y: 737
    width: 18
    height: 32
    borderLeft: 0
    borderRight: 0
    borderTop: 0
    borderBottom: 0
    paddingLeft: 5
    paddingRight: 11
    paddingTop: 1
    paddingBottom: 1
  - name: asimplefuckingline
    x: 329
    y: 1318
    width: 20
    height: 2
    borderLeft: 1
    borderRight: 1
    borderTop: 0
    borderBottom: 0
    paddingLeft: 0
    paddingRight: 0
    paddingTop: 0
    paddingBottom: 0
  - name: Bar
    x: 1533
    y: 1495
    width: 100
    height: 54
    borderLeft: 1
    borderRight: 1
    borderTop: 1
    borderBottom: 1
    paddingLeft: 0
    paddingRight: 0
    paddingTop: 0
    paddingBottom: 0
  - name: behind-flag
    x: 1066
    y: 319
    width: 100
    height: 102
    borderLeft: 0
    borderRight: 0
    borderTop: 0
    borderBottom: 0
    paddingLeft: 0
    paddingRight: 0
    paddingTop: 0
    paddingBottom: 0
  - name: BigNumbers
    x: 905
    y: 1544
    width: 251
    height: 255
    borderLeft: 0
    borderRight: 0
    borderTop: 0
    borderBottom: 0
    paddingLeft: 0
    paddingRight: 5
    paddingTop: 1
    paddingBottom: 0
  - name: body
    x: 956
    y: 1076
    width: 160
    height: 109
    borderLeft: 0
    borderRight: 0
    borderTop: 0
    borderBottom: 0
    paddingLeft: 0
    paddingRight: 0
    paddingTop: 0
    paddingBottom: 0
  - name: BottomIntro
    x: 603
    y: 1277
    width: 279
    height: 200
    borderLeft: 0
    borderRight: 0
    borderTop: 0
    borderBottom: 0
    paddingLeft: 3
    paddingRight: 4
    paddingTop: 3
    paddingBottom: 4
  - name: BottomPoly
    x: 1308
    y: 1844
    width: 283
    height: 204
    borderLeft: 0
    borderRight: 0
    borderTop: 0
    borderBottom: 0
    paddingLeft: 1
    paddingRight: 2
    paddingTop: 1
    paddingBottom: 2
  - name: buttonTime
    x: 1066
    y: 110
    width: 100
    height: 100
    borderLeft: 0
    borderRight: 0
    borderTop: 0
    borderBottom: 0
    paddingLeft: 0
    paddingRight: 0
    paddingTop: 0
    paddingBottom: 0
  - name: calendar
    x: 1985
    y: 1097
    width: 40
    height: 40
    borderLeft: 0
    borderRight: 0
    borderTop: 0
    borderBottom: 0
    paddingLeft: 0
    paddingRight: 0
    paddingTop: 0
    paddingBottom: 0
  - name: CardsBtnDown
    x: 603
    y: 1090
    width: 203
    height: 182
    borderLeft: 0
    borderRight: 0
    borderTop: 0
    borderBottom: 0
    paddingLeft: 0
    paddingRight: 0
    paddingTop: 0
    paddingBottom: 0
  - name: CardsBtnUp
    x: 905
    y: 1497
    width: 205
    height: 42
    borderLeft: 0
    borderRight: 0
    borderTop: 0
    borderBottom: 0
    paddingLeft: 0
    paddingRight: 0
    paddingTop: 0
    paddingBottom: 0
  - name: chat-bubble
    x: 1883
    y: 1491
    width: 64
    height: 47
    borderLeft: 0
    borderRight: 0
    borderTop: 0
    borderBottom: 0
    paddingLeft: 0
    paddingRight: 0
    paddingTop: 0
    paddingBottom: 0
  - name: chattBg
    x: 603
    y: 737
    width: 172
    height: 172
    borderLeft: 1
    borderRight: 1
    borderTop: 1
    borderBottom: 1
    paddingLeft: 0
    paddingRight: 0
    paddingTop: 0
    paddingBottom: 0
  - name: check
    x: 1952
    y: 1493
    width: 54
    height: 45
    borderLeft: 0
    borderRight: 0
    borderTop: 0
    borderBottom: 0
    paddingLeft: 0
    paddingRight: 0
    paddingTop: 0
    paddingBottom: 0
  - name: checkNo
    x: 1768
    y: 496
    width: 79
    height: 83
    borderLeft: 0
    borderRight: 0
    borderTop: 0
    borderBottom: 0
    paddingLeft: 10
    paddingRight: 11
    paddingTop: 10
    paddingBottom: 7
  - name: cleansheat
    x: 1806
    y: 867
    width: 129
    height: 85
    borderLeft: 0
    borderRight: 0
    borderTop: 0
    borderBottom: 0
    paddingLeft: 11
    paddingRight: 12
    paddingTop: 13
    paddingBottom: 14
  - name: Combined Shape
    x: 303
    y: 1272
    width: 52
    height: 38
    borderLeft: 0
    borderRight: 0
    borderTop: 0
    borderBottom: 0
    paddingLeft: 0
    paddingRight: 0
    paddingTop: 0
    paddingBottom: 0
  - name: corner
    x: 956
    y: 724
    width: 103
    height: 112
    borderLeft: 0
    borderRight: 0
    borderTop: 0
    borderBottom: 0
    paddingLeft: 26
    paddingRight: 23
    paddingTop: 0
    paddingBottom: 0
  - name: crosses
    x: 1636
    y: 666
    width: 107
    height: 70
    borderLeft: 0
    borderRight: 0
    borderTop: 0
    borderBottom: 0
    paddingLeft: 0
    paddingRight: 0
    paddingTop: 1
    paddingBottom: 0
  - name: crown
    x: 1066
    y: 861
    width: 127
    height: 91
    borderLeft: 0
    borderRight: 0
    borderTop: 0
    borderBottom: 0
    paddingLeft: 0
    paddingRight: 0
    paddingTop: 0
    paddingBottom: 0
  - name: cup
    x: 603
    y: 914
    width: 189
    height: 171
    borderLeft: 0
    borderRight: 0
    borderTop: 0
    borderBottom: 0
    paddingLeft: 0
    paddingRight: 0
    paddingTop: 0
    paddingBottom: 0
  - name: cupEnboss
    x: 1845
    y: 1877
    width: 189
    height: 171
    borderLeft: 0
    borderRight: 0
    borderTop: 0
    borderBottom: 0
    paddingLeft: 0
    paddingRight: 0
    paddingTop: 0
    paddingBottom: 0
  - name: Cyrcle
    x: 811
    y: 901
    width: 138
    height: 139
    borderLeft: 0
    borderRight: 0
    borderTop: 0
    borderBottom: 0
    paddingLeft: 0
    paddingRight: 0
    paddingTop: 0
    paddingBottom: 0
  - name: Dot
    x: 998
    y: 5
    width: 36
    height: 40
    borderLeft: 0
    borderRight: 0
    borderTop: 0
    borderBottom: 0
    paddingLeft: 0
    paddingRight: 0
    paddingTop: 1
    paddingBottom: 1
  - name: dotLine
    x: 1115
    y: 1499
    width: 40
    height: 40
    borderLeft: 3
    borderRight: 3
    borderTop: 0
    borderBottom: 0
    paddingLeft: 0
    paddingRight: 0
    paddingTop: 0
    paddingBottom: 0
  - name: drawdot
    x: 303
    y: 1176
    width: 42
    height: 43
    borderLeft: 0
    borderRight: 0
    borderTop: 0
    borderBottom: 0
    paddingLeft: 3
    paddingRight: 2
    paddingTop: 2
    paddingBottom: 2
  - name: Emoticon_11
    x: 1921
    y: 515
    width: 64
    height: 64
    borderLeft: 0
    borderRight: 0
    borderTop: 0
    borderBottom: 0
    paddingLeft: 0
    paddingRight: 0
    paddingTop: -16
    paddingBottom: 0
  - name: Emoticon_13
    x: 1851
    y: 425
    width: 64
    height: 63
    borderLeft: 0
    borderRight: 0
    borderTop: 0
    borderBottom: 0
    paddingLeft: 0
    paddingRight: 0
    paddingTop: -16
    paddingBottom: 1
  - name: Emoticon_14
    x: 1852
    y: 515
    width: 64
    height: 64
    borderLeft: 0
    borderRight: 0
    borderTop: 0
    borderBottom: 0
    paddingLeft: 0
    paddingRight: 0
    paddingTop: -16
    paddingBottom: 0
  - name: Emoticon_17
    x: 1955
    y: 672
    width: 64
    height: 64
    borderLeft: 0
    borderRight: 0
    borderTop: 0
    borderBottom: 0
    paddingLeft: 0
    paddingRight: 0
    paddingTop: -16
    paddingBottom: 0
  - name: Emoticon_19
    x: 1886
    y: 672
    width: 64
    height: 64
    borderLeft: 0
    borderRight: 0
    borderTop: 0
    borderBottom: 0
    paddingLeft: 0
    paddingRight: 0
    paddingTop: -16
    paddingBottom: 0
  - name: Emoticon_2
    x: 1817
    y: 672
    width: 64
    height: 64
    borderLeft: 0
    borderRight: 0
    borderTop: 0
    borderBottom: 0
    paddingLeft: 0
    paddingRight: 0
    paddingTop: -16
    paddingBottom: 0
  - name: Emoticon_26
    x: 1748
    y: 672
    width: 64
    height: 64
    borderLeft: 0
    borderRight: 0
    borderTop: 0
    borderBottom: 0
    paddingLeft: 0
    paddingRight: 0
    paddingTop: -16
    paddingBottom: 0
  - name: Emoticon_28
    x: 1978
    y: 1808
    width: 64
    height: 64
    borderLeft: 0
    borderRight: 0
    borderTop: 0
    borderBottom: 0
    paddingLeft: 0
    paddingRight: 0
    paddingTop: 0
    paddingBottom: 0
  - name: Emoticon_3
    x: 1713
    y: 424
    width: 64
    height: 64
    borderLeft: 0
    borderRight: 0
    borderTop: 0
    borderBottom: 0
    paddingLeft: 0
    paddingRight: 0
    paddingTop: -16
    paddingBottom: 0
  - name: Emoticon_31
    x: 1575
    y: 424
    width: 64
    height: 64
    borderLeft: 0
    borderRight: 0
    borderTop: 0
    borderBottom: 0
    paddingLeft: 0
    paddingRight: 0
    paddingTop: -16
    paddingBottom: 0
  - name: Emoticon_37
    x: 1491
    y: 26
    width: 64
    height: 64
    borderLeft: 0
    borderRight: 0
    borderTop: 0
    borderBottom: 0
    paddingLeft: 0
    paddingRight: 0
    paddingTop: -16
    paddingBottom: 0
  - name: Emoticon_38
    x: 1491
    y: 233
    width: 64
    height: 64
    borderLeft: 0
    borderRight: 0
    borderTop: 0
    borderBottom: 0
    paddingLeft: 0
    paddingRight: 0
    paddingTop: -16
    paddingBottom: 0
  - name: Emoticon_7
    x: 1782
    y: 424
    width: 64
    height: 64
    borderLeft: 0
    borderRight: 0
    borderTop: 0
    borderBottom: 0
    paddingLeft: 0
    paddingRight: 0
    paddingTop: -16
    paddingBottom: 0
  - name: Emoticon_8
    x: 1491
    y: 95
    width: 64
    height: 64
    borderLeft: 0
    borderRight: 0
    borderTop: 0
    borderBottom: 0
    paddingLeft: 0
    paddingRight: 0
    paddingTop: -16
    paddingBottom: 0
  - name: english
    x: 956
    y: 384
    width: 100
    height: 106
    borderLeft: 0
    borderRight: 0
    borderTop: 0
    borderBottom: 0
    paddingLeft: 0
    paddingRight: 0
    paddingTop: 0
    paddingBottom: 0
  - name: englishFlag
    x: 1396
    y: 108
    width: 86
    height: 86
    borderLeft: 0
    borderRight: 0
    borderTop: 0
    borderBottom: 0
    paddingLeft: 22
    paddingRight: 20
    paddingTop: 20
    paddingBottom: 22
  - name: face
    x: 1304
    y: 631
    width: 87
    height: 105
    borderLeft: 0
    borderRight: 0
    borderTop: 0
    borderBottom: 0
    paddingLeft: 0
    paddingRight: 0
    paddingTop: 0
    paddingBottom: 0
  - name: facebookNew
    x: 1098
    y: 1204
    width: 300
    height: 68
    borderLeft: 0
    borderRight: 0
    borderTop: 0
    borderBottom: 0
    paddingLeft: 0
    paddingRight: 0
    paddingTop: 0
    paddingBottom: 0
  - name: fav
    x: 1199
    y: 403
    width: 100
    height: 97
    borderLeft: 0
    borderRight: 0
    borderTop: 0
    borderBottom: 0
    paddingLeft: 27
    paddingRight: 25
    paddingTop: 9
    paddingBottom: 6
  - name: female
    x: 1396
    y: 491
    width: 90
    height: 88
    borderLeft: 0
    borderRight: 0
    borderTop: 0
    borderBottom: 0
    paddingLeft: 0
    paddingRight: 0
    paddingTop: 0
    paddingBottom: 0
  - name: field_tile
    x: 303
    y: 1315
    width: 21
    height: 100
    borderLeft: 6
    borderRight: 6
    borderTop: 6
    borderBottom: 10
    paddingLeft: 0
    paddingRight: 0
    paddingTop: 0
    paddingBottom: 0
  - name: Fill 1
    x: 2011
    y: 1486
    width: 22
    height: 52
    borderLeft: 0
    borderRight: 0
    borderTop: 0
    borderBottom: 0
    paddingLeft: 0
    paddingRight: 0
    paddingTop: 0
    paddingBottom: 0
  - name: Fill 3
    x: 1267
    y: 1804
    width: 36
    height: 48
    borderLeft: 0
    borderRight: 0
    borderTop: 0
    borderBottom: 0
    paddingLeft: 0
    paddingRight: 0
    paddingTop: 0
    paddingBottom: 0
  - name: finger
    x: 1373
    y: 1510
    width: 30
    height: 39
    borderLeft: 0
    borderRight: 0
    borderTop: 0
    borderBottom: 0
    paddingLeft: 0
    paddingRight: 0
    paddingTop: 0
    paddingBottom: 0
  - name: firstgoal
    x: 956
    y: 495
    width: 100
    height: 110
    borderLeft: 0
    borderRight: 0
    borderTop: 0
    borderBottom: 0
    paddingLeft: 29
    paddingRight: 23
    paddingTop: 1
    paddingBottom: 1
  - name: flash
    x: 811
    y: 20
    width: 115
    height: 128
    borderLeft: 0
    borderRight: 0
    borderTop: 0
    borderBottom: 0
    paddingLeft: 0
    paddingRight: 0
    paddingTop: 0
    paddingBottom: 0
  - name: football
    x: 0
    y: 5
    width: 256
    height: 255
    borderLeft: 0
    borderRight: 0
    borderTop: 0
    borderBottom: 0
    paddingLeft: 0
    paddingRight: 0
    paddingTop: 0
    paddingBottom: 1
  - name: football-icon
    x: 1199
    y: 68
    width: 96
    height: 96
    borderLeft: 0
    borderRight: 0
    borderTop: 0
    borderBottom: 0
    paddingLeft: 0
    paddingRight: 0
    paddingTop: 0
    paddingBottom: 0
  - name: footballInnerShadow
    x: 1199
    y: 607
    width: 98
    height: 100
    borderLeft: 0
    borderRight: 0
    borderTop: 0
    borderBottom: 0
    paddingLeft: 0
    paddingRight: 2
    paddingTop: 0
    paddingBottom: 0
  - name: foul
    x: 1491
    y: 960
    width: 112
    height: 111
    borderLeft: 0
    borderRight: 0
    borderTop: 0
    borderBottom: 0
    paddingLeft: 24
    paddingRight: 16
    paddingTop: 0
    paddingBottom: 1
  - name: frenchFlag
    x: 1491
    y: 493
    width: 86
    height: 86
    borderLeft: 0
    borderRight: 0
    borderTop: 0
    borderBottom: 0
    paddingLeft: 22
    paddingRight: 20
    paddingTop: 20
    paddingBottom: 22
  - name: G
    x: 1491
    y: 397
    width: 79
    height: 91
    borderLeft: 0
    borderRight: 0
    borderTop: 0
    borderBottom: 0
    paddingLeft: 29
    paddingRight: 44
    paddingTop: 9
    paddingBottom: 12
  - name: german
    x: 956
    y: 164
    width: 100
    height: 105
    borderLeft: 0
    borderRight: 0
    borderTop: 0
    borderBottom: 0
    paddingLeft: 0
    paddingRight: 0
    paddingTop: 0
    paddingBottom: 0
  - name: goal
    x: 1374
    y: 960
    width: 112
    height: 111
    borderLeft: 0
    borderRight: 0
    borderTop: 0
    borderBottom: 0
    paddingLeft: 20
    paddingRight: 20
    paddingTop: 0
    paddingBottom: 1
  - name: goal_post
    x: 1845
    y: 1806
    width: 128
    height: 66
    borderLeft: 0
    borderRight: 0
    borderTop: 0
    borderBottom: 0
    paddingLeft: 0
    paddingRight: 0
    paddingTop: 0
    paddingBottom: 0
  - name: GoalPost
    x: 1411
    y: 1491
    width: 117
    height: 58
    borderLeft: 0
    borderRight: 0
    borderTop: 0
    borderBottom: 0
    paddingLeft: 5
    paddingRight: 6
    paddingTop: 37
    paddingBottom: 33
  - name: guru
    x: 603
    y: 563
    width: 169
    height: 169
    borderLeft: 0
    borderRight: 0
    borderTop: 0
    borderBottom: 0
    paddingLeft: 0
    paddingRight: 0
    paddingTop: 0
    paddingBottom: 0
  - name: guru_eyes
    x: 325
    y: 5
    width: 30
    height: 8
    borderLeft: 0
    borderRight: 0
    borderTop: 0
    borderBottom: 0
    paddingLeft: 0
    paddingRight: 0
    paddingTop: 0
    paddingBottom: 0
  - name: heart
    x: 303
    y: 1420
    width: 48
    height: 44
    borderLeft: 0
    borderRight: 0
    borderTop: 0
    borderBottom: 0
    paddingLeft: 8
    paddingRight: 8
    paddingTop: 10
    paddingBottom: 10
  - name: heartClosed
    x: 303
    y: 1469
    width: 52
    height: 48
    borderLeft: 0
    borderRight: 0
    borderTop: 0
    borderBottom: 0
    paddingLeft: 6
    paddingRight: 6
    paddingTop: 8
    paddingBottom: 8
  - name: home_large_icon
    x: 811
    y: 510
    width: 127
    height: 120
    borderLeft: 0
    borderRight: 0
    borderTop: 0
    borderBottom: 0
    paddingLeft: 0
    paddingRight: 1
    paddingTop: 2
    paddingBottom: 6
  - name: home2
    x: 230
    y: 335
    width: 125
    height: 121
    borderLeft: 0
    borderRight: 0
    borderTop: 0
    borderBottom: 0
    paddingLeft: 32
    paddingRight: 35
    paddingTop: 2
    paddingBottom: 1
  - name: home-premium-icon
    x: 1941
    y: 1201
    width: 99
    height: 71
    borderLeft: 0
    borderRight: 0
    borderTop: 0
    borderBottom: 0
    paddingLeft: 0
    paddingRight: 1
    paddingTop: 1
    paddingBottom: 0
  - name: Icon_Achiev
    x: 1960
    y: 1351
    width: 75
    height: 126
    borderLeft: 0
    borderRight: 0
    borderTop: 0
    borderBottom: 0
    paddingLeft: 1
    paddingRight: 1
    paddingTop: 1
    paddingBottom: 1
  - name: Icon_Leaders
    x: 1732
    y: 978
    width: 128
    height: 93
    borderLeft: 0
    borderRight: 0
    borderTop: 0
    borderBottom: 0
    paddingLeft: 0
    paddingRight: 0
    paddingTop: 0
    paddingBottom: 0
  - name: Icon_Mail
    x: 1396
    y: 584
    width: 106
    height: 75
    borderLeft: 0
    borderRight: 0
    borderTop: 0
    borderBottom: 0
    paddingLeft: 11
    paddingRight: 11
    paddingTop: 27
    paddingBottom: 26
  - name: Icon_Match
    x: 1487
    y: 881
    width: 159
    height: 71
    borderLeft: 0
    borderRight: 0
    borderTop: 0
    borderBottom: 0
    paddingLeft: 1
    paddingRight: 1
    paddingTop: 6
    paddingBottom: 3
  - name: Icon_Matches
    x: 1198
    y: 863
    width: 128
    height: 89
    borderLeft: 0
    borderRight: 0
    borderTop: 0
    borderBottom: 0
    paddingLeft: 0
    paddingRight: 0
    paddingTop: 0
    paddingBottom: 0
  - name: Icon_News
    x: 1241
    y: 961
    width: 128
    height: 110
    borderLeft: 0
    borderRight: 0
    borderTop: 0
    borderBottom: 0
    paddingLeft: 0
    paddingRight: 0
    paddingTop: 0
    paddingBottom: 0
  - name: Icon_Prizes
    x: 811
    y: 153
    width: 128
    height: 116
    borderLeft: 0
    borderRight: 0
    borderTop: 0
    borderBottom: 0
    paddingLeft: 0
    paddingRight: 0
    paddingTop: 0
    paddingBottom: 0
  - name: Icon_Stantings
    x: 1066
    y: 426
    width: 128
    height: 80
    borderLeft: 0
    borderRight: 0
    borderTop: 0
    borderBottom: 0
    paddingLeft: 0
    paddingRight: 0
    paddingTop: 0
    paddingBottom: 0
  - name: info_icon
    x: 1920
    y: 426
    width: 62
    height: 62
    borderLeft: 0
    borderRight: 0
    borderTop: 0
    borderBottom: 0
    paddingLeft: 1
    paddingRight: 2
    paddingTop: 1
    paddingBottom: 2
  - name: italian
    x: 1066
    y: 511
    width: 100
    height: 104
    borderLeft: 0
    borderRight: 0
    borderTop: 0
    borderBottom: 0
    paddingLeft: 0
    paddingRight: 0
    paddingTop: 0
    paddingBottom: 0
  - name: kickoff
    x: 1199
    y: 169
    width: 86
    height: 112
    borderLeft: 0
    borderRight: 0
    borderTop: 0
    borderBottom: 0
    paddingLeft: 34
    paddingRight: 32
    paddingTop: 0
    paddingBottom: 0
  - name: L
    x: 303
    y: 1522
    width: 53
    height: 89
    borderLeft: 0
    borderRight: 0
    borderTop: 0
    borderBottom: 0
    paddingLeft: 62
    paddingRight: 37
    paddingTop: 8
    paddingBottom: 15
  - name: lastGoarRef
    x: 808
    y: 1812
    width: 454
    height: 40
    borderLeft: 0
    borderRight: 0
    borderTop: 0
    borderBottom: 0
    paddingLeft: 1
    paddingRight: 20
    paddingTop: 0
    paddingBottom: 0
  - name: leadercheck
    x: 811
    y: 1190
    width: 282
    height: 82
    borderLeft: 0
    borderRight: 0
    borderTop: 0
    borderBottom: 0
    paddingLeft: 0
    paddingRight: 0
    paddingTop: 0
    paddingBottom: 1
  - name: leadercheckDark
    x: 1353
    y: 817
    width: 282
    height: 39
    borderLeft: 0
    borderRight: 0
    borderTop: 0
    borderBottom: 0
    paddingLeft: 0
    paddingRight: 0
    paddingTop: 3
    paddingBottom: 1
  - name: leadercheckEmpty
    x: 1182
    y: 1310
    width: 282
    height: 82
    borderLeft: 0
    borderRight: 0
    borderTop: 0
    borderBottom: 0
    paddingLeft: 0
    paddingRight: 0
    paddingTop: 0
    paddingBottom: 1
  - name: leadercheckLight
    x: 1066
    y: 817
    width: 282
    height: 39
    borderLeft: 0
    borderRight: 0
    borderTop: 0
    borderBottom: 0
    paddingLeft: 0
    paddingRight: 0
    paddingTop: 0
    paddingBottom: 2
  - name: Line
    x: 1448
    y: 774
    width: 462
    height: 16
    borderLeft: 0
    borderRight: 0
    borderTop: 0
    borderBottom: 0
    paddingLeft: 1
    paddingRight: 2
    paddingTop: 1
    paddingBottom: 2
  - name: LineFill
    x: 1448
    y: 757
    width: 458
    height: 12
    borderLeft: 0
    borderRight: 0
    borderTop: 0
    borderBottom: 0
    paddingLeft: 4
    paddingRight: 5
    paddingTop: 3
    paddingBottom: 6
  - name: location
    x: 1491
    y: 302
    width: 73
    height: 90
    borderLeft: 0
    borderRight: 0
    borderTop: 0
    borderBottom: 0
    paddingLeft: 0
    paddingRight: 0
    paddingTop: 0
    paddingBottom: 0
  - name: lock
    x: 261
    y: 145
    width: 85
    height: 115
    borderLeft: 0
    borderRight: 0
    borderTop: 0
    borderBottom: 0
    paddingLeft: 0
    paddingRight: 0
    paddingTop: 0
    paddingBottom: 0
  - name: loosedot
    x: 1985
    y: 1142
    width: 42
    height: 43
    borderLeft: 0
    borderRight: 0
    borderTop: 0
    borderBottom: 0
    paddingLeft: 3
    paddingRight: 2
    paddingTop: 2
    paddingBottom: 2
  - name: mail-icon
    x: 1596
    y: 1815
    width: 244
    height: 233
    borderLeft: 0
    borderRight: 0
    borderTop: 0
    borderBottom: 0
    paddingLeft: 3
    paddingRight: 3
    paddingTop: 4
    paddingBottom: 3
  - name: male
    x: 1304
    y: 402
    width: 78
    height: 108
    borderLeft: 0
    borderRight: 0
    borderTop: 0
    borderBottom: 0
    paddingLeft: 0
    paddingRight: 0
    paddingTop: 0
    paddingBottom: 0
  - name: Match_CardMeter
    x: 1448
    y: 795
    width: 529
    height: 17
    borderLeft: 0
    borderRight: 0
    borderTop: 0
    borderBottom: 0
    paddingLeft: 1
    paddingRight: 2
    paddingTop: 2
    paddingBottom: 2
  - name: Match_CardMeterFill
    x: 1507
    y: 646
    width: 525
    height: 13
    borderLeft: 0
    borderRight: 0
    borderTop: 0
    borderBottom: 0
    paddingLeft: 0
    paddingRight: 0
    paddingTop: 1
    paddingBottom: 0
  - name: Match_Main
    x: 636
    y: 1487
    width: 256
    height: 43
    borderLeft: 10
    borderRight: 13
    borderTop: 1
    borderBottom: 1
    paddingLeft: 0
    paddingRight: 0
    paddingTop: 0
    paddingBottom: 0
  - name: Match_Points
    x: 1960
    y: 1281
    width: 77
    height: 65
    borderLeft: 0
    borderRight: 0
    borderTop: 0
    borderBottom: 0
    paddingLeft: 0
    paddingRight: 0
    paddingTop: 0
    paddingBottom: 0
  - name: Match_Romvos
    x: 1396
    y: 294
    width: 79
    height: 98
    borderLeft: 0
    borderRight: 0
    borderTop: 0
    borderBottom: 0
    paddingLeft: 0
    paddingRight: 0
    paddingTop: 0
    paddingBottom: 0
  - name: Match_Trapezio
    x: 230
    y: 723
    width: 102
    height: 46
    borderLeft: 0
    borderRight: 0
    borderTop: 0
    borderBottom: 0
    paddingLeft: 0
    paddingRight: 0
    paddingTop: 0
    paddingBottom: 0
  - name: Matches
    x: 887
    y: 1397
    width: 602
    height: 80
    borderLeft: 20
    borderRight: 14
    borderTop: 42
    borderBottom: 38
    paddingLeft: 0
    paddingRight: 1
    paddingTop: 0
    paddingBottom: 1
  - name: matches_Goals
    x: 887
    y: 1309
    width: 290
    height: 83
    borderLeft: 0
    borderRight: 0
    borderTop: 0
    borderBottom: 0
    paddingLeft: 0
    paddingRight: 1
    paddingTop: 2
    paddingBottom: 1
  - name: Matches_Score
    x: 811
    y: 274
    width: 131
    height: 114
    borderLeft: 50
    borderRight: 50
    borderTop: 0
    borderBottom: 0
    paddingLeft: 0
    paddingRight: 0
    paddingTop: 0
    paddingBottom: 0
  - name: Matches-icon
    x: 603
    y: 13
    width: 190
    height: 84
    borderLeft: 0
    borderRight: 0
    borderTop: 0
    borderBottom: 0
    paddingLeft: 0
    paddingRight: 0
    paddingTop: 0
    paddingBottom: 0
  - name: mbc
    x: 1810
    y: 1111
    width: 170
    height: 74
    borderLeft: 0
    borderRight: 0
    borderTop: 0
    borderBottom: 0
    paddingLeft: 0
    paddingRight: 0
    paddingTop: 1
    paddingBottom: 1
  - name: MiddleIntro
    x: 361
    y: 975
    width: 213
    height: 260
    borderLeft: 0
    borderRight: 0
    borderTop: 0
    borderBottom: 0
    paddingLeft: 3
    paddingRight: 4
    paddingTop: 3
    paddingBottom: 4
  - name: MiddlePoly
    x: 1661
    y: 1535
    width: 217
    height: 264
    borderLeft: 0
    borderRight: 0
    borderTop: 0
    borderBottom: 0
    paddingLeft: 1
    paddingRight: 2
    paddingTop: 1
    paddingBottom: 2
  - name: more
    x: 1308
    y: 1807
    width: 132
    height: 32
    borderLeft: 0
    borderRight: 0
    borderTop: 0
    borderBottom: 0
    paddingLeft: 32
    paddingRight: 31
    paddingTop: 42
    paddingBottom: 31
  - name: most-shots-target
    x: 1066
    y: 729
    width: 128
    height: 83
    borderLeft: 0
    borderRight: 0
    borderTop: 0
    borderBottom: 0
    paddingLeft: 0
    paddingRight: 0
    paddingTop: 0
    paddingBottom: 0
  - name: most-yellow
    x: 956
    y: 50
    width: 96
    height: 109
    borderLeft: 0
    borderRight: 0
    borderTop: 0
    borderBottom: 0
    paddingLeft: 29
    paddingRight: 27
    paddingTop: 2
    paddingBottom: 1
  - name: mouth
    x: 1557
    y: 1827
    width: 21
    height: 12
    borderLeft: 0
    borderRight: 0
    borderTop: 0
    borderBottom: 0
    paddingLeft: 0
    paddingRight: 0
    paddingTop: 0
    paddingBottom: 0
  - name: mustache
    x: 325
    y: 18
    width: 26
    height: 11
    borderLeft: 0
    borderRight: 0
    borderTop: 0
    borderBottom: 0
    paddingLeft: 0
    paddingRight: 0
    paddingTop: 0
    paddingBottom: 0
  - name: noFav
    x: 1199
    y: 505
    width: 100
    height: 97
    borderLeft: 0
    borderRight: 0
    borderTop: 0
    borderBottom: 0
    paddingLeft: 27
    paddingRight: 25
    paddingTop: 9
    paddingBottom: 6
  - name: notV
    x: 1501
    y: 1805
    width: 51
    height: 34
    borderLeft: 0
    borderRight: 0
    borderTop: 0
    borderBottom: 0
    paddingLeft: 2
    paddingRight: 2
    paddingTop: 3
    paddingBottom: 1
  - name: notX
    x: 1445
    y: 1805
    width: 51
    height: 34
    borderLeft: 0
    borderRight: 0
    borderTop: 0
    borderBottom: 0
    paddingLeft: 2
    paddingRight: 2
    paddingTop: 3
    paddingBottom: 1
  - name: O
    x: 1940
    y: 861
    width: 92
    height: 91
    borderLeft: 0
    borderRight: 0
    borderTop: 0
    borderBottom: 0
    paddingLeft: 31
    paddingRight: 29
    paddingTop: 11
    paddingBottom: 10
  - name: offside
    x: 811
    y: 393
    width: 135
    height: 112
    borderLeft: 0
    borderRight: 0
    borderTop: 0
    borderBottom: 0
    paddingLeft: 12
    paddingRight: 5
    paddingTop: 0
    paddingBottom: 0
  - name: penalty
    x: 1524
    y: 1092
    width: 138
    height: 93
    borderLeft: 0
    borderRight: 0
    borderTop: 0
    borderBottom: 0
    paddingLeft: 7
    paddingRight: 7
    paddingTop: 8
    paddingBottom: 11
  - name: phone
    x: 749
    y: 245
    width: 55
    height: 105
    borderLeft: 0
    borderRight: 0
    borderTop: 0
    borderBottom: 0
    paddingLeft: 0
    paddingRight: 0
    paddingTop: 0
    paddingBottom: 0
  - name: playerProfile
    x: 1199
    y: 286
    width: 86
    height: 112
    borderLeft: 0
    borderRight: 0
    borderTop: 0
    borderBottom: 0
    paddingLeft: 14
    paddingRight: 12
    paddingTop: 0
    paddingBottom: 0
  - name: Play-icon
    x: 230
    y: 774
    width: 120
    height: 170
    borderLeft: 0
    borderRight: 0
    borderTop: 0
    borderBottom: 0
    paddingLeft: 0
    paddingRight: 0
    paddingTop: 0
    paddingBottom: 0
  - name: points
    x: 1161
    y: 1486
    width: 207
    height: 63
    borderLeft: 0
    borderRight: 0
    borderTop: 0
    borderBottom: 0
    paddingLeft: 0
    paddingRight: 0
    paddingTop: 0
    paddingBottom: 0
  - name: points_side
    x: 1304
    y: 741
    width: 139
    height: 71
    borderLeft: 0
    borderRight: 0
    borderTop: 0
    borderBottom: 0
    paddingLeft: 0
    paddingRight: 0
    paddingTop: 0
    paddingBottom: 0
  - name: polls
    x: 1121
    y: 1080
    width: 131
    height: 105
    borderLeft: 0
    borderRight: 0
    borderTop: 0
    borderBottom: 0
    paddingLeft: 9
    paddingRight: 12
    paddingTop: 5
    paddingBottom: 2
  - name: possession
    x: 261
    y: 34
    width: 92
    height: 106
    borderLeft: 0
    borderRight: 0
    borderTop: 0
    borderBottom: 0
    paddingLeft: 32
    paddingRight: 28
    paddingTop: 3
    paddingBottom: 3
  - name: Rect_Hole
    x: 811
    y: 635
    width: 128
    height: 128
    borderLeft: 91
    borderRight: 5
    borderTop: 25
    borderBottom: 50
    paddingLeft: 0
    paddingRight: 0
    paddingTop: 0
    paddingBottom: 0
  - name: rectPSD
    x: 1494
    y: 1287
    width: 249
    height: 190
    borderLeft: 46
    borderRight: 22
    borderTop: 36
    borderBottom: 36
    paddingLeft: 0
    paddingRight: 7
    paddingTop: 33
    paddingBottom: 33
  - name: red
    x: 739
    y: 446
    width: 65
    height: 112
    borderLeft: 0
    borderRight: 0
    borderTop: 0
    borderBottom: 0
    paddingLeft: 43
    paddingRight: 44
    paddingTop: 0
    paddingBottom: 0
  - name: result
    x: 230
    y: 271
    width: 125
    height: 59
    borderLeft: 0
    borderRight: 0
    borderTop: 0
    borderBottom: 0
    paddingLeft: 14
    paddingRight: 13
    paddingTop: 30
    paddingBottom: 23
  - name: rollerCard
    x: 230
    y: 949
    width: 125
    height: 221
    borderLeft: 0
    borderRight: 0
    borderTop: 0
    borderBottom: 0
    paddingLeft: 0
    paddingRight: 0
    paddingTop: 1
    paddingBottom: 1
  - name: romvosNoshadow
    x: 1108
    y: 960
    width: 128
    height: 111
    borderLeft: 0
    borderRight: 0
    borderTop: 0
    borderBottom: 0
    paddingLeft: 3
    paddingRight: 3
    paddingTop: 1
    paddingBottom: 5
  - name: RoundBeveledIn
    x: 1161
    y: 1554
    width: 245
    height: 245
    borderLeft: 1
    borderRight: 0
    borderTop: 0
    borderBottom: 0
    paddingLeft: 2
    paddingRight: 2
    paddingTop: 1
    paddingBottom: 2
  - name: RoundFillGreen
    x: 361
    y: 1240
    width: 237
    height: 237
    borderLeft: 0
    borderRight: 0
    borderTop: 0
    borderBottom: 0
    paddingLeft: 4
    paddingRight: 4
    paddingTop: 4
    paddingBottom: 4
  - name: RoundFillRed
    x: 636
    y: 1535
    width: 264
    height: 264
    borderLeft: 0
    borderRight: 0
    borderTop: 0
    borderBottom: 0
    paddingLeft: 0
    paddingRight: 0
    paddingTop: 0
    paddingBottom: 0
  - name: RoundIn
    x: 1411
    y: 1554
    width: 245
    height: 245
    borderLeft: 0
    borderRight: 0
    borderTop: 0
    borderBottom: 0
    paddingLeft: 1
    paddingRight: 2
    paddingTop: 1
    paddingBottom: 2
  - name: S1
    x: 603
    y: 355
    width: 131
    height: 203
    borderLeft: 0
    borderRight: 0
    borderTop: 0
    borderBottom: 0
    paddingLeft: 2
    paddingRight: 3
    paddingTop: 2
    paddingBottom: 3
  - name: S2
    x: 361
    y: 477
    width: 199
    height: 262
    borderLeft: 0
    borderRight: 0
    borderTop: 0
    borderBottom: 0
    paddingLeft: 2
    paddingRight: 2
    paddingTop: 2
    paddingBottom: 2
  - name: S3
    x: 361
    y: 1482
    width: 270
    height: 317
    borderLeft: 0
    borderRight: 0
    borderTop: 0
    borderBottom: 0
    paddingLeft: 0
    paddingRight: 0
    paddingTop: 0
    paddingBottom: 0
  - name: s3Left
    x: 0
    y: 720
    width: 225
    height: 450
    borderLeft: 0
    borderRight: 0
    borderTop: 0
    borderBottom: 0
    paddingLeft: 0
    paddingRight: 0
    paddingTop: 0
    paddingBottom: 0
  - name: S3Right
    x: 0
    y: 265
    width: 225
    height: 450
    borderLeft: 0
    borderRight: 0
    borderTop: 0
    borderBottom: 0
    paddingLeft: 0
    paddingRight: 0
    paddingTop: 0
    paddingBottom: 0
  - name: scoreshadow
    x: 1644
    y: 424
    width: 64
    height: 64
    borderLeft: 0
    borderRight: 0
    borderTop: 6
    borderBottom: 6
    paddingLeft: 0
    paddingRight: 0
    paddingTop: 0
    paddingBottom: 0
  - name: SectionBg
    x: 1680
    y: 1214
    width: 256
    height: 58
    borderLeft: 9
    borderRight: 9
    borderTop: 9
    borderBottom: 9
    paddingLeft: 0
    paddingRight: 0
    paddingTop: 0
    paddingBottom: 0
  - name: set_Article
    x: 1304
    y: 190
    width: 78
    height: 102
    borderLeft: 0
    borderRight: 0
    borderTop: 0
    borderBottom: 0
    paddingLeft: 0
    paddingRight: 0
    paddingTop: 0
    paddingBottom: 0
  - name: set_edit-notifications
    x: 1066
    y: 215
    width: 102
    height: 99
    borderLeft: 0
    borderRight: 0
    borderTop: 0
    borderBottom: 0
    paddingLeft: 0
    paddingRight: 0
    paddingTop: 0
    paddingBottom: 0
  - name: set_how-to-play
    x: 1304
    y: 515
    width: 78
    height: 111
    borderLeft: 0
    borderRight: 0
    borderTop: 0
    borderBottom: 0
    paddingLeft: 0
    paddingRight: 0
    paddingTop: 0
    paddingBottom: 0
  - name: set_Password
    x: 1304
    y: 89
    width: 81
    height: 96
    borderLeft: 0
    borderRight: 0
    borderTop: 0
    borderBottom: 0
    paddingLeft: 0
    paddingRight: 0
    paddingTop: 0
    paddingBottom: 0
  - name: set_player-name
    x: 956
    y: 957
    width: 147
    height: 114
    borderLeft: 0
    borderRight: 0
    borderTop: 0
    borderBottom: 0
    paddingLeft: 0
    paddingRight: 0
    paddingTop: 0
    paddingBottom: 0
  - name: set_privacy-policy
    x: 1396
    y: 664
    width: 117
    height: 72
    borderLeft: 0
    borderRight: 0
    borderTop: 0
    borderBottom: 0
    paddingLeft: 0
    paddingRight: 0
    paddingTop: 0
    paddingBottom: 0
  - name: set_sound
    x: 1396
    y: 397
    width: 87
    height: 89
    borderLeft: 0
    borderRight: 0
    borderTop: 0
    borderBottom: 0
    paddingLeft: 0
    paddingRight: 0
    paddingTop: 1
    paddingBottom: 0
  - name: set_unsubscribe
    x: 1674
    y: 502
    width: 89
    height: 77
    borderLeft: 0
    borderRight: 0
    borderTop: 0
    borderBottom: 0
    paddingLeft: 0
    paddingRight: 1
    paddingTop: 2
    paddingBottom: 2
  - name: Settings_Icon
    x: 230
    y: 461
    width: 124
    height: 124
    borderLeft: 0
    borderRight: 0
    borderTop: 0
    borderBottom: 0
    paddingLeft: 2
    paddingRight: 2
    paddingTop: 3
    paddingBottom: 1
  - name: shadow
    x: 361
    y: 1804
    width: 442
    height: 244
    borderLeft: 0
    borderRight: 0
    borderTop: 0
    borderBottom: 0
    paddingLeft: 0
    paddingRight: 0
    paddingTop: 0
    paddingBottom: 0
  - name: shirtHolder
    x: 230
    y: 590
    width: 125
    height: 125
    borderLeft: 0
    borderRight: 0
    borderTop: 0
    borderBottom: 0
    paddingLeft: 1
    paddingRight: 1
    paddingTop: 0
    paddingBottom: 2
  - name: shoton
    x: 1608
    y: 970
    width: 119
    height: 101
    borderLeft: 0
    borderRight: 0
    borderTop: 0
    borderBottom: 0
    paddingLeft: 17
    paddingRight: 16
    paddingTop: 6
    paddingBottom: 5
  - name: sleep
    x: 603
    y: 209
    width: 141
    height: 141
    borderLeft: 0
    borderRight: 0
    borderTop: 0
    borderBottom: 0
    paddingLeft: 0
    paddingRight: 0
    paddingTop: 0
    paddingBottom: 0
  - name: slimline
    x: 337
    y: 730
    width: 10
    height: 2
    borderLeft: 0
    borderRight: 0
    borderTop: 0
    borderBottom: 0
    paddingLeft: 0
    paddingRight: 0
    paddingTop: 0
    paddingBottom: 0
  - name: spanish
    x: 1066
    y: 620
    width: 100
    height: 104
    borderLeft: 0
    borderRight: 0
    borderTop: 0
    borderBottom: 0
    paddingLeft: 0
    paddingRight: 0
    paddingTop: 0
    paddingBottom: 0
  - name: sportimoicon
    x: 1304
    y: 297
    width: 84
    height: 100
    borderLeft: 0
    borderRight: 0
    borderTop: 0
    borderBottom: 0
    paddingLeft: 35
    paddingRight: 33
    paddingTop: 6
    paddingBottom: 6
  - name: sportimo-Logo
    x: 739
    y: 369
    width: 61
    height: 72
    borderLeft: 0
    borderRight: 0
    borderTop: 0
    borderBottom: 0
    paddingLeft: 20
    paddingRight: 19
    paddingTop: 14
    paddingBottom: 14
  - name: StadiumBgSmall
    x: 1883
    y: 1543
    width: 145
    height: 256
    borderLeft: 0
    borderRight: 0
    borderTop: 0
    borderBottom: 0
    paddingLeft: 0
    paddingRight: 0
    paddingTop: 0
    paddingBottom: 0
  - name: StarBevel
    x: 1582
    y: 495
    width: 87
    height: 84
    borderLeft: 0
    borderRight: 0
    borderTop: 0
    borderBottom: 0
    paddingLeft: 2
    paddingRight: 3
    paddingTop: 1
    paddingBottom: 3
  - name: Stars
    x: 808
    y: 1857
    width: 495
    height: 191
    borderLeft: 0
    borderRight: 0
    borderTop: 0
    borderBottom: 0
    paddingLeft: 3
    paddingRight: 7
    paddingTop: 0
    paddingBottom: 0
  - name: starsEmpty
    x: 1661
    y: 1484
    width: 101
    height: 46
    borderLeft: 0
    borderRight: 0
    borderTop: 0
    borderBottom: 0
    paddingLeft: 0
    paddingRight: 0
    paddingTop: 0
    paddingBottom: 0
  - name: starsFilled
    x: 1767
    y: 1486
    width: 99
    height: 44
    borderLeft: 0
    borderRight: 0
    borderTop: 0
    borderBottom: 0
    paddingLeft: 0
    paddingRight: 0
    paddingTop: 0
    paddingBottom: 0
  - name: StarYellow
    x: 1304
    y: 8
    width: 79
    height: 76
    borderLeft: 0
    borderRight: 0
    borderTop: 0
    borderBottom: 0
    paddingLeft: 13
    paddingRight: 14
    paddingTop: 12
    paddingBottom: 14
  - name: stats
    x: 603
    y: 102
    width: 194
    height: 102
    borderLeft: 0
    borderRight: 0
    borderTop: 0
    borderBottom: 0
    paddingLeft: 1
    paddingRight: 0
    paddingTop: 0
    paddingBottom: 0
  - name: stop
    x: 811
    y: 1045
    width: 140
    height: 140
    borderLeft: 0
    borderRight: 0
    borderTop: 0
    borderBottom: 0
    paddingLeft: 1
    paddingRight: 0
    paddingTop: 1
    paddingBottom: 0
  - name: sub1
    x: 956
    y: 841
    width: 105
    height: 111
    borderLeft: 0
    borderRight: 0
    borderTop: 0
    borderBottom: 0
    paddingLeft: 25
    paddingRight: 22
    paddingTop: 0
    paddingBottom: 1
  - name: sub2
    x: 1865
    y: 959
    width: 105
    height: 112
    borderLeft: 0
    borderRight: 0
    borderTop: 0
    borderBottom: 0
    paddingLeft: 26
    paddingRight: 21
    paddingTop: 0
    paddingBottom: 0
  - name: subin
    x: 1651
    y: 878
    width: 150
    height: 74
    borderLeft: 0
    borderRight: 0
    borderTop: 0
    borderBottom: 0
    paddingLeft: 2
    paddingRight: 0
    paddingTop: 30
    paddingBottom: 8
  - name: subout
    x: 1331
    y: 877
    width: 151
    height: 75
    borderLeft: 0
    borderRight: 0
    borderTop: 0
    borderBottom: 0
    paddingLeft: 1
    paddingRight: 0
    paddingTop: 11
    paddingBottom: 26
  - name: thunder
    x: 565
    y: 692
    width: 23
    height: 47
    borderLeft: 0
    borderRight: 0
    borderTop: 0
    borderBottom: 0
    paddingLeft: 0
    paddingRight: 0
    paddingTop: 0
    paddingBottom: 0
  - name: tileBlackWhite
    x: 1066
    y: 5
    width: 100
    height: 100
    borderLeft: 0
    borderRight: 0
    borderTop: 0
    borderBottom: 0
    paddingLeft: 0
    paddingRight: 0
    paddingTop: 0
    paddingBottom: 0
  - name: tileRedYellow
    x: 1199
    y: 712
    width: 100
    height: 100
    borderLeft: 0
    borderRight: 0
    borderTop: 0
    borderBottom: 0
    paddingLeft: 0
    paddingRight: 0
    paddingTop: 0
    paddingBottom: 0
  - name: timmer_Icon
    x: 1491
    y: 164
    width: 64
    height: 64
    borderLeft: 0
    borderRight: 0
    borderTop: 0
    borderBottom: 0
    paddingLeft: 0
    paddingRight: 0
    paddingTop: 0
    paddingBottom: 0
  - name: TopIntro
    x: 361
    y: 250
    width: 227
    height: 222
    borderLeft: 0
    borderRight: 0
    borderTop: 0
    borderBottom: 0
    paddingLeft: 3
    paddingRight: 4
    paddingTop: 3
    paddingBottom: 4
  - name: TopPoly
    x: 361
    y: 744
    width: 231
    height: 226
    borderLeft: 0
    borderRight: 0
    borderTop: 0
    borderBottom: 0
    paddingLeft: 1
    paddingRight: 2
    paddingTop: 1
    paddingBottom: 2
  - name: transparent_circle
    x: 811
    y: 768
    width: 128
    height: 128
    borderLeft: 0
    borderRight: 0
    borderTop: 0
    borderBottom: 0
    paddingLeft: 0
    paddingRight: 0
    paddingTop: 0
    paddingBottom: 0
  - name: tweet
    x: 1257
    y: 1079
    width: 129
    height: 106
    borderLeft: 0
    borderRight: 0
    borderTop: 0
    borderBottom: 0
    paddingLeft: 15
    paddingRight: 8
    paddingTop: 3
    paddingBottom: 3
  - name: underLine
    x: 887
    y: 1283
    width: 290
    height: 21
    borderLeft: 5
    borderRight: 5
    borderTop: 0
    borderBottom: 5
    paddingLeft: 0
    paddingRight: 0
    paddingTop: 0
    paddingBottom: 0
  - name: UniBold
    x: 0
    y: 1616
    width: 356
    height: 432
    borderLeft: 0
    borderRight: 0
    borderTop: 0
    borderBottom: 0
    paddingLeft: 0
    paddingRight: 0
    paddingTop: 0
    paddingBottom: 0
  - name: UniReg
    x: 0
    y: 1175
    width: 298
    height: 436
    borderLeft: 0
    borderRight: 0
    borderTop: 0
    borderBottom: 0
    paddingLeft: 0
    paddingRight: 0
    paddingTop: 0
    paddingBottom: 0
  - name: whistle
    x: 1667
    y: 1092
    width: 138
    height: 93
    borderLeft: 0
    borderRight: 0
    borderTop: 0
    borderBottom: 0
    paddingLeft: 7
    paddingRight: 7
    paddingTop: 8
    paddingBottom: 11
  - name: who-will-score
    x: 956
    y: 610
    width: 102
    height: 109
    borderLeft: 0
    borderRight: 0
    borderTop: 0
    borderBottom: 0
    paddingLeft: 26
    paddingRight: 24
    paddingTop: 2
    paddingBottom: 1
  - name: wifi-icon
    x: 1391
    y: 1079
    width: 128
    height: 106
    borderLeft: 0
    borderRight: 0
    borderTop: 0
    borderBottom: 0
    paddingLeft: 0
    paddingRight: 0
    paddingTop: 0
    paddingBottom: 0
  - name: windot
    x: 303
    y: 1224
    width: 42
    height: 43
    borderLeft: 0
    borderRight: 0
    borderTop: 0
    borderBottom: 0
    paddingLeft: 3
    paddingRight: 2
    paddingTop: 2
    paddingBottom: 2
  - name: x2
    x: 1518
    y: 665
    width: 113
    height: 71
    borderLeft: 0
    borderRight: 0
    borderTop: 0
    borderBottom: 0
    paddingLeft: 2
    paddingRight: 5
    paddingTop: 25
    paddingBottom: 24
  - name: xClose
    x: 296
    y: 5
    width: 24
    height: 24
    borderLeft: 0
    borderRight: 0
    borderTop: 0
    borderBottom: 0
    paddingLeft: 0
    paddingRight: 0
    paddingTop: 0
    paddingBottom: 0
  - name: yellow
    x: 1975
    y: 959
    width: 64
    height: 112
    borderLeft: 0
    borderRight: 0
    borderTop: 0
    borderBottom: 0
    paddingLeft: 45
    paddingRight: 43
    paddingTop: 0
    paddingBottom: 0
  - name: YellowBtn
    x: 1403
    y: 1206
    width: 272
    height: 66
    borderLeft: 12
    borderRight: 12
    borderTop: 12
    borderBottom: 12
    paddingLeft: 0
    paddingRight: 0
    paddingTop: 0
    paddingBottom: 6
  - name: YellowIntro
    x: 1748
    y: 1277
    width: 207
    height: 200
    borderLeft: 0
    borderRight: 0
    borderTop: 0
    borderBottom: 0
    paddingLeft: 1
    paddingRight: 2
    paddingTop: 0
    paddingBottom: 4
  - name: YellowPoly
    x: 361
    y: 42
    width: 209
    height: 203
    borderLeft: 0
    borderRight: 0
    borderTop: 0
    borderBottom: 0
    paddingLeft: 0
    paddingRight: 1
    paddingTop: 0
    paddingBottom: 1
  mPixelSize: 1
  mReplacement: {fileID: 0}
  mCoordinates: 0
  sprites: []
--- !u!1001 &100100000
Prefab:
  m_ObjectHideFlags: 1
  serializedVersion: 2
  m_Modification:
    m_TransformParent: {fileID: 0}
    m_Modifications: []
    m_RemovedComponents: []
  m_ParentPrefab: {fileID: 0}
  m_RootGameObject: {fileID: 125428}
  m_IsPrefabParent: 1
