%YAML 1.1
%TAG !u! tag:unity3d.com,2011:
--- !u!1001 &100100000
Prefab:
  m_ObjectHideFlags: 1
  serializedVersion: 2
  m_Modification:
    m_TransformParent: {fileID: 0}
    m_Modifications: []
    m_RemovedComponents: []
  m_ParentPrefab: {fileID: 0}
  m_RootGameObject: {fileID: 1000012267724374}
  m_IsPrefabParent: 1
--- !u!1 &1000012267724374
GameObject:
  m_ObjectHideFlags: 0
  m_PrefabParentObject: {fileID: 0}
  m_PrefabInternal: {fileID: 100100000}
  serializedVersion: 4
  m_Component:
  - 4: {fileID: 4000010420213450}
  - 114: {fileID: 114000011642854952}
  m_Layer: 0
  m_Name: UniBold
  m_TagString: Untagged
  m_Icon: {fileID: 0}
  m_NavMeshLayer: 0
  m_StaticEditorFlags: 0
  m_IsActive: 1
--- !u!4 &4000010420213450
Transform:
  m_ObjectHideFlags: 1
  m_PrefabParentObject: {fileID: 0}
  m_PrefabInternal: {fileID: 100100000}
  m_GameObject: {fileID: 1000012267724374}
  m_LocalRotation: {x: 0, y: 0, z: 0, w: 1}
  m_LocalPosition: {x: 0, y: 0, z: 0}
  m_LocalScale: {x: 1, y: 1, z: 1}
  m_LocalEulerAnglesHint: {x: 0, y: 0, z: 0}
  m_Children: []
  m_Father: {fileID: 0}
  m_RootOrder: 0
--- !u!114 &114000011642854952
MonoBehaviour:
  m_ObjectHideFlags: 1
  m_PrefabParentObject: {fileID: 0}
  m_PrefabInternal: {fileID: 100100000}
  m_GameObject: {fileID: 1000012267724374}
  m_Enabled: 1
  m_EditorHideFlags: 0
  m_Script: {fileID: 11500000, guid: 0b4eb3a400afab046abb8471a9d746d6, type: 3}
  m_Name: 
  m_EditorClassIdentifier: 
  mMat: {fileID: 2100000, guid: a1cae3467e9a41e489aa8f8c70b67089, type: 2}
  mUVRect:
    serializedVersion: 2
    x: 0
    y: 0
    width: 0.17382812
    height: 0.2109375
  mFont:
    mSize: 36
    mBase: 26
    mWidth: 356
    mHeight: 432
    mSpriteName: UniBold
    mSaved:
    - index: 32
      x: 346
      y: 422
      width: 0
      height: 0
      offsetX: 0
      offsetY: 29
      advance: 6
      channel: 0
      kerning: 
    - index: 33
      x: 32
      y: 259
      width: 6
      height: 21
      offsetX: 3
      offsetY: 8
      advance: 9
      channel: 0
      kerning: 
    - index: 34
      x: 186
      y: 410
      width: 11
      height: 10
      offsetX: 2
      offsetY: 8
      advance: 12
      channel: 0
      kerning: 
    - index: 35
      x: 30
      y: 320
      width: 15
      height: 20
      offsetX: 0
      offsetY: 9
      advance: 13
      channel: 0
      kerning: 
    - index: 36
      x: 281
      y: 94
      width: 14
      height: 26
      offsetX: 1
      offsetY: 6
      advance: 14
      channel: 0
      kerning: 
    - index: 37
      x: 21
      y: 300
      width: 21
      height: 20
      offsetX: 1
      offsetY: 9
      advance: 20
      channel: 0
      kerning: 
    - index: 38
      x: 283
      y: 217
      width: 21
      height: 21
      offsetX: 0
      offsetY: 8
      advance: 19
      channel: 0
      kerning: 
    - index: 39
      x: 294
      y: 410
      width: 6
      height: 10
      offsetX: 2
      offsetY: 8
      advance: 6
      channel: 0
      kerning: 
    - index: 40
      x: 343
      y: 94
      width: 8
      height: 26
      offsetX: 1
      offsetY: 8
      advance: 8
      channel: 0
      kerning: 
    - index: 41
      x: 0
      y: 121
      width: 8
      height: 26
      offsetX: 1
      offsetY: 8
      advance: 8
      channel: 0
      kerning: 
    - index: 42
      x: 323
      y: 395
      width: 12
      height: 13
      offsetX: 2
      offsetY: 8
      advance: 13
      channel: 0
      kerning: 
    - index: 43
      x: 276
      y: 379
      width: 15
      height: 15
      offsetX: 1
      offsetY: 13
      advance: 13
      channel: 0
      kerning: 
    - index: 44
      x: 239
      y: 410
      width: 8
      height: 10
      offsetX: 0
      offsetY: 23
      advance: 7
      channel: 0
      kerning: 
    - index: 45
      x: 294
      y: 422
      width: 9
      height: 5
      offsetX: 1
      offsetY: 19
      advance: 8
      channel: 0
      kerning: 
    - index: 46
      x: 176
      y: 422
      width: 6
      height: 7
      offsetX: 2
      offsetY: 22
      advance: 7
      channel: 0
      kerning: 
    - index: 47
      x: 295
      y: 94
      width: 14
      height: 26
      offsetX: 0
      offsetY: 7
      advance: 12
      channel: 0
      kerning: 
    - index: 48
      x: 327
      y: 300
      width: 15
      height: 20
      offsetX: 1
      offsetY: 9
      advance: 14
      channel: 0
      kerning: 
    - index: 49
      x: 98
      y: 340
      width: 13
      height: 20
      offsetX: 2
      offsetY: 9
      advance: 14
      channel: 0
      kerning: 
    - index: 50
      x: 203
      y: 320
      width: 14
      height: 20
      offsetX: 1
      offsetY: 9
      advance: 14
      channel: 0
      kerning: 
    - index: 51
      x: 217
      y: 320
      width: 14
      height: 20
      offsetX: 1
      offsetY: 9
      advance: 14
      channel: 0
      kerning: 
    - index: 52
      x: 45
      y: 320
      width: 15
      height: 20
      offsetX: 0
      offsetY: 9
      advance: 14
      channel: 0
      kerning: 
    - index: 53
      x: 231
      y: 320
      width: 14
      height: 20
      offsetX: 1
      offsetY: 9
      advance: 14
      channel: 0
      kerning: 
    - index: 54
      x: 105
      y: 320
      width: 14
      height: 20
      offsetX: 1
      offsetY: 9
      advance: 14
      channel: 0
      kerning: 
    - index: 55
      x: 56
      y: 340
      width: 14
      height: 20
      offsetX: 1
      offsetY: 9
      advance: 14
      channel: 0
      kerning: 
    - index: 56
      x: 0
      y: 320
      width: 15
      height: 20
      offsetX: 1
      offsetY: 9
      advance: 14
      channel: 0
      kerning: 
    - index: 57
      x: 119
      y: 320
      width: 14
      height: 20
      offsetX: 1
      offsetY: 9
      advance: 14
      channel: 0
      kerning: 
    - index: 58
      x: 11
      y: 395
      width: 6
      height: 15
      offsetX: 2
      offsetY: 14
      advance: 7
      channel: 0
      kerning: 
    - index: 59
      x: 50
      y: 360
      width: 8
      height: 19
      offsetX: 1
      offsetY: 14
      advance: 7
      channel: 0
      kerning: 
    - index: 60
      x: 82
      y: 379
      width: 14
      height: 16
      offsetX: 1
      offsetY: 12
      advance: 13
      channel: 0
      kerning: 
    - index: 61
      x: 106
      y: 410
      width: 14
      height: 10
      offsetX: 1
      offsetY: 15
      advance: 13
      channel: 0
      kerning: 
    - index: 62
      x: 96
      y: 379
      width: 14
      height: 16
      offsetX: 1
      offsetY: 12
      advance: 13
      channel: 0
      kerning: 
    - index: 63
      x: 295
      y: 238
      width: 12
      height: 21
      offsetX: 2
      offsetY: 8
      advance: 13
      channel: 0
      kerning: 
    - index: 64
      x: 294
      y: 121
      width: 25
      height: 24
      offsetX: 0
      offsetY: 8
      advance: 24
      channel: 0
      kerning: 
    - index: 65
      x: 97
      y: 300
      width: 18
      height: 20
      offsetX: 0
      offsetY: 9
      advance: 16
      channel: 0
      kerning: 
    - index: 66
      x: 75
      y: 320
      width: 15
      height: 20
      offsetX: 2
      offsetY: 9
      advance: 15
      channel: 0
      kerning: 
    - index: 67
      x: 312
      y: 300
      width: 15
      height: 20
      offsetX: 1
      offsetY: 9
      advance: 14
      channel: 0
      kerning: 
    - index: 68
      x: 150
      y: 300
      width: 17
      height: 20
      offsetX: 2
      offsetY: 9
      advance: 17
      channel: 0
      kerning: 
    - index: 69
      x: 111
      y: 340
      width: 13
      height: 20
      offsetX: 2
      offsetY: 9
      advance: 13
      channel: 0
      kerning: 
    - index: 70
      x: 136
      y: 340
      width: 12
      height: 20
      offsetX: 2
      offsetY: 9
      advance: 12
      channel: 0
      kerning: 
    - index: 71
      x: 133
      y: 300
      width: 17
      height: 20
      offsetX: 1
      offsetY: 9
      advance: 17
      channel: 0
      kerning: 
    - index: 72
      x: 232
      y: 300
      width: 16
      height: 20
      offsetX: 2
      offsetY: 9
      advance: 17
      channel: 0
      kerning: 
    - index: 73
      x: 176
      y: 340
      width: 6
      height: 20
      offsetX: 2
      offsetY: 9
      advance: 7
      channel: 0
      kerning: 
    - index: 74
      x: 160
      y: 340
      width: 10
      height: 20
      offsetX: 0
      offsetY: 9
      advance: 9
      channel: 0
      kerning: 
    - index: 75
      x: 90
      y: 320
      width: 15
      height: 20
      offsetX: 2
      offsetY: 9
      advance: 15
      channel: 0
      kerning: 
    - index: 76
      x: 148
      y: 340
      width: 12
      height: 20
      offsetX: 2
      offsetY: 9
      advance: 11
      channel: 0
      kerning: 
    - index: 77
      x: 244
      y: 280
      width: 22
      height: 20
      offsetX: 2
      offsetY: 9
      advance: 24
      channel: 0
      kerning: 
    - index: 78
      x: 167
      y: 300
      width: 17
      height: 20
      offsetX: 2
      offsetY: 9
      advance: 18
      channel: 0
      kerning: 
    - index: 79
      x: 42
      y: 300
      width: 19
      height: 20
      offsetX: 1
      offsetY: 9
      advance: 18
      channel: 0
      kerning: 
    - index: 80
      x: 0
      y: 340
      width: 14
      height: 20
      offsetX: 2
      offsetY: 9
      advance: 14
      channel: 0
      kerning: 
    - index: 81
      x: 99
      y: 171
      width: 20
      height: 23
      offsetX: 1
      offsetY: 9
      advance: 19
      channel: 0
      kerning: 
    - index: 82
      x: 60
      y: 320
      width: 15
      height: 20
      offsetX: 2
      offsetY: 9
      advance: 15
      channel: 0
      kerning: 
    - index: 83
      x: 245
      y: 320
      width: 14
      height: 20
      offsetX: 1
      offsetY: 9
      advance: 13
      channel: 0
      kerning: 
    - index: 84
      x: 248
      y: 300
      width: 16
      height: 20
      offsetX: 0
      offsetY: 9
      advance: 13
      channel: 0
      kerning: 
    - index: 85
      x: 184
      y: 300
      width: 16
      height: 20
      offsetX: 2
      offsetY: 9
      advance: 18
      channel: 0
      kerning: 
    - index: 86
      x: 115
      y: 300
      width: 18
      height: 20
      offsetX: 0
      offsetY: 9
      advance: 16
      channel: 0
      kerning: 
    - index: 87
      x: 193
      y: 259
      width: 26
      height: 20
      offsetX: 1
      offsetY: 9
      advance: 24
      channel: 0
      kerning: 
    - index: 88
      x: 200
      y: 300
      width: 16
      height: 20
      offsetX: 0
      offsetY: 9
      advance: 15
      channel: 0
      kerning: 
    - index: 89
      x: 216
      y: 300
      width: 16
      height: 20
      offsetX: 0
      offsetY: 9
      advance: 14
      channel: 0
      kerning: 
    - index: 90
      x: 14
      y: 340
      width: 14
      height: 20
      offsetX: 1
      offsetY: 9
      advance: 13
      channel: 0
      kerning: 
    - index: 91
      x: 8
      y: 121
      width: 8
      height: 26
      offsetX: 2
      offsetY: 7
      advance: 9
      channel: 0
      kerning: 
    - index: 92
      x: 309
      y: 94
      width: 14
      height: 26
      offsetX: 0
      offsetY: 7
      advance: 12
      channel: 0
      kerning: 
    - index: 93
      x: 16
      y: 121
      width: 8
      height: 26
      offsetX: 1
      offsetY: 7
      advance: 9
      channel: 0
      kerning: 
    - index: 94
      x: 308
      y: 395
      width: 15
      height: 13
      offsetX: 0
      offsetY: 9
      advance: 13
      channel: 0
      kerning: 
    - index: 95
      x: 278
      y: 422
      width: 16
      height: 5
      offsetX: 0
      offsetY: 29
      advance: 13
      channel: 0
      kerning: 
    - index: 96
      x: 74
      y: 422
      width: 9
      height: 8
      offsetX: 0
      offsetY: 8
      advance: 8
      channel: 0
      kerning: 
    - index: 97
      x: 165
      y: 379
      width: 13
      height: 16
      offsetX: 1
      offsetY: 13
      advance: 13
      channel: 0
      kerning: 
    - index: 98
      x: 130
      y: 238
      width: 14
      height: 21
      offsetX: 2
      offsetY: 8
      advance: 14
      channel: 0
      kerning: 
    - index: 99
      x: 203
      y: 379
      width: 12
      height: 16
      offsetX: 1
      offsetY: 13
      advance: 11
      channel: 0
      kerning: 
    - index: 100
      x: 144
      y: 238
      width: 14
      height: 21
      offsetX: 1
      offsetY: 8
      advance: 14
      channel: 0
      kerning: 
    - index: 101
      x: 110
      y: 379
      width: 14
      height: 16
      offsetX: 1
      offsetY: 13
      advance: 14
      channel: 0
      kerning: 
    - index: 102
      x: 12
      y: 259
      width: 11
      height: 21
      offsetX: 0
      offsetY: 8
      advance: 9
      channel: 0
      kerning: 
    - index: 103
      x: 133
      y: 320
      width: 14
      height: 20
      offsetX: 0
      offsetY: 14
      advance: 13
      channel: 0
      kerning: 
    - index: 104
      x: 172
      y: 238
      width: 14
      height: 21
      offsetX: 2
      offsetY: 8
      advance: 14
      channel: 0
      kerning: 
    - index: 105
      x: 170
      y: 340
      width: 6
      height: 20
      offsetX: 1
      offsetY: 9
      advance: 7
      channel: 0
      kerning: 
    - index: 106
      x: 211
      y: 121
      width: 8
      height: 25
      offsetX: 0
      offsetY: 9
      advance: 7
      channel: 0
      kerning: 
    - index: 107
      x: 256
      y: 238
      width: 13
      height: 21
      offsetX: 2
      offsetY: 8
      advance: 13
      channel: 0
      kerning: 
    - index: 108
      x: 38
      y: 259
      width: 6
      height: 21
      offsetX: 2
      offsetY: 8
      advance: 7
      channel: 0
      kerning: 
    - index: 109
      x: 25
      y: 379
      width: 21
      height: 16
      offsetX: 2
      offsetY: 13
      advance: 22
      channel: 0
      kerning: 
    - index: 110
      x: 124
      y: 379
      width: 14
      height: 16
      offsetX: 2
      offsetY: 13
      advance: 14
      channel: 0
      kerning: 
    - index: 111
      x: 67
      y: 379
      width: 15
      height: 16
      offsetX: 1
      offsetY: 13
      advance: 15
      channel: 0
      kerning: 
    - index: 112
      x: 147
      y: 320
      width: 14
      height: 20
      offsetX: 2
      offsetY: 14
      advance: 14
      channel: 0
      kerning: 
    - index: 113
      x: 161
      y: 320
      width: 14
      height: 20
      offsetX: 1
      offsetY: 14
      advance: 14
      channel: 0
      kerning: 
    - index: 114
      x: 226
      y: 379
      width: 10
      height: 16
      offsetX: 2
      offsetY: 13
      advance: 10
      channel: 0
      kerning: 
    - index: 115
      x: 215
      y: 379
      width: 11
      height: 16
      offsetX: 1
      offsetY: 13
      advance: 11
      channel: 0
      kerning: 
    - index: 116
      x: 39
      y: 360
      width: 11
      height: 19
      offsetX: 0
      offsetY: 10
      advance: 9
      channel: 0
      kerning: 
    - index: 117
      x: 138
      y: 379
      width: 14
      height: 16
      offsetX: 2
      offsetY: 13
      advance: 14
      channel: 0
      kerning: 
    - index: 118
      x: 291
      y: 379
      width: 15
      height: 15
      offsetX: 0
      offsetY: 14
      advance: 13
      channel: 0
      kerning: 
    - index: 119
      x: 236
      y: 379
      width: 22
      height: 15
      offsetX: 0
      offsetY: 14
      advance: 20
      channel: 0
      kerning: 
    - index: 120
      x: 320
      y: 379
      width: 14
      height: 15
      offsetX: 0
      offsetY: 14
      advance: 12
      channel: 0
      kerning: 
    - index: 121
      x: 15
      y: 320
      width: 15
      height: 20
      offsetX: 0
      offsetY: 14
      advance: 13
      channel: 0
      kerning: 
    - index: 122
      x: 0
      y: 395
      width: 11
      height: 15
      offsetX: 1
      offsetY: 14
      advance: 11
      channel: 0
      kerning: 
    - index: 123
      x: 323
      y: 94
      width: 10
      height: 26
      offsetX: 1
      offsetY: 7
      advance: 9
      channel: 0
      kerning: 
    - index: 124
      x: 24
      y: 121
      width: 6
      height: 26
      offsetX: 5
      offsetY: 8
      advance: 13
      channel: 0
      kerning: 
    - index: 125
      x: 333
      y: 94
      width: 10
      height: 26
      offsetX: 1
      offsetY: 7
      advance: 9
      channel: 0
      kerning: 
    - index: 126
      x: 35
      y: 422
      width: 14
      height: 8
      offsetX: 1
      offsetY: 11
      advance: 13
      channel: 0
      kerning: 
    - index: 161
      x: 44
      y: 259
      width: 6
      height: 21
      offsetX: 2
      offsetY: 11
      advance: 9
      channel: 0
      kerning: 
    - index: 162
      x: 124
      y: 340
      width: 12
      height: 20
      offsetX: 2
      offsetY: 9
      advance: 13
      channel: 0
      kerning: 
    - index: 163
      x: 28
      y: 340
      width: 14
      height: 20
      offsetX: 1
      offsetY: 9
      advance: 14
      channel: 0
      kerning: 
    - index: 164
      x: 264
      y: 360
      width: 15
      height: 18
      offsetX: 0
      offsetY: 11
      advance: 13
      channel: 0
      kerning: 
    - index: 168
      x: 62
      y: 422
      width: 12
      height: 8
      offsetX: 0
      offsetY: 8
      advance: 11
      channel: 0
      kerning: 
    - index: 169
      x: 178
      y: 217
      width: 21
      height: 21
      offsetX: 2
      offsetY: 8
      advance: 23
      channel: 0
      kerning: 
    - index: 180
      x: 83
      y: 422
      width: 9
      height: 8
      offsetX: 0
      offsetY: 8
      advance: 8
      channel: 0
      kerning: 
    - index: 183
      x: 182
      y: 422
      width: 6
      height: 7
      offsetX: 2
      offsetY: 16
      advance: 7
      channel: 0
      kerning: 
    - index: 184
      x: 152
      y: 422
      width: 8
      height: 7
      offsetX: 1
      offsetY: 27
      advance: 8
      channel: 0
      kerning: 
    - index: 1542
      x: 61
      y: 300
      width: 18
      height: 20
      offsetX: 1
      offsetY: 8
      advance: 17
      channel: 0
      kerning: 
    - index: 1543
      x: 79
      y: 300
      width: 18
      height: 20
      offsetX: 1
      offsetY: 8
      advance: 17
      channel: 0
      kerning: 
    - index: 1544
      x: 298
      y: 360
      width: 23
      height: 17
      offsetX: 0
      offsetY: 16
      advance: 21
      channel: 0
      kerning: 
    - index: 1545
      x: 264
      y: 300
      width: 16
      height: 20
      offsetX: 1
      offsetY: 9
      advance: 14
      channel: 0
      kerning: 
    - index: 1546
      x: 280
      y: 300
      width: 16
      height: 20
      offsetX: 1
      offsetY: 9
      advance: 14
      channel: 0
      kerning: 
    - index: 1547
      x: 198
      y: 121
      width: 13
      height: 25
      offsetX: 1
      offsetY: 9
      advance: 13
      channel: 0
      kerning: 
    - index: 1548
      x: 99
      y: 410
      width: 7
      height: 11
      offsetX: 2
      offsetY: 18
      advance: 8
      channel: 0
      kerning: 
    - index: 1549
      x: 14
      y: 360
      width: 13
      height: 19
      offsetX: 1
      offsetY: 9
      advance: 12
      channel: 0
      kerning: 
    - index: 1550
      x: 50
      y: 410
      width: 23
      height: 11
      offsetX: 1
      offsetY: 18
      advance: 23
      channel: 0
      kerning: 
    - index: 1551
      x: 251
      y: 94
      width: 15
      height: 26
      offsetX: 1
      offsetY: 11
      advance: 14
      channel: 0
      kerning: 
    - index: 1552
      x: 120
      y: 410
      width: 14
      height: 10
      offsetX: 1
      offsetY: -1
      advance: 16
      channel: 0
      kerning: 
    - index: 1553
      x: 174
      y: 410
      width: 12
      height: 10
      offsetX: 1
      offsetY: -1
      advance: 9
      channel: 0
      kerning: 
    - index: 1554
      x: 161
      y: 410
      width: 13
      height: 10
      offsetX: 0
      offsetY: -1
      advance: 9
      channel: 0
      kerning: 
    - index: 1555
      x: 292
      y: 395
      width: 16
      height: 13
      offsetX: 1
      offsetY: -3
      advance: 15
      channel: 0
      kerning: 
    - index: 1556
      x: 49
      y: 422
      width: 13
      height: 8
      offsetX: 1
      offsetY: 1
      advance: 15
      channel: 0
      kerning: 
    - index: 1557
      x: 0
      y: 422
      width: 10
      height: 9
      offsetX: 0
      offsetY: 0
      advance: 11
      channel: 0
      kerning: 
    - index: 1558
      x: 134
      y: 410
      width: 14
      height: 10
      offsetX: 0
      offsetY: -1
      advance: 11
      channel: 0
      kerning: 
    - index: 1559
      x: 335
      y: 395
      width: 8
      height: 13
      offsetX: 0
      offsetY: -4
      advance: 12
      channel: 0
      kerning: 
    - index: 1560
      x: 310
      y: 422
      width: 6
      height: 5
      offsetX: 1
      offsetY: 3
      advance: 11
      channel: 0
      kerning: 
    - index: 1561
      x: 188
      y: 422
      width: 6
      height: 7
      offsetX: 0
      offsetY: 2
      advance: 12
      channel: 0
      kerning: 
    - index: 1562
      x: 316
      y: 422
      width: 6
      height: 5
      offsetX: -2
      offsetY: 34
      advance: 15
      channel: 0
      kerning: 
    - index: 1563
      x: 290
      y: 360
      width: 8
      height: 18
      offsetX: 2
      offsetY: 10
      advance: 8
      channel: 0
      kerning: 
    - index: 1566
      x: 101
      y: 422
      width: 8
      height: 8
      offsetX: 1
      offsetY: 7
      advance: 7
      channel: 0
      kerning: 
    - index: 1567
      x: 279
      y: 360
      width: 11
      height: 18
      offsetX: 0
      offsetY: 10
      advance: 9
      channel: 0
      kerning: 
    - index: 1569
      x: 115
      y: 395
      width: 13
      height: 14
      offsetX: 1
      offsetY: 15
      advance: 12
      channel: 0
      kerning: 
    - index: 1570
      x: 312
      y: 195
      width: 8
      height: 22
      offsetX: 2
      offsetY: 7
      advance: 8
      channel: 0
      kerning: 
    - index: 1571
      x: 320
      y: 195
      width: 7
      height: 22
      offsetX: 2
      offsetY: 7
      advance: 8
      channel: 0
      kerning: 
    - index: 1572
      x: 161
      y: 36
      width: 18
      height: 29
      offsetX: -1
      offsetY: 7
      advance: 15
      channel: 0
      kerning: 
    - index: 1573
      x: 101
      y: 94
      width: 7
      height: 27
      offsetX: 3
      offsetY: 7
      advance: 8
      channel: 0
      kerning: 
    - index: 1574
      x: 30
      y: 121
      width: 22
      height: 25
      offsetX: 0
      offsetY: 9
      advance: 20
      channel: 0
      kerning: 
    - index: 1575
      x: 334
      y: 195
      width: 5
      height: 22
      offsetX: 4
      offsetY: 7
      advance: 8
      channel: 0
      kerning: 
    - index: 1576
      x: 205
      y: 340
      width: 22
      height: 19
      offsetX: 0
      offsetY: 16
      advance: 20
      channel: 0
      kerning: 
    - index: 1577
      x: 259
      y: 320
      width: 14
      height: 20
      offsetX: 1
      offsetY: 9
      advance: 12
      channel: 0
      kerning: 
    - index: 1578
      x: 167
      y: 360
      width: 22
      height: 18
      offsetX: 0
      offsetY: 11
      advance: 20
      channel: 0
      kerning: 
    - index: 1579
      x: 134
      y: 217
      width: 22
      height: 21
      offsetX: 0
      offsetY: 8
      advance: 20
      channel: 0
      kerning: 
    - index: 1580
      x: 107
      y: 147
      width: 20
      height: 24
      offsetX: 0
      offsetY: 15
      advance: 19
      channel: 0
      kerning: 
    - index: 1581
      x: 127
      y: 147
      width: 20
      height: 24
      offsetX: 0
      offsetY: 15
      advance: 19
      channel: 0
      kerning: 
    - index: 1582
      x: 168
      y: 0
      width: 20
      height: 31
      offsetX: 0
      offsetY: 8
      advance: 19
      channel: 0
      kerning: 
    - index: 1583
      x: 191
      y: 379
      width: 12
      height: 16
      offsetX: 2
      offsetY: 13
      advance: 12
      channel: 0
      kerning: 
    - index: 1584
      x: 218
      y: 195
      width: 12
      height: 22
      offsetX: 2
      offsetY: 7
      advance: 12
      channel: 0
      kerning: 
    - index: 1585
      x: 306
      y: 340
      width: 15
      height: 19
      offsetX: -1
      offsetY: 16
      advance: 12
      channel: 0
      kerning: 
    - index: 1586
      x: 86
      y: 94
      width: 15
      height: 27
      offsetX: -1
      offsetY: 8
      advance: 12
      channel: 0
      kerning: 
    - index: 1587
      x: 90
      y: 360
      width: 31
      height: 18
      offsetX: 0
      offsetY: 16
      advance: 28
      channel: 0
      kerning: 
    - index: 1588
      x: 242
      y: 66
      width: 31
      height: 27
      offsetX: 0
      offsetY: 7
      advance: 28
      channel: 0
      kerning: 
    - index: 1589
      x: 88
      y: 259
      width: 37
      height: 20
      offsetX: 0
      offsetY: 14
      advance: 34
      channel: 0
      kerning: 
    - index: 1590
      x: 99
      y: 66
      width: 37
      height: 27
      offsetX: 0
      offsetY: 7
      advance: 34
      channel: 0
      kerning: 
    - index: 1591
      x: 46
      y: 280
      width: 22
      height: 20
      offsetX: -2
      offsetY: 8
      advance: 18
      channel: 0
      kerning: 
    - index: 1592
      x: 68
      y: 280
      width: 22
      height: 20
      offsetX: -2
      offsetY: 8
      advance: 18
      channel: 0
      kerning: 
    - index: 1593
      x: 114
      y: 121
      width: 18
      height: 25
      offsetX: 0
      offsetY: 13
      advance: 16
      channel: 0
      kerning: 
    - index: 1594
      x: 226
      y: 0
      width: 18
      height: 31
      offsetX: 0
      offsetY: 7
      advance: 16
      channel: 0
      kerning: 
    - index: 1595
      x: 199
      y: 217
      width: 21
      height: 21
      offsetX: 0
      offsetY: 7
      advance: 19
      channel: 0
      kerning: 
    - index: 1596
      x: 326
      y: 66
      width: 21
      height: 27
      offsetX: 0
      offsetY: 9
      advance: 19
      channel: 0
      kerning: 
    - index: 1597
      x: 12
      y: 171
      width: 22
      height: 23
      offsetX: 0
      offsetY: 11
      advance: 20
      channel: 0
      kerning: 
    - index: 1598
      x: 0
      y: 147
      width: 22
      height: 24
      offsetX: 0
      offsetY: 10
      advance: 20
      channel: 0
      kerning: 
    - index: 1599
      x: 146
      y: 94
      width: 22
      height: 26
      offsetX: 0
      offsetY: 8
      advance: 20
      channel: 0
      kerning: 
    - index: 1600
      x: 217
      y: 422
      width: 8
      height: 6
      offsetX: 0
      offsetY: 22
      advance: 5
      channel: 0
      kerning: 
    - index: 1601
      x: 321
      y: 171
      width: 25
      height: 22
      offsetX: 0
      offsetY: 6
      advance: 23
      channel: 0
      kerning: 
    - index: 1602
      x: 300
      y: 0
      width: 20
      height: 30
      offsetX: 1
      offsetY: 7
      advance: 18
      channel: 0
      kerning: 
    - index: 1603
      x: 304
      y: 217
      width: 19
      height: 21
      offsetX: 0
      offsetY: 7
      advance: 16
      channel: 0
      kerning: 
    - index: 1604
      x: 36
      y: 94
      width: 17
      height: 27
      offsetX: 0
      offsetY: 7
      advance: 15
      channel: 0
      kerning: 
    - index: 1605
      x: 325
      y: 147
      width: 14
      height: 24
      offsetX: 0
      offsetY: 15
      advance: 12
      channel: 0
      kerning: 
    - index: 1606
      x: 132
      y: 121
      width: 18
      height: 25
      offsetX: 0
      offsetY: 9
      advance: 15
      channel: 0
      kerning: 
    - index: 1607
      x: 73
      y: 395
      width: 14
      height: 14
      offsetX: 1
      offsetY: 15
      advance: 12
      channel: 0
      kerning: 
    - index: 1608
      x: 158
      y: 171
      width: 18
      height: 23
      offsetX: -1
      offsetY: 13
      advance: 15
      channel: 0
      kerning: 
    - index: 1609
      x: 90
      y: 280
      width: 22
      height: 20
      offsetX: 0
      offsetY: 14
      advance: 20
      channel: 0
      kerning: 
    - index: 1610
      x: 168
      y: 94
      width: 22
      height: 26
      offsetX: 0
      offsetY: 13
      advance: 20
      channel: 0
      kerning: 
    - index: 1611
      x: 247
      y: 410
      width: 8
      height: 10
      offsetX: 1
      offsetY: -1
      advance: 18
      channel: 0
      kerning: 
    - index: 1612
      x: 197
      y: 410
      width: 9
      height: 10
      offsetX: 0
      offsetY: 0
      advance: 18
      channel: 0
      kerning: 
    - index: 1613
      x: 255
      y: 410
      width: 8
      height: 10
      offsetX: -4
      offsetY: 33
      advance: 17
      channel: 0
      kerning: 
    - index: 1614
      x: 241
      y: 422
      width: 7
      height: 6
      offsetX: 1
      offsetY: 3
      advance: 18
      channel: 0
      kerning: 
    - index: 1615
      x: 263
      y: 410
      width: 8
      height: 10
      offsetX: 0
      offsetY: -1
      advance: 18
      channel: 0
      kerning: 
    - index: 1616
      x: 160
      y: 422
      width: 8
      height: 7
      offsetX: -1
      offsetY: 36
      advance: 18
      channel: 0
      kerning: 
    - index: 1617
      x: 109
      y: 422
      width: 8
      height: 8
      offsetX: 0
      offsetY: 1
      advance: 18
      channel: 0
      kerning: 
    - index: 1618
      x: 131
      y: 422
      width: 7
      height: 8
      offsetX: 1
      offsetY: 1
      advance: 18
      channel: 0
      kerning: 
    - index: 1619
      x: 248
      y: 422
      width: 7
      height: 6
      offsetX: 2
      offsetY: 7
      advance: 18
      channel: 0
      kerning: 
    - index: 1620
      x: 124
      y: 422
      width: 7
      height: 8
      offsetX: 2
      offsetY: 6
      advance: 18
      channel: 0
      kerning: 
    - index: 1621
      x: 117
      y: 422
      width: 7
      height: 8
      offsetX: 2
      offsetY: 27
      advance: 18
      channel: 0
      kerning: 
    - index: 1622
      x: 138
      y: 422
      width: 3
      height: 8
      offsetX: 1
      offsetY: 32
      advance: 18
      channel: 0
      kerning: 
    - index: 1623
      x: 271
      y: 410
      width: 8
      height: 10
      offsetX: 0
      offsetY: -1
      advance: 18
      channel: 0
      kerning: 
    - index: 1624
      x: 168
      y: 422
      width: 8
      height: 7
      offsetX: 0
      offsetY: 2
      advance: 18
      channel: 0
      kerning: 
    - index: 1625
      x: 327
      y: 422
      width: 11
      height: 4
      offsetX: 1
      offsetY: 4
      advance: 24
      channel: 0
      kerning: 
    - index: 1626
      x: 225
      y: 422
      width: 8
      height: 6
      offsetX: 0
      offsetY: 3
      advance: 14
      channel: 0
      kerning: 
    - index: 1627
      x: 233
      y: 422
      width: 8
      height: 6
      offsetX: 0
      offsetY: 3
      advance: 14
      channel: 0
      kerning: 
    - index: 1628
      x: 322
      y: 422
      width: 5
      height: 5
      offsetX: 1
      offsetY: 31
      advance: 19
      channel: 0
      kerning: 
    - index: 1629
      x: 279
      y: 410
      width: 8
      height: 10
      offsetX: 0
      offsetY: -1
      advance: 15
      channel: 0
      kerning: 
    - index: 1630
      x: 18
      y: 422
      width: 7
      height: 9
      offsetX: 1
      offsetY: 0
      advance: 15
      channel: 0
      kerning: 
    - index: 1632
      x: 223
      y: 410
      width: 8
      height: 10
      offsetX: 5
      offsetY: 14
      advance: 15
      channel: 0
      kerning: 
    - index: 1633
      x: 294
      y: 195
      width: 9
      height: 22
      offsetX: 4
      offsetY: 7
      advance: 15
      channel: 0
      kerning: 
    - index: 1634
      x: 269
      y: 238
      width: 13
      height: 21
      offsetX: 2
      offsetY: 9
      advance: 15
      channel: 0
      kerning: 
    - index: 1635
      x: 101
      y: 195
      width: 17
      height: 22
      offsetX: 0
      offsetY: 8
      advance: 15
      channel: 0
      kerning: 
    - index: 1636
      x: 254
      y: 195
      width: 11
      height: 22
      offsetX: 3
      offsetY: 7
      advance: 15
      channel: 0
      kerning: 
    - index: 1637
      x: 334
      y: 379
      width: 13
      height: 15
      offsetX: 2
      offsetY: 10
      advance: 15
      channel: 0
      kerning: 
    - index: 1638
      x: 273
      y: 320
      width: 14
      height: 20
      offsetX: 2
      offsetY: 9
      advance: 15
      channel: 0
      kerning: 
    - index: 1639
      x: 36
      y: 238
      width: 16
      height: 21
      offsetX: 0
      offsetY: 8
      advance: 15
      channel: 0
      kerning: 
    - index: 1640
      x: 52
      y: 238
      width: 16
      height: 21
      offsetX: 1
      offsetY: 8
      advance: 15
      channel: 0
      kerning: 
    - index: 1641
      x: 179
      y: 195
      width: 13
      height: 22
      offsetX: 2
      offsetY: 8
      advance: 15
      channel: 0
      kerning: 
    - index: 1642
      x: 296
      y: 300
      width: 16
      height: 20
      offsetX: 1
      offsetY: 9
      advance: 14
      channel: 0
      kerning: 
    - index: 1643
      x: 287
      y: 410
      width: 7
      height: 10
      offsetX: 5
      offsetY: 23
      advance: 14
      channel: 0
      kerning: 
    - index: 1644
      x: 200
      y: 422
      width: 5
      height: 7
      offsetX: 6
      offsetY: 23
      advance: 14
      channel: 0
      kerning: 
    - index: 1645
      x: 128
      y: 395
      width: 13
      height: 14
      offsetX: 2
      offsetY: 14
      advance: 14
      channel: 0
      kerning: 
    - index: 1646
      x: 17
      y: 395
      width: 22
      height: 14
      offsetX: 0
      offsetY: 15
      advance: 20
      channel: 0
      kerning: 
    - index: 1647
      x: 119
      y: 171
      width: 20
      height: 23
      offsetX: 1
      offsetY: 14
      advance: 18
      channel: 0
      kerning: 
    - index: 1648
      x: 141
      y: 422
      width: 3
      height: 8
      offsetX: 2
      offsetY: 4
      advance: 18
      channel: 0
      kerning: 
    - index: 1649
      x: 285
      y: 195
      width: 9
      height: 22
      offsetX: 0
      offsetY: 7
      advance: 8
      channel: 0
      kerning: 
    - index: 1650
      x: 265
      y: 195
      width: 10
      height: 22
      offsetX: 0
      offsetY: 7
      advance: 8
      channel: 0
      kerning: 
    - index: 1651
      x: 50
      y: 66
      width: 11
      height: 28
      offsetX: 0
      offsetY: 7
      advance: 8
      channel: 0
      kerning: 
    - index: 1652
      x: 215
      y: 410
      width: 8
      height: 10
      offsetX: 0
      offsetY: 7
      advance: 14
      channel: 0
      kerning: 
    - index: 1653
      x: 275
      y: 195
      width: 10
      height: 22
      offsetX: 4
      offsetY: 7
      advance: 11
      channel: 0
      kerning: 
    - index: 1654
      x: 38
      y: 36
      width: 18
      height: 30
      offsetX: -1
      offsetY: 6
      advance: 15
      channel: 0
      kerning: 
    - index: 1655
      x: 179
      y: 36
      width: 18
      height: 29
      offsetX: -1
      offsetY: 7
      advance: 15
      channel: 0
      kerning: 
    - index: 1656
      x: 304
      y: 66
      width: 22
      height: 27
      offsetX: 0
      offsetY: 7
      advance: 20
      channel: 0
      kerning: 
    - index: 1657
      x: 112
      y: 280
      width: 22
      height: 20
      offsetX: 0
      offsetY: 9
      advance: 20
      channel: 0
      kerning: 
    - index: 1658
      x: 22
      y: 195
      width: 22
      height: 22
      offsetX: 0
      offsetY: 7
      advance: 20
      channel: 0
      kerning: 
    - index: 1659
      x: 34
      y: 171
      width: 22
      height: 23
      offsetX: 0
      offsetY: 15
      advance: 20
      channel: 0
      kerning: 
    - index: 1660
      x: 134
      y: 280
      width: 22
      height: 20
      offsetX: 0
      offsetY: 13
      advance: 20
      channel: 0
      kerning: 
    - index: 1661
      x: 266
      y: 280
      width: 22
      height: 20
      offsetX: 0
      offsetY: 9
      advance: 20
      channel: 0
      kerning: 
    - index: 1662
      x: 0
      y: 195
      width: 22
      height: 22
      offsetX: 0
      offsetY: 16
      advance: 20
      channel: 0
      kerning: 
    - index: 1663
      x: 156
      y: 280
      width: 22
      height: 20
      offsetX: 0
      offsetY: 9
      advance: 20
      channel: 0
      kerning: 
    - index: 1664
      x: 56
      y: 171
      width: 22
      height: 23
      offsetX: 0
      offsetY: 15
      advance: 20
      channel: 0
      kerning: 
    - index: 1665
      x: 92
      y: 0
      width: 20
      height: 32
      offsetX: 0
      offsetY: 7
      advance: 19
      channel: 0
      kerning: 
    - index: 1666
      x: 34
      y: 0
      width: 20
      height: 33
      offsetX: 0
      offsetY: 6
      advance: 19
      channel: 0
      kerning: 
    - index: 1667
      x: 147
      y: 147
      width: 20
      height: 24
      offsetX: 0
      offsetY: 15
      advance: 19
      channel: 0
      kerning: 
    - index: 1668
      x: 167
      y: 147
      width: 20
      height: 24
      offsetX: 0
      offsetY: 15
      advance: 19
      channel: 0
      kerning: 
    - index: 1669
      x: 54
      y: 0
      width: 20
      height: 33
      offsetX: 0
      offsetY: 6
      advance: 19
      channel: 0
      kerning: 
    - index: 1670
      x: 187
      y: 147
      width: 20
      height: 24
      offsetX: 0
      offsetY: 15
      advance: 19
      channel: 0
      kerning: 
    - index: 1671
      x: 207
      y: 147
      width: 20
      height: 24
      offsetX: 0
      offsetY: 15
      advance: 19
      channel: 0
      kerning: 
    - index: 1672
      x: 0
      y: 171
      width: 12
      height: 24
      offsetX: 2
      offsetY: 5
      advance: 12
      channel: 0
      kerning: 
    - index: 1673
      x: 27
      y: 360
      width: 12
      height: 19
      offsetX: 2
      offsetY: 14
      advance: 12
      channel: 0
      kerning: 
    - index: 1674
      x: 307
      y: 238
      width: 12
      height: 21
      offsetX: 2
      offsetY: 14
      advance: 12
      channel: 0
      kerning: 
    - index: 1675
      x: 317
      y: 36
      width: 12
      height: 29
      offsetX: 2
      offsetY: 6
      advance: 12
      channel: 0
      kerning: 
    - index: 1676
      x: 230
      y: 195
      width: 12
      height: 22
      offsetX: 2
      offsetY: 7
      advance: 12
      channel: 0
      kerning: 
    - index: 1677
      x: 319
      y: 238
      width: 12
      height: 21
      offsetX: 2
      offsetY: 13
      advance: 12
      channel: 0
      kerning: 
    - index: 1678
      x: 244
      y: 171
      width: 13
      height: 23
      offsetX: 2
      offsetY: 6
      advance: 12
      channel: 0
      kerning: 
    - index: 1679
      x: 257
      y: 171
      width: 13
      height: 23
      offsetX: 2
      offsetY: 6
      advance: 12
      channel: 0
      kerning: 
    - index: 1680
      x: 339
      y: 147
      width: 13
      height: 24
      offsetX: 2
      offsetY: 5
      advance: 12
      channel: 0
      kerning: 
    - index: 1681
      x: 35
      y: 66
      width: 15
      height: 28
      offsetX: -1
      offsetY: 7
      advance: 12
      channel: 0
      kerning: 
    - index: 1682
      x: 266
      y: 94
      width: 15
      height: 26
      offsetX: -1
      offsetY: 9
      advance: 12
      channel: 0
      kerning: 
    - index: 1683
      x: 100
      y: 238
      width: 15
      height: 21
      offsetX: -1
      offsetY: 16
      advance: 12
      channel: 0
      kerning: 
    - index: 1684
      x: 280
      y: 147
      width: 15
      height: 24
      offsetX: -1
      offsetY: 16
      advance: 12
      channel: 0
      kerning: 
    - index: 1685
      x: 295
      y: 147
      width: 15
      height: 24
      offsetX: -1
      offsetY: 17
      advance: 12
      channel: 0
      kerning: 
    - index: 1686
      x: 132
      y: 0
      width: 15
      height: 32
      offsetX: -1
      offsetY: 9
      advance: 12
      channel: 0
      kerning: 
    - index: 1687
      x: 168
      y: 121
      width: 15
      height: 25
      offsetX: -1
      offsetY: 10
      advance: 12
      channel: 0
      kerning: 
    - index: 1688
      x: 287
      y: 36
      width: 15
      height: 29
      offsetX: -1
      offsetY: 6
      advance: 12
      channel: 0
      kerning: 
    - index: 1689
      x: 302
      y: 36
      width: 15
      height: 29
      offsetX: -1
      offsetY: 6
      advance: 12
      channel: 0
      kerning: 
    - index: 1690
      x: 115
      y: 94
      width: 31
      height: 26
      offsetX: 0
      offsetY: 9
      advance: 28
      channel: 0
      kerning: 
    - index: 1691
      x: 162
      y: 259
      width: 31
      height: 20
      offsetX: 0
      offsetY: 16
      advance: 28
      channel: 0
      kerning: 
    - index: 1692
      x: 109
      y: 36
      width: 31
      height: 29
      offsetX: 0
      offsetY: 7
      advance: 28
      channel: 0
      kerning: 
    - index: 1693
      x: 125
      y: 259
      width: 37
      height: 20
      offsetX: 0
      offsetY: 14
      advance: 34
      channel: 0
      kerning: 
    - index: 1694
      x: 136
      y: 66
      width: 37
      height: 27
      offsetX: 0
      offsetY: 7
      advance: 34
      channel: 0
      kerning: 
    - index: 1695
      x: 156
      y: 217
      width: 22
      height: 21
      offsetX: -2
      offsetY: 7
      advance: 18
      channel: 0
      kerning: 
    - index: 1696
      x: 74
      y: 0
      width: 18
      height: 33
      offsetX: 0
      offsetY: 5
      advance: 16
      channel: 0
      kerning: 
    - index: 1697
      x: 0
      y: 379
      width: 25
      height: 16
      offsetX: 0
      offsetY: 12
      advance: 23
      channel: 0
      kerning: 
    - index: 1698
      x: 296
      y: 171
      width: 25
      height: 22
      offsetX: 0
      offsetY: 12
      advance: 23
      channel: 0
      kerning: 
    - index: 1699
      x: 329
      y: 36
      width: 25
      height: 28
      offsetX: 0
      offsetY: 6
      advance: 23
      channel: 0
      kerning: 
    - index: 1700
      x: 219
      y: 121
      width: 25
      height: 24
      offsetX: 0
      offsetY: 4
      advance: 23
      channel: 0
      kerning: 
    - index: 1701
      x: 244
      y: 121
      width: 25
      height: 24
      offsetX: 0
      offsetY: 12
      advance: 23
      channel: 0
      kerning: 
    - index: 1702
      x: 269
      y: 121
      width: 25
      height: 24
      offsetX: 0
      offsetY: 4
      advance: 23
      channel: 0
      kerning: 
    - index: 1703
      x: 320
      y: 0
      width: 20
      height: 30
      offsetX: 1
      offsetY: 7
      advance: 18
      channel: 0
      kerning: 
    - index: 1704
      x: 112
      y: 0
      width: 20
      height: 32
      offsetX: 1
      offsetY: 5
      advance: 18
      channel: 0
      kerning: 
    - index: 1705
      x: 227
      y: 340
      width: 21
      height: 19
      offsetX: 0
      offsetY: 9
      advance: 19
      channel: 0
      kerning: 
    - index: 1706
      x: 248
      y: 340
      width: 21
      height: 19
      offsetX: 0
      offsetY: 9
      advance: 19
      channel: 0
      kerning: 
    - index: 1707
      x: 269
      y: 340
      width: 21
      height: 19
      offsetX: 0
      offsetY: 9
      advance: 19
      channel: 0
      kerning: 
    - index: 1708
      x: 65
      y: 195
      width: 19
      height: 22
      offsetX: 0
      offsetY: 6
      advance: 16
      channel: 0
      kerning: 
    - index: 1709
      x: 227
      y: 147
      width: 19
      height: 24
      offsetX: 0
      offsetY: 4
      advance: 16
      channel: 0
      kerning: 
    - index: 1710
      x: 19
      y: 36
      width: 19
      height: 30
      offsetX: 0
      offsetY: 7
      advance: 16
      channel: 0
      kerning: 
    - index: 1711
      x: 288
      y: 280
      width: 21
      height: 20
      offsetX: 0
      offsetY: 8
      advance: 19
      channel: 0
      kerning: 
    - index: 1712
      x: 309
      y: 280
      width: 21
      height: 20
      offsetX: 0
      offsetY: 8
      advance: 19
      channel: 0
      kerning: 
    - index: 1713
      x: 220
      y: 217
      width: 21
      height: 21
      offsetX: 0
      offsetY: 7
      advance: 19
      channel: 0
      kerning: 
    - index: 1714
      x: 74
      y: 121
      width: 21
      height: 25
      offsetX: 0
      offsetY: 8
      advance: 19
      channel: 0
      kerning: 
    - index: 1715
      x: 140
      y: 36
      width: 21
      height: 29
      offsetX: 0
      offsetY: 8
      advance: 19
      channel: 0
      kerning: 
    - index: 1716
      x: 44
      y: 195
      width: 21
      height: 22
      offsetX: 0
      offsetY: 6
      advance: 19
      channel: 0
      kerning: 
    - index: 1717
      x: 18
      y: 66
      width: 17
      height: 28
      offsetX: 0
      offsetY: 6
      advance: 15
      channel: 0
      kerning: 
    - index: 1718
      x: 92
      y: 36
      width: 17
      height: 30
      offsetX: 0
      offsetY: 4
      advance: 15
      channel: 0
      kerning: 
    - index: 1719
      x: 0
      y: 0
      width: 17
      height: 36
      offsetX: 0
      offsetY: -2
      advance: 15
      channel: 0
      kerning: 
    - index: 1720
      x: 17
      y: 0
      width: 17
      height: 35
      offsetX: 0
      offsetY: 8
      advance: 15
      channel: 0
      kerning: 
    - index: 1721
      x: 74
      y: 36
      width: 18
      height: 30
      offsetX: 0
      offsetY: 10
      advance: 15
      channel: 0
      kerning: 
    - index: 1722
      x: 230
      y: 360
      width: 18
      height: 18
      offsetX: 0
      offsetY: 16
      advance: 15
      channel: 0
      kerning: 
    - index: 1723
      x: 0
      y: 94
      width: 18
      height: 27
      offsetX: 0
      offsetY: 7
      advance: 15
      channel: 0
      kerning: 
    - index: 1724
      x: 18
      y: 94
      width: 18
      height: 27
      offsetX: 0
      offsetY: 9
      advance: 15
      channel: 0
      kerning: 
    - index: 1725
      x: 0
      y: 66
      width: 18
      height: 28
      offsetX: 0
      offsetY: 6
      advance: 15
      channel: 0
      kerning: 
    - index: 1726
      x: 121
      y: 360
      width: 23
      height: 18
      offsetX: -1
      offsetY: 11
      advance: 19
      channel: 0
      kerning: 
    - index: 1727
      x: 188
      y: 0
      width: 20
      height: 31
      offsetX: 0
      offsetY: 8
      advance: 19
      channel: 0
      kerning: 
    - index: 1728
      x: 151
      y: 195
      width: 14
      height: 22
      offsetX: 1
      offsetY: 7
      advance: 12
      channel: 0
      kerning: 
    - index: 1729
      x: 87
      y: 395
      width: 14
      height: 14
      offsetX: 1
      offsetY: 15
      advance: 12
      channel: 0
      kerning: 
    - index: 1730
      x: 230
      y: 171
      width: 14
      height: 23
      offsetX: 1
      offsetY: 6
      advance: 12
      channel: 0
      kerning: 
    - index: 1731
      x: 165
      y: 195
      width: 14
      height: 22
      offsetX: 1
      offsetY: 7
      advance: 12
      channel: 0
      kerning: 
    - index: 1732
      x: 176
      y: 171
      width: 18
      height: 23
      offsetX: -1
      offsetY: 13
      advance: 15
      channel: 0
      kerning: 
    - index: 1733
      x: 194
      y: 171
      width: 18
      height: 23
      offsetX: -1
      offsetY: 13
      advance: 15
      channel: 0
      kerning: 
    - index: 1734
      x: 197
      y: 36
      width: 18
      height: 29
      offsetX: -1
      offsetY: 7
      advance: 15
      channel: 0
      kerning: 
    - index: 1735
      x: 56
      y: 36
      width: 18
      height: 30
      offsetX: -1
      offsetY: 6
      advance: 15
      channel: 0
      kerning: 
    - index: 1736
      x: 215
      y: 36
      width: 18
      height: 29
      offsetX: -1
      offsetY: 7
      advance: 15
      channel: 0
      kerning: 
    - index: 1737
      x: 233
      y: 36
      width: 18
      height: 29
      offsetX: -1
      offsetY: 7
      advance: 15
      channel: 0
      kerning: 
    - index: 1738
      x: 251
      y: 36
      width: 18
      height: 29
      offsetX: -1
      offsetY: 7
      advance: 15
      channel: 0
      kerning: 
    - index: 1739
      x: 208
      y: 0
      width: 18
      height: 31
      offsetX: -1
      offsetY: 5
      advance: 15
      channel: 0
      kerning: 
    - index: 1740
      x: 178
      y: 280
      width: 22
      height: 20
      offsetX: 0
      offsetY: 14
      advance: 20
      channel: 0
      kerning: 
    - index: 1741
      x: 219
      y: 259
      width: 25
      height: 20
      offsetX: 0
      offsetY: 14
      advance: 22
      channel: 0
      kerning: 
    - index: 1742
      x: 22
      y: 147
      width: 22
      height: 24
      offsetX: 0
      offsetY: 10
      advance: 20
      channel: 0
      kerning: 
    - index: 1743
      x: 269
      y: 36
      width: 18
      height: 29
      offsetX: -1
      offsetY: 7
      advance: 15
      channel: 0
      kerning: 
    - index: 1744
      x: 52
      y: 121
      width: 22
      height: 25
      offsetX: 0
      offsetY: 14
      advance: 20
      channel: 0
      kerning: 
    - index: 1745
      x: 190
      y: 94
      width: 22
      height: 26
      offsetX: 0
      offsetY: 14
      advance: 20
      channel: 0
      kerning: 
    - index: 1746
      x: 57
      y: 395
      width: 16
      height: 14
      offsetX: 3
      offsetY: 20
      advance: 16
      channel: 0
      kerning: 
    - index: 1747
      x: 84
      y: 195
      width: 17
      height: 22
      offsetX: 2
      offsetY: 12
      advance: 16
      channel: 0
      kerning: 
    - index: 1748
      x: 205
      y: 422
      width: 12
      height: 6
      offsetX: 1
      offsetY: 22
      advance: 11
      channel: 0
      kerning: 
    - index: 1749
      x: 101
      y: 395
      width: 14
      height: 14
      offsetX: 1
      offsetY: 15
      advance: 12
      channel: 0
      kerning: 
    - index: 1750
      x: 148
      y: 410
      width: 13
      height: 10
      offsetX: -2
      offsetY: -1
      advance: 14
      channel: 0
      kerning: 
    - index: 1751
      x: 73
      y: 410
      width: 11
      height: 11
      offsetX: -1
      offsetY: -2
      advance: 18
      channel: 0
      kerning: 
    - index: 1752
      x: 92
      y: 422
      width: 9
      height: 8
      offsetX: 0
      offsetY: 1
      advance: 18
      channel: 0
      kerning: 
    - index: 1753
      x: 92
      y: 410
      width: 7
      height: 11
      offsetX: 0
      offsetY: -2
      advance: 18
      channel: 0
      kerning: 
    - index: 1754
      x: 206
      y: 410
      width: 9
      height: 10
      offsetX: 0
      offsetY: -1
      advance: 18
      channel: 0
      kerning: 
    - index: 1755
      x: 144
      y: 422
      width: 8
      height: 7
      offsetX: 0
      offsetY: 2
      advance: 18
      channel: 0
      kerning: 
    - index: 1756
      x: 313
      y: 410
      width: 13
      height: 9
      offsetX: 0
      offsetY: 0
      advance: 18
      channel: 0
      kerning: 
    - index: 1759
      x: 255
      y: 422
      width: 6
      height: 6
      offsetX: 1
      offsetY: 3
      advance: 16
      channel: 0
      kerning: 
    - index: 1760
      x: 194
      y: 422
      width: 6
      height: 7
      offsetX: 1
      offsetY: 2
      advance: 24
      channel: 0
      kerning: 
    - index: 1761
      x: 303
      y: 422
      width: 7
      height: 5
      offsetX: 1
      offsetY: 4
      advance: 24
      channel: 0
      kerning: 
    - index: 1762
      x: 25
      y: 422
      width: 5
      height: 9
      offsetX: 1
      offsetY: 1
      advance: 24
      channel: 0
      kerning: 
    - index: 1763
      x: 300
      y: 410
      width: 13
      height: 9
      offsetX: 0
      offsetY: 32
      advance: 6
      channel: 0
      kerning: 
    - index: 1764
      x: 338
      y: 422
      width: 8
      height: 4
      offsetX: 1
      offsetY: 7
      advance: 24
      channel: 0
      kerning: 
    - index: 1765
      x: 10
      y: 422
      width: 8
      height: 9
      offsetX: 0
      offsetY: 23
      advance: 6
      channel: 0
      kerning: 
    - index: 1766
      x: 326
      y: 410
      width: 11
      height: 9
      offsetX: 1
      offsetY: 22
      advance: 9
      channel: 0
      kerning: 
    - index: 1767
      x: 337
      y: 410
      width: 11
      height: 9
      offsetX: 1
      offsetY: -1
      advance: 14
      channel: 0
      kerning: 
    - index: 1768
      x: 84
      y: 410
      width: 8
      height: 11
      offsetX: 1
      offsetY: -2
      advance: 14
      channel: 0
      kerning: 
    - index: 1769
      x: 152
      y: 379
      width: 13
      height: 16
      offsetX: 3
      offsetY: 12
      advance: 17
      channel: 0
      kerning: 
    - index: 1770
      x: 261
      y: 422
      width: 6
      height: 6
      offsetX: 1
      offsetY: 32
      advance: 14
      channel: 0
      kerning: 
    - index: 1771
      x: 267
      y: 422
      width: 6
      height: 6
      offsetX: 1
      offsetY: 3
      advance: 13
      channel: 0
      kerning: 
    - index: 1772
      x: 273
      y: 422
      width: 5
      height: 6
      offsetX: 1
      offsetY: 3
      advance: 13
      channel: 0
      kerning: 
    - index: 1773
      x: 30
      y: 422
      width: 5
      height: 9
      offsetX: 1
      offsetY: 31
      advance: 13
      channel: 0
      kerning: 
    - index: 1774
      x: 242
      y: 195
      width: 12
      height: 22
      offsetX: 2
      offsetY: 7
      advance: 12
      channel: 0
      kerning: 
    - index: 1775
      x: 183
      y: 121
      width: 15
      height: 25
      offsetX: -1
      offsetY: 10
      advance: 12
      channel: 0
      kerning: 
    - index: 1776
      x: 231
      y: 410
      width: 8
      height: 10
      offsetX: 5
      offsetY: 14
      advance: 15
      channel: 0
      kerning: 
    - index: 1777
      x: 303
      y: 195
      width: 9
      height: 22
      offsetX: 4
      offsetY: 7
      advance: 15
      channel: 0
      kerning: 
    - index: 1778
      x: 282
      y: 238
      width: 13
      height: 21
      offsetX: 2
      offsetY: 9
      advance: 15
      channel: 0
      kerning: 
    - index: 1779
      x: 118
      y: 195
      width: 17
      height: 22
      offsetX: 0
      offsetY: 8
      advance: 15
      channel: 0
      kerning: 
    - index: 1780
      x: 135
      y: 195
      width: 16
      height: 22
      offsetX: 1
      offsetY: 8
      advance: 15
      channel: 0
      kerning: 
    - index: 1781
      x: 287
      y: 320
      width: 14
      height: 20
      offsetX: 2
      offsetY: 9
      advance: 15
      channel: 0
      kerning: 
    - index: 1782
      x: 70
      y: 340
      width: 14
      height: 20
      offsetX: 2
      offsetY: 8
      advance: 15
      channel: 0
      kerning: 
    - index: 1783
      x: 68
      y: 238
      width: 16
      height: 21
      offsetX: 0
      offsetY: 8
      advance: 15
      channel: 0
      kerning: 
    - index: 1784
      x: 84
      y: 238
      width: 16
      height: 21
      offsetX: 1
      offsetY: 8
      advance: 15
      channel: 0
      kerning: 
    - index: 1785
      x: 192
      y: 195
      width: 13
      height: 22
      offsetX: 2
      offsetY: 8
      advance: 15
      channel: 0
      kerning: 
    - index: 1786
      x: 273
      y: 66
      width: 31
      height: 27
      offsetX: 0
      offsetY: 7
      advance: 28
      channel: 0
      kerning: 
    - index: 1787
      x: 173
      y: 66
      width: 37
      height: 27
      offsetX: 0
      offsetY: 7
      advance: 34
      channel: 0
      kerning: 
    - index: 1788
      x: 244
      y: 0
      width: 18
      height: 31
      offsetX: 0
      offsetY: 7
      advance: 16
      channel: 0
      kerning: 
    - index: 1789
      x: 141
      y: 395
      width: 10
      height: 14
      offsetX: 4
      offsetY: 14
      advance: 12
      channel: 0
      kerning: 
    - index: 1790
      x: 306
      y: 379
      width: 14
      height: 15
      offsetX: 0
      offsetY: 13
      advance: 12
      channel: 0
      kerning: 
    - index: 1791
      x: 319
      y: 121
      width: 23
      height: 24
      offsetX: -1
      offsetY: 5
      advance: 19
      channel: 0
      kerning: 
    - index: 65155
      x: 327
      y: 195
      width: 7
      height: 22
      offsetX: 2
      offsetY: 7
      advance: 8
      channel: 0
      kerning: 
    - index: 65156
      x: 331
      y: 238
      width: 12
      height: 21
      offsetX: 0
      offsetY: 7
      advance: 9
      channel: 0
      kerning: 
    - index: 65158
      x: 0
      y: 36
      width: 19
      height: 30
      offsetX: -1
      offsetY: 7
      advance: 15
      channel: 0
      kerning: 
    - index: 65159
      x: 108
      y: 94
      width: 7
      height: 27
      offsetX: 3
      offsetY: 7
      advance: 8
      channel: 0
      kerning: 
    - index: 65162
      x: 44
      y: 147
      width: 21
      height: 24
      offsetX: 0
      offsetY: 13
      advance: 18
      channel: 0
      kerning: 
    - index: 65163
      x: 186
      y: 238
      width: 14
      height: 21
      offsetX: 0
      offsetY: 7
      advance: 11
      channel: 0
      kerning: 
    - index: 65166
      x: 23
      y: 259
      width: 9
      height: 21
      offsetX: 3
      offsetY: 7
      advance: 9
      channel: 0
      kerning: 
    - index: 65168
      x: 182
      y: 340
      width: 23
      height: 19
      offsetX: 0
      offsetY: 16
      advance: 20
      channel: 0
      kerning: 
    - index: 65169
      x: 301
      y: 320
      width: 14
      height: 20
      offsetX: 0
      offsetY: 15
      advance: 11
      channel: 0
      kerning: 
    - index: 65170
      x: 175
      y: 320
      width: 14
      height: 20
      offsetX: 0
      offsetY: 15
      advance: 11
      channel: 0
      kerning: 
    - index: 65172
      x: 115
      y: 238
      width: 15
      height: 21
      offsetX: 0
      offsetY: 7
      advance: 11
      channel: 0
      kerning: 
    - index: 65173
      x: 189
      y: 360
      width: 22
      height: 18
      offsetX: 0
      offsetY: 11
      advance: 20
      channel: 0
      kerning: 
    - index: 65174
      x: 144
      y: 360
      width: 23
      height: 18
      offsetX: 0
      offsetY: 11
      advance: 20
      channel: 0
      kerning: 
    - index: 65175
      x: 0
      y: 360
      width: 14
      height: 19
      offsetX: 0
      offsetY: 9
      advance: 11
      channel: 0
      kerning: 
    - index: 65176
      x: 336
      y: 340
      width: 14
      height: 19
      offsetX: 0
      offsetY: 9
      advance: 11
      channel: 0
      kerning: 
    - index: 65178
      x: 111
      y: 217
      width: 23
      height: 21
      offsetX: 0
      offsetY: 8
      advance: 20
      channel: 0
      kerning: 
    - index: 65179
      x: 315
      y: 320
      width: 14
      height: 20
      offsetX: 0
      offsetY: 8
      advance: 11
      channel: 0
      kerning: 
    - index: 65180
      x: 214
      y: 238
      width: 14
      height: 21
      offsetX: 0
      offsetY: 7
      advance: 11
      channel: 0
      kerning: 
    - index: 65182
      x: 65
      y: 147
      width: 21
      height: 24
      offsetX: 0
      offsetY: 15
      advance: 18
      channel: 0
      kerning: 
    - index: 65183
      x: 0
      y: 280
      width: 23
      height: 20
      offsetX: 0
      offsetY: 15
      advance: 20
      channel: 0
      kerning: 
    - index: 65184
      x: 244
      y: 259
      width: 24
      height: 20
      offsetX: 0
      offsetY: 15
      advance: 20
      channel: 0
      kerning: 
    - index: 65186
      x: 86
      y: 147
      width: 21
      height: 24
      offsetX: 0
      offsetY: 15
      advance: 18
      channel: 0
      kerning: 
    - index: 65187
      x: 236
      y: 395
      width: 23
      height: 13
      offsetX: 0
      offsetY: 15
      advance: 20
      channel: 0
      kerning: 
    - index: 65188
      x: 212
      y: 395
      width: 24
      height: 13
      offsetX: 0
      offsetY: 15
      advance: 20
      channel: 0
      kerning: 
    - index: 65190
      x: 147
      y: 0
      width: 21
      height: 31
      offsetX: 0
      offsetY: 8
      advance: 18
      channel: 0
      kerning: 
    - index: 65191
      x: 23
      y: 280
      width: 23
      height: 20
      offsetX: 0
      offsetY: 8
      advance: 20
      channel: 0
      kerning: 
    - index: 65192
      x: 268
      y: 259
      width: 24
      height: 20
      offsetX: 0
      offsetY: 8
      advance: 20
      channel: 0
      kerning: 
    - index: 65194
      x: 178
      y: 379
      width: 13
      height: 16
      offsetX: 2
      offsetY: 13
      advance: 12
      channel: 0
      kerning: 
    - index: 65196
      x: 205
      y: 195
      width: 13
      height: 22
      offsetX: 2
      offsetY: 7
      advance: 12
      channel: 0
      kerning: 
    - index: 65198
      x: 248
      y: 360
      width: 16
      height: 18
      offsetX: -1
      offsetY: 17
      advance: 12
      channel: 0
      kerning: 
    - index: 65200
      x: 70
      y: 94
      width: 16
      height: 27
      offsetX: -1
      offsetY: 8
      advance: 12
      channel: 0
      kerning: 
    - index: 65202
      x: 58
      y: 360
      width: 32
      height: 18
      offsetX: 0
      offsetY: 16
      advance: 28
      channel: 0
      kerning: 
    - index: 65203
      x: 0
      y: 410
      width: 25
      height: 12
      offsetX: 0
      offsetY: 16
      advance: 22
      channel: 0
      kerning: 
    - index: 65204
      x: 25
      y: 410
      width: 25
      height: 12
      offsetX: 0
      offsetY: 16
      advance: 22
      channel: 0
      kerning: 
    - index: 65206
      x: 210
      y: 66
      width: 32
      height: 27
      offsetX: 0
      offsetY: 7
      advance: 28
      channel: 0
      kerning: 
    - index: 65207
      x: 61
      y: 217
      width: 25
      height: 21
      offsetX: 0
      offsetY: 7
      advance: 22
      channel: 0
      kerning: 
    - index: 65208
      x: 86
      y: 217
      width: 25
      height: 21
      offsetX: 0
      offsetY: 7
      advance: 22
      channel: 0
      kerning: 
    - index: 65210
      x: 50
      y: 259
      width: 38
      height: 20
      offsetX: 0
      offsetY: 14
      advance: 34
      channel: 0
      kerning: 
    - index: 65211
      x: 182
      y: 395
      width: 30
      height: 13
      offsetX: 0
      offsetY: 15
      advance: 28
      channel: 0
      kerning: 
    - index: 65212
      x: 151
      y: 395
      width: 31
      height: 13
      offsetX: 0
      offsetY: 15
      advance: 28
      channel: 0
      kerning: 
    - index: 65214
      x: 61
      y: 66
      width: 38
      height: 27
      offsetX: 0
      offsetY: 7
      advance: 34
      channel: 0
      kerning: 
    - index: 65215
      x: 31
      y: 217
      width: 30
      height: 21
      offsetX: 0
      offsetY: 7
      advance: 28
      channel: 0
      kerning: 
    - index: 65216
      x: 0
      y: 217
      width: 31
      height: 21
      offsetX: 0
      offsetY: 7
      advance: 28
      channel: 0
      kerning: 
    - index: 65218
      x: 292
      y: 259
      width: 23
      height: 20
      offsetX: -2
      offsetY: 8
      advance: 18
      channel: 0
      kerning: 
    - index: 65219
      x: 330
      y: 280
      width: 21
      height: 20
      offsetX: 0
      offsetY: 8
      advance: 18
      channel: 0
      kerning: 
    - index: 65220
      x: 200
      y: 280
      width: 22
      height: 20
      offsetX: 0
      offsetY: 8
      advance: 18
      channel: 0
      kerning: 
    - index: 65222
      x: 315
      y: 259
      width: 23
      height: 20
      offsetX: -2
      offsetY: 8
      advance: 18
      channel: 0
      kerning: 
    - index: 65223
      x: 0
      y: 300
      width: 21
      height: 20
      offsetX: 0
      offsetY: 8
      advance: 18
      channel: 0
      kerning: 
    - index: 65224
      x: 222
      y: 280
      width: 22
      height: 20
      offsetX: 0
      offsetY: 8
      advance: 18
      channel: 0
      kerning: 
    - index: 65226
      x: 150
      y: 121
      width: 18
      height: 25
      offsetX: 0
      offsetY: 14
      advance: 15
      channel: 0
      kerning: 
    - index: 65227
      x: 258
      y: 379
      width: 18
      height: 15
      offsetX: 0
      offsetY: 13
      advance: 15
      channel: 0
      kerning: 
    - index: 65228
      x: 39
      y: 395
      width: 18
      height: 14
      offsetX: 0
      offsetY: 14
      advance: 15
      channel: 0
      kerning: 
    - index: 65231
      x: 0
      y: 238
      width: 18
      height: 21
      offsetX: 0
      offsetY: 7
      advance: 15
      channel: 0
      kerning: 
    - index: 65232
      x: 18
      y: 238
      width: 18
      height: 21
      offsetX: 0
      offsetY: 7
      advance: 15
      channel: 0
      kerning: 
    - index: 65234
      x: 270
      y: 171
      width: 26
      height: 22
      offsetX: 0
      offsetY: 6
      advance: 23
      channel: 0
      kerning: 
    - index: 65235
      x: 200
      y: 238
      width: 14
      height: 21
      offsetX: 0
      offsetY: 7
      advance: 11
      channel: 0
      kerning: 
    - index: 65236
      x: 158
      y: 238
      width: 14
      height: 21
      offsetX: 0
      offsetY: 7
      advance: 11
      channel: 0
      kerning: 
    - index: 65238
      x: 279
      y: 0
      width: 21
      height: 30
      offsetX: 1
      offsetY: 7
      advance: 18
      channel: 0
      kerning: 
    - index: 65239
      x: 242
      y: 238
      width: 14
      height: 21
      offsetX: 0
      offsetY: 7
      advance: 11
      channel: 0
      kerning: 
    - index: 65240
      x: 228
      y: 238
      width: 14
      height: 21
      offsetX: 0
      offsetY: 7
      advance: 11
      channel: 0
      kerning: 
    - index: 65242
      x: 323
      y: 217
      width: 19
      height: 21
      offsetX: 0
      offsetY: 7
      advance: 16
      channel: 0
      kerning: 
    - index: 65243
      x: 321
      y: 340
      width: 15
      height: 19
      offsetX: 0
      offsetY: 9
      advance: 13
      channel: 0
      kerning: 
    - index: 65244
      x: 290
      y: 340
      width: 16
      height: 19
      offsetX: 0
      offsetY: 9
      advance: 13
      channel: 0
      kerning: 
    - index: 65246
      x: 53
      y: 94
      width: 17
      height: 27
      offsetX: 0
      offsetY: 7
      advance: 14
      channel: 0
      kerning: 
    - index: 65247
      x: 0
      y: 259
      width: 12
      height: 21
      offsetX: 0
      offsetY: 7
      advance: 9
      channel: 0
      kerning: 
    - index: 65248
      x: 343
      y: 238
      width: 12
      height: 21
      offsetX: 0
      offsetY: 7
      advance: 9
      channel: 0
      kerning: 
    - index: 65250
      x: 310
      y: 147
      width: 15
      height: 24
      offsetX: 0
      offsetY: 15
      advance: 12
      channel: 0
      kerning: 
    - index: 65251
      x: 276
      y: 395
      width: 16
      height: 13
      offsetX: 0
      offsetY: 15
      advance: 14
      channel: 0
      kerning: 
    - index: 65252
      x: 259
      y: 395
      width: 17
      height: 13
      offsetX: 0
      offsetY: 15
      advance: 14
      channel: 0
      kerning: 
    - index: 65254
      x: 95
      y: 121
      width: 19
      height: 25
      offsetX: 0
      offsetY: 9
      advance: 15
      channel: 0
      kerning: 
    - index: 65255
      x: 329
      y: 320
      width: 14
      height: 20
      offsetX: 0
      offsetY: 8
      advance: 11
      channel: 0
      kerning: 
    - index: 65256
      x: 189
      y: 320
      width: 14
      height: 20
      offsetX: 0
      offsetY: 8
      advance: 11
      channel: 0
      kerning: 
    - index: 65258
      x: 321
      y: 360
      width: 14
      height: 17
      offsetX: 0
      offsetY: 11
      advance: 11
      channel: 0
      kerning: 
    - index: 65259
      x: 211
      y: 360
      width: 19
      height: 18
      offsetX: 0
      offsetY: 11
      advance: 17
      channel: 0
      kerning: 
    - index: 65260
      x: 212
      y: 171
      width: 18
      height: 23
      offsetX: 0
      offsetY: 13
      advance: 14
      channel: 0
      kerning: 
    - index: 65262
      x: 139
      y: 171
      width: 19
      height: 23
      offsetX: -1
      offsetY: 14
      advance: 15
      channel: 0
      kerning: 
    - index: 65264
      x: 46
      y: 379
      width: 21
      height: 16
      offsetX: 0
      offsetY: 21
      advance: 18
      channel: 0
      kerning: 
    - index: 65265
      x: 212
      y: 94
      width: 22
      height: 26
      offsetX: 0
      offsetY: 13
      advance: 20
      channel: 0
      kerning: 
    - index: 65266
      x: 241
      y: 217
      width: 21
      height: 21
      offsetX: 0
      offsetY: 21
      advance: 18
      channel: 0
      kerning: 
    - index: 65267
      x: 84
      y: 340
      width: 14
      height: 20
      offsetX: 0
      offsetY: 14
      advance: 11
      channel: 0
      kerning: 
    - index: 65268
      x: 42
      y: 340
      width: 14
      height: 20
      offsetX: 0
      offsetY: 14
      advance: 11
      channel: 0
      kerning: 
    - index: 65269
      x: 246
      y: 147
      width: 17
      height: 24
      offsetX: 0
      offsetY: 7
      advance: 14
      channel: 0
      kerning: 
    - index: 65270
      x: 78
      y: 171
      width: 21
      height: 23
      offsetX: 1
      offsetY: 7
      advance: 19
      channel: 0
      kerning: 
    - index: 65271
      x: 234
      y: 94
      width: 17
      height: 26
      offsetX: 0
      offsetY: 5
      advance: 15
      channel: 0
      kerning: 
    - index: 65273
      x: 262
      y: 0
      width: 17
      height: 31
      offsetX: 2
      offsetY: 7
      advance: 18
      channel: 0
      kerning: 
    - index: 65275
      x: 263
      y: 147
      width: 17
      height: 24
      offsetX: 0
      offsetY: 7
      advance: 15
      channel: 0
      kerning: 
    - index: 65276
      x: 262
      y: 217
      width: 21
      height: 21
      offsetX: 2
      offsetY: 8
      advance: 19
      channel: 0
      kerning: 
  mAtlas: {fileID: 11425428, guid: 46ae2c2aa1f2bf2419ee5967447a657f, type: 2}
  mReplacement: {fileID: 0}
  mSymbols: []
  mDynamicFont: {fileID: 0}
  mDynamicFontSize: 16
  mDynamicFontStyle: 0
