info face="Calibri" size=27 bold=0 italic=0 charset="" unicode=0 stretchH=100 smooth=1 aa=1 padding=0,0,0,0 spacing=0,0
common lineHeight=34 base=26 scaleW=298 scaleH=436 pages=1 packed=0
page id=0 file="UniReg.png"
chars count=435
char id=32     x=276   y=422   width=0     height=0     xoffset=0     yoffset=27    xadvance=6     page=0 chnl=0 letter="space"
char id=33     x=28    y=220   width=5     height=21    xoffset=4     yoffset=6     xadvance=9     page=0 chnl=0 letter="!"
char id=34     x=177   y=412   width=9     height=9     xoffset=2     yoffset=7     xadvance=11    page=0 chnl=0 letter="""
char id=35     x=150   y=241   width=15    height=20    xoffset=0     yoffset=7     xadvance=13    page=0 chnl=0 letter="#"
char id=36     x=0     y=62    width=14    height=26    xoffset=1     yoffset=4     xadvance=14    page=0 chnl=0 letter="$"
char id=37     x=0     y=178   width=20    height=21    xoffset=1     yoffset=6     xadvance=19    page=0 chnl=0 letter="%"
char id=38     x=259   y=157   width=20    height=21    xoffset=0     yoffset=6     xadvance=18    page=0 chnl=0 letter="&"
char id=39     x=223   y=412   width=5     height=9     xoffset=2     yoffset=7     xadvance=6     page=0 chnl=0 letter="'"
char id=40     x=27    y=62    width=7     height=26    xoffset=2     yoffset=6     xadvance=8     page=0 chnl=0 letter="("
char id=41     x=34    y=62    width=7     height=26    xoffset=2     yoffset=6     xadvance=8     page=0 chnl=0 letter=")"
char id=42     x=276   y=386   width=12    height=12    xoffset=2     yoffset=6     xadvance=13    page=0 chnl=0 letter="*"
char id=43     x=245   y=371   width=14    height=15    xoffset=1     yoffset=11    xadvance=13    page=0 chnl=0 letter="+"
char id=44     x=203   y=412   width=7     height=9     xoffset=1     yoffset=22    xadvance=7     page=0 chnl=0 letter=","
char id=45     x=259   y=422   width=9     height=4     xoffset=1     yoffset=17    xadvance=8     page=0 chnl=0 letter="-"
char id=46     x=170   y=422   width=5     height=6     xoffset=2     yoffset=21    xadvance=7     page=0 chnl=0 letter="."
char id=47     x=14    y=62    width=13    height=26    xoffset=0     yoffset=5     xadvance=10    page=0 chnl=0 letter="/"
char id=48     x=208   y=241   width=14    height=20    xoffset=1     yoffset=7     xadvance=14    page=0 chnl=0 letter="0"
char id=49     x=263   y=261   width=12    height=20    xoffset=2     yoffset=7     xadvance=14    page=0 chnl=0 letter="1"
char id=50     x=150   y=261   width=13    height=20    xoffset=2     yoffset=7     xadvance=14    page=0 chnl=0 letter="2"
char id=51     x=163   y=261   width=13    height=20    xoffset=1     yoffset=7     xadvance=14    page=0 chnl=0 letter="3"
char id=52     x=165   y=241   width=15    height=20    xoffset=1     yoffset=7     xadvance=14    page=0 chnl=0 letter="4"
char id=53     x=176   y=261   width=13    height=20    xoffset=1     yoffset=7     xadvance=14    page=0 chnl=0 letter="5"
char id=54     x=0     y=261   width=14    height=20    xoffset=1     yoffset=7     xadvance=14    page=0 chnl=0 letter="6"
char id=55     x=84    y=261   width=14    height=20    xoffset=1     yoffset=7     xadvance=14    page=0 chnl=0 letter="7"
char id=56     x=222   y=241   width=14    height=20    xoffset=1     yoffset=7     xadvance=14    page=0 chnl=0 letter="8"
char id=57     x=14    y=261   width=14    height=20    xoffset=1     yoffset=7     xadvance=14    page=0 chnl=0 letter="9"
char id=58     x=71    y=386   width=5     height=15    xoffset=2     yoffset=12    xadvance=7     page=0 chnl=0 letter=":"
char id=59     x=142   y=320   width=7     height=18    xoffset=1     yoffset=13    xadvance=7     page=0 chnl=0 letter=";"
char id=60     x=217   y=371   width=14    height=15    xoffset=1     yoffset=11    xadvance=13    page=0 chnl=0 letter="<"
char id=61     x=116   y=412   width=13    height=9     xoffset=1     yoffset=14    xadvance=13    page=0 chnl=0 letter="="
char id=62     x=231   y=371   width=14    height=15    xoffset=1     yoffset=11    xadvance=13    page=0 chnl=0 letter=">"
char id=63     x=232   y=199   width=12    height=21    xoffset=2     yoffset=6     xadvance=13    page=0 chnl=0 letter="?"
char id=64     x=190   y=88    width=24    height=23    xoffset=0     yoffset=7     xadvance=24    page=0 chnl=0 letter="@"
char id=65     x=219   y=220   width=17    height=20    xoffset=0     yoffset=7     xadvance=16    page=0 chnl=0 letter="A"
char id=66     x=264   y=241   width=14    height=20    xoffset=2     yoffset=7     xadvance=15    page=0 chnl=0 letter="B"
char id=67     x=135   y=241   width=15    height=20    xoffset=1     yoffset=7     xadvance=14    page=0 chnl=0 letter="C"
char id=68     x=269   y=220   width=16    height=20    xoffset=2     yoffset=7     xadvance=17    page=0 chnl=0 letter="D"
char id=69     x=275   y=261   width=12    height=20    xoffset=2     yoffset=7     xadvance=13    page=0 chnl=0 letter="E"
char id=70     x=67    y=281   width=11    height=20    xoffset=2     yoffset=7     xadvance=12    page=0 chnl=0 letter="F"
char id=71     x=253   y=220   width=16    height=20    xoffset=1     yoffset=7     xadvance=17    page=0 chnl=0 letter="G"
char id=72     x=60    y=241   width=15    height=20    xoffset=2     yoffset=7     xadvance=17    page=0 chnl=0 letter="H"
char id=73     x=131   y=281   width=5     height=20    xoffset=2     yoffset=7     xadvance=7     page=0 chnl=0 letter="I"
char id=74     x=117   y=281   width=9     height=20    xoffset=0     yoffset=7     xadvance=9     page=0 chnl=0 letter="J"
char id=75     x=278   y=241   width=14    height=20    xoffset=2     yoffset=7     xadvance=14    page=0 chnl=0 letter="K"
char id=76     x=78    y=281   width=11    height=20    xoffset=2     yoffset=7     xadvance=11    page=0 chnl=0 letter="L"
char id=77     x=72    y=220   width=21    height=20    xoffset=2     yoffset=7     xadvance=23    page=0 chnl=0 letter="M"
char id=78     x=0     y=241   width=15    height=20    xoffset=2     yoffset=7     xadvance=17    page=0 chnl=0 letter="N"
char id=79     x=148   y=220   width=18    height=20    xoffset=1     yoffset=7     xadvance=18    page=0 chnl=0 letter="O"
char id=80     x=202   y=261   width=13    height=20    xoffset=2     yoffset=7     xadvance=14    page=0 chnl=0 letter="P"
char id=81     x=22    y=135   width=20    height=22    xoffset=1     yoffset=8     xadvance=18    page=0 chnl=0 letter="Q"
char id=82     x=250   y=241   width=14    height=20    xoffset=2     yoffset=7     xadvance=15    page=0 chnl=0 letter="R"
char id=83     x=189   y=261   width=13    height=20    xoffset=1     yoffset=7     xadvance=12    page=0 chnl=0 letter="S"
char id=84     x=75    y=241   width=15    height=20    xoffset=0     yoffset=7     xadvance=13    page=0 chnl=0 letter="T"
char id=85     x=15    y=241   width=15    height=20    xoffset=2     yoffset=7     xadvance=17    page=0 chnl=0 letter="U"
char id=86     x=236   y=220   width=17    height=20    xoffset=0     yoffset=7     xadvance=15    page=0 chnl=0 letter="V"
char id=87     x=47    y=220   width=25    height=20    xoffset=1     yoffset=7     xadvance=24    page=0 chnl=0 letter="W"
char id=88     x=30    y=241   width=15    height=20    xoffset=1     yoffset=7     xadvance=14    page=0 chnl=0 letter="X"
char id=89     x=45    y=241   width=15    height=20    xoffset=0     yoffset=7     xadvance=13    page=0 chnl=0 letter="Y"
char id=90     x=56    y=261   width=14    height=20    xoffset=1     yoffset=7     xadvance=13    page=0 chnl=0 letter="Z"
char id=91     x=213   y=62    width=7     height=25    xoffset=3     yoffset=6     xadvance=8     page=0 chnl=0 letter="["
char id=92     x=161   y=62    width=13    height=25    xoffset=0     yoffset=6     xadvance=10    page=0 chnl=0 letter="\"
char id=93     x=220   y=62    width=7     height=25    xoffset=1     yoffset=6     xadvance=8     page=0 chnl=0 letter="]"
char id=94     x=263   y=386   width=13    height=12    xoffset=1     yoffset=8     xadvance=13    page=0 chnl=0 letter="^"
char id=95     x=232   y=422   width=16    height=4     xoffset=-0    yoffset=28    xadvance=13    page=0 chnl=0 letter="_"
char id=96     x=251   y=412   width=9     height=8     xoffset=0     yoffset=6     xadvance=8     page=0 chnl=0 letter="`"
char id=97     x=256   y=355   width=12    height=16    xoffset=1     yoffset=11    xadvance=13    page=0 chnl=0 letter="a"
char id=98     x=156   y=199   width=13    height=21    xoffset=2     yoffset=6     xadvance=14    page=0 chnl=0 letter="b"
char id=99     x=268   y=355   width=12    height=16    xoffset=1     yoffset=11    xadvance=11    page=0 chnl=0 letter="c"
char id=100    x=169   y=199   width=13    height=21    xoffset=1     yoffset=6     xadvance=14    page=0 chnl=0 letter="d"
char id=101    x=230   y=355   width=13    height=16    xoffset=1     yoffset=11    xadvance=13    page=0 chnl=0 letter="e"
char id=102    x=267   y=199   width=11    height=21    xoffset=0     yoffset=6     xadvance=8     page=0 chnl=0 letter="f"
char id=103    x=28    y=261   width=14    height=20    xoffset=1     yoffset=12    xadvance=13    page=0 chnl=0 letter="g"
char id=104    x=182   y=199   width=13    height=21    xoffset=2     yoffset=6     xadvance=14    page=0 chnl=0 letter="h"
char id=105    x=126   y=281   width=5     height=20    xoffset=2     yoffset=7     xadvance=6     page=0 chnl=0 letter="i"
char id=106    x=205   y=62    width=8     height=25    xoffset=-1    yoffset=7     xadvance=6     page=0 chnl=0 letter="j"
char id=107    x=220   y=199   width=12    height=21    xoffset=2     yoffset=6     xadvance=12    page=0 chnl=0 letter="k"
char id=108    x=33    y=220   width=5     height=21    xoffset=2     yoffset=6     xadvance=6     page=0 chnl=0 letter="l"
char id=109    x=76    y=371   width=20    height=15    xoffset=2     yoffset=12    xadvance=22    page=0 chnl=0 letter="m"
char id=110    x=0     y=386   width=13    height=15    xoffset=2     yoffset=12    xadvance=14    page=0 chnl=0 letter="n"
char id=111    x=216   y=355   width=14    height=16    xoffset=1     yoffset=11    xadvance=14    page=0 chnl=0 letter="o"
char id=112    x=124   y=261   width=13    height=20    xoffset=2     yoffset=12    xadvance=14    page=0 chnl=0 letter="p"
char id=113    x=137   y=261   width=13    height=20    xoffset=1     yoffset=12    xadvance=14    page=0 chnl=0 letter="q"
char id=114    x=62    y=386   width=9     height=15    xoffset=2     yoffset=12    xadvance=9     page=0 chnl=0 letter="r"
char id=115    x=280   y=355   width=11    height=16    xoffset=1     yoffset=11    xadvance=11    page=0 chnl=0 letter="s"
char id=116    x=127   y=301   width=10    height=19    xoffset=0     yoffset=8     xadvance=9     page=0 chnl=0 letter="t"
char id=117    x=13    y=386   width=13    height=15    xoffset=2     yoffset=12    xadvance=14    page=0 chnl=0 letter="u"
char id=118    x=259   y=371   width=14    height=15    xoffset=0     yoffset=12    xadvance=12    page=0 chnl=0 letter="v"
char id=119    x=96    y=371   width=20    height=15    xoffset=1     yoffset=12    xadvance=19    page=0 chnl=0 letter="w"
char id=120    x=26    y=386   width=13    height=15    xoffset=1     yoffset=12    xadvance=12    page=0 chnl=0 letter="x"
char id=121    x=236   y=241   width=14    height=20    xoffset=0     yoffset=12    xadvance=12    page=0 chnl=0 letter="y"
char id=122    x=51    y=386   width=11    height=15    xoffset=1     yoffset=12    xadvance=11    page=0 chnl=0 letter="z"
char id=123    x=187   y=62    width=9     height=25    xoffset=1     yoffset=6     xadvance=8     page=0 chnl=0 letter="{"
char id=124    x=41    y=62    width=5     height=26    xoffset=5     yoffset=6     xadvance=12    page=0 chnl=0 letter="|"
char id=125    x=196   y=62    width=9     height=25    xoffset=2     yoffset=6     xadvance=8     page=0 chnl=0 letter="}"
char id=126    x=40    y=422   width=14    height=7     xoffset=1     yoffset=10    xadvance=13    page=0 chnl=0 letter="~"
char id=161    x=38    y=220   width=5     height=21    xoffset=3     yoffset=9     xadvance=9     page=0 chnl=0 letter="¡"
char id=162    x=0     y=281   width=12    height=20    xoffset=2     yoffset=7     xadvance=13    page=0 chnl=0 letter="¢"
char id=163    x=70    y=261   width=14    height=20    xoffset=1     yoffset=7     xadvance=14    page=0 chnl=0 letter="£"
char id=164    x=165   y=338   width=14    height=17    xoffset=1     yoffset=10    xadvance=13    page=0 chnl=0 letter="¤"
char id=168    x=54    y=422   width=11    height=7     xoffset=0     yoffset=7     xadvance=11    page=0 chnl=0 letter="¨"
char id=169    x=239   y=157   width=20    height=21    xoffset=2     yoffset=6     xadvance=23    page=0 chnl=0 letter="©"
char id=180    x=260   y=412   width=9     height=8     xoffset=0     yoffset=6     xadvance=8     page=0 chnl=0 letter="´"
char id=183    x=175   y=422   width=5     height=6     xoffset=2     yoffset=15    xadvance=7     page=0 chnl=0 letter="·"
char id=184    x=103   y=422   width=7     height=7     xoffset=2     yoffset=25    xadvance=8     page=0 chnl=0 letter="¸"
char id=1542   x=166   y=220   width=18    height=20    xoffset=1     yoffset=6     xadvance=17    page=0 chnl=0 letter="؆"
char id=1543   x=184   y=220   width=18    height=20    xoffset=1     yoffset=6     xadvance=17    page=0 chnl=0 letter="؇"
char id=1544   x=233   y=320   width=23    height=17    xoffset=0     yoffset=14    xadvance=21    page=0 chnl=0 letter="؈"
char id=1545   x=90    y=241   width=15    height=20    xoffset=1     yoffset=6     xadvance=14    page=0 chnl=0 letter="؉"
char id=1546   x=105   y=241   width=15    height=20    xoffset=1     yoffset=6     xadvance=14    page=0 chnl=0 letter="؊"
char id=1547   x=174   y=62    width=13    height=25    xoffset=1     yoffset=7     xadvance=13    page=0 chnl=0 letter="؋"
char id=1548   x=217   y=412   width=6     height=9     xoffset=1     yoffset=17    xadvance=8     page=0 chnl=0 letter="،"
char id=1549   x=57    y=301   width=13    height=19    xoffset=1     yoffset=7     xadvance=12    page=0 chnl=0 letter="؍"
char id=1550   x=0     y=401   width=23    height=11    xoffset=1     yoffset=16    xadvance=23    page=0 chnl=0 letter="؎"
char id=1551   x=237   y=34    width=15    height=26    xoffset=1     yoffset=8     xadvance=14    page=0 chnl=0 letter="؏"
char id=1552   x=228   y=401   width=14    height=10    xoffset=1     yoffset=-3    xadvance=9     page=0 chnl=0 letter="ؐ"
char id=1553   x=282   y=401   width=12    height=10    xoffset=1     yoffset=-3    xadvance=14    page=0 chnl=0 letter="ؑ"
char id=1554   x=269   y=401   width=13    height=10    xoffset=-0    yoffset=-3    xadvance=14    page=0 chnl=0 letter="ؒ"
char id=1555   x=193   y=386   width=16    height=13    xoffset=1     yoffset=-5    xadvance=11    page=0 chnl=0 letter="ؓ"
char id=1556   x=238   y=412   width=13    height=8     xoffset=1     yoffset=-1    xadvance=11    page=0 chnl=0 letter="ؔ"
char id=1557   x=186   y=412   width=9     height=9     xoffset=0     yoffset=-2    xadvance=11    page=0 chnl=0 letter="ؕ"
char id=1558   x=242   y=401   width=14    height=10    xoffset=0     yoffset=-3    xadvance=11    page=0 chnl=0 letter="ؖ"
char id=1559   x=239   y=386   width=8     height=13    xoffset=0     yoffset=-6    xadvance=12    page=0 chnl=0 letter="ؗ"
char id=1560   x=215   y=422   width=6     height=5     xoffset=1     yoffset=1     xadvance=15    page=0 chnl=0 letter="ؘ"
char id=1561   x=110   y=422   width=6     height=7     xoffset=0     yoffset=0     xadvance=23    page=0 chnl=0 letter="ؙ"
char id=1562   x=221   y=422   width=6     height=5     xoffset=-2    yoffset=32    xadvance=17    page=0 chnl=0 letter="ؚ"
char id=1563   x=260   y=338   width=6     height=17    xoffset=3     yoffset=9     xadvance=8     page=0 chnl=0 letter="؛"
char id=1566   x=278   y=412   width=8     height=8     xoffset=1     yoffset=5     xadvance=7     page=0 chnl=0 letter="؞"
char id=1567   x=251   y=338   width=9     height=17    xoffset=1     yoffset=9     xadvance=9     page=0 chnl=0 letter="؟"
char id=1569   x=0     y=412   width=10    height=10    xoffset=1     yoffset=17    xadvance=8     page=0 chnl=0 letter="ء"
char id=1570   x=248   y=135   width=7     height=22    xoffset=2     yoffset=5     xadvance=8     page=0 chnl=0 letter="آ"
char id=1571   x=221   y=112   width=7     height=23    xoffset=2     yoffset=4     xadvance=8     page=0 chnl=0 letter="أ"
char id=1572   x=135   y=112   width=14    height=23    xoffset=-1    yoffset=9     xadvance=11    page=0 chnl=0 letter="ؤ"
char id=1573   x=25    y=34    width=7     height=28    xoffset=2     yoffset=5     xadvance=8     page=0 chnl=0 letter="إ"
char id=1574   x=0     y=88    width=19    height=24    xoffset=0     yoffset=9     xadvance=17    page=0 chnl=0 letter="ئ"
char id=1575   x=43    y=220   width=4     height=21    xoffset=4     yoffset=5     xadvance=8     page=0 chnl=0 letter="ا"
char id=1576   x=138   y=355   width=19    height=16    xoffset=0     yoffset=16    xadvance=17    page=0 chnl=0 letter="ب"
char id=1577   x=132   y=320   width=10    height=18    xoffset=0     yoffset=8     xadvance=9     page=0 chnl=0 letter="ة"
char id=1578   x=116   y=371   width=19    height=15    xoffset=0     yoffset=12    xadvance=17    page=0 chnl=0 letter="ت"
char id=1579   x=259   y=301   width=19    height=18    xoffset=0     yoffset=9     xadvance=17    page=0 chnl=0 letter="ث"
char id=1580   x=169   y=178   width=17    height=21    xoffset=0     yoffset=11    xadvance=16    page=0 chnl=0 letter="ج"
char id=1581   x=186   y=178   width=17    height=21    xoffset=0     yoffset=11    xadvance=16    page=0 chnl=0 letter="ح"
char id=1582   x=74    y=34    width=17    height=27    xoffset=0     yoffset=5     xadvance=16    page=0 chnl=0 letter="خ"
char id=1583   x=139   y=386   width=11    height=14    xoffset=2     yoffset=13    xadvance=11    page=0 chnl=0 letter="د"
char id=1584   x=12    y=281   width=11    height=20    xoffset=2     yoffset=7     xadvance=11    page=0 chnl=0 letter="ذ"
char id=1585   x=203   y=371   width=14    height=15    xoffset=-0    yoffset=17    xadvance=11    page=0 chnl=0 letter="ر"
char id=1586   x=212   y=135   width=14    height=22    xoffset=-0    yoffset=10    xadvance=11    page=0 chnl=0 letter="ز"
char id=1587   x=29    y=371   width=26    height=15    xoffset=0     yoffset=17    xadvance=25    page=0 chnl=0 letter="س"
char id=1588   x=256   y=62    width=26    height=24    xoffset=0     yoffset=8     xadvance=25    page=0 chnl=0 letter="ش"
char id=1589   x=34    y=355   width=32    height=16    xoffset=0     yoffset=16    xadvance=30    page=0 chnl=0 letter="ص"
char id=1590   x=126   y=88    width=32    height=23    xoffset=0     yoffset=9     xadvance=30    page=0 chnl=0 letter="ض"
char id=1591   x=133   y=178   width=18    height=21    xoffset=0     yoffset=5     xadvance=16    page=0 chnl=0 letter="ط"
char id=1592   x=151   y=178   width=18    height=21    xoffset=0     yoffset=5     xadvance=16    page=0 chnl=0 letter="ظ"
char id=1593   x=37    y=88    width=17    height=24    xoffset=0     yoffset=8     xadvance=16    page=0 chnl=0 letter="ع"
char id=1594   x=228   y=0     width=17    height=28    xoffset=0     yoffset=4     xadvance=16    page=0 chnl=0 letter="غ"
char id=1595   x=46    y=157   width=22    height=21    xoffset=0     yoffset=5     xadvance=19    page=0 chnl=0 letter="ػ"
char id=1596   x=116   y=0     width=22    height=29    xoffset=0     yoffset=5     xadvance=19    page=0 chnl=0 letter="ؼ"
char id=1597   x=0     y=112   width=19    height=23    xoffset=0     yoffset=10    xadvance=17    page=0 chnl=0 letter="ؽ"
char id=1598   x=80    y=135   width=19    height=22    xoffset=0     yoffset=11    xadvance=17    page=0 chnl=0 letter="ؾ"
char id=1599   x=218   y=34    width=19    height=26    xoffset=0     yoffset=7     xadvance=17    page=0 chnl=0 letter="ؿ"
char id=1600   x=189   y=422   width=10    height=5     xoffset=-0    yoffset=21    xadvance=5     page=0 chnl=0 letter="ـ"
char id=1601   x=184   y=281   width=23    height=19    xoffset=0     yoffset=7     xadvance=21    page=0 chnl=0 letter="ف"
char id=1602   x=19    y=112   width=17    height=23    xoffset=0     yoffset=8     xadvance=15    page=0 chnl=0 letter="ق"
char id=1603   x=152   y=135   width=17    height=22    xoffset=-0    yoffset=5     xadvance=15    page=0 chnl=0 letter="ك"
char id=1604   x=145   y=62    width=16    height=25    xoffset=-0    yoffset=6     xadvance=13    page=0 chnl=0 letter="ل"
char id=1605   x=143   y=199   width=13    height=21    xoffset=0     yoffset=16    xadvance=11    page=0 chnl=0 letter="م"
char id=1606   x=0     y=199   width=16    height=21    xoffset=0     yoffset=11    xadvance=14    page=0 chnl=0 letter="ن"
char id=1607   x=209   y=386   width=10    height=13    xoffset=0     yoffset=13    xadvance=9     page=0 chnl=0 letter="ه"
char id=1608   x=174   y=355   width=14    height=16    xoffset=-1    yoffset=16    xadvance=11    page=0 chnl=0 letter="و"
char id=1609   x=80    y=338   width=19    height=17    xoffset=0     yoffset=16    xadvance=17    page=0 chnl=0 letter="ى"
char id=1610   x=20    y=178   width=19    height=21    xoffset=0     yoffset=11    xadvance=17    page=0 chnl=0 letter="ي"
char id=1611   x=28    y=412   width=8     height=10    xoffset=1     yoffset=-1    xadvance=13    page=0 chnl=0 letter="ً"
char id=1612   x=10    y=412   width=9     height=10    xoffset=-0    yoffset=-2    xadvance=10    page=0 chnl=0 letter="ٌ"
char id=1613   x=36    y=412   width=8     height=10    xoffset=1     yoffset=34    xadvance=10    page=0 chnl=0 letter="ٍ"
char id=1614   x=138   y=422   width=7     height=6     xoffset=1     yoffset=3     xadvance=8     page=0 chnl=0 letter="َ"
char id=1615   x=44    y=412   width=8     height=10    xoffset=0     yoffset=-1    xadvance=8     page=0 chnl=0 letter="ُ"
char id=1616   x=73    y=422   width=8     height=7     xoffset=1     yoffset=34    xadvance=13    page=0 chnl=0 letter="ِ"
char id=1617   x=286   y=412   width=8     height=8     xoffset=0     yoffset=0     xadvance=13    page=0 chnl=0 letter="ّ"
char id=1618   x=21    y=422   width=7     height=8     xoffset=0     yoffset=0     xadvance=24    page=0 chnl=0 letter="ْ"
char id=1619   x=145   y=422   width=7     height=6     xoffset=2     yoffset=5     xadvance=24    page=0 chnl=0 letter="ٓ"
char id=1620   x=14    y=422   width=7     height=8     xoffset=2     yoffset=4     xadvance=24    page=0 chnl=0 letter="ٔ"
char id=1621   x=7     y=422   width=7     height=8     xoffset=1     yoffset=31    xadvance=24    page=0 chnl=0 letter="ٕ"
char id=1622   x=34    y=422   width=3     height=8     xoffset=1     yoffset=30    xadvance=17    page=0 chnl=0 letter="ٖ"
char id=1623   x=52    y=412   width=8     height=10    xoffset=0     yoffset=-3    xadvance=17    page=0 chnl=0 letter="ٗ"
char id=1624   x=81    y=422   width=8     height=7     xoffset=0     yoffset=0     xadvance=17    page=0 chnl=0 letter="٘"
char id=1625   x=248   y=422   width=11    height=4     xoffset=1     yoffset=2     xadvance=18    page=0 chnl=0 letter="ٙ"
char id=1626   x=122   y=422   width=8     height=6     xoffset=0     yoffset=1     xadvance=18    page=0 chnl=0 letter="ٚ"
char id=1627   x=130   y=422   width=8     height=6     xoffset=0     yoffset=1     xadvance=18    page=0 chnl=0 letter="ٛ"
char id=1628   x=227   y=422   width=5     height=5     xoffset=1     yoffset=29    xadvance=18    page=0 chnl=0 letter="ٜ"
char id=1629   x=60    y=412   width=8     height=10    xoffset=0     yoffset=-3    xadvance=18    page=0 chnl=0 letter="ٝ"
char id=1630   x=210   y=412   width=7     height=9     xoffset=1     yoffset=-2    xadvance=18    page=0 chnl=0 letter="ٞ"
char id=1632   x=89    y=422   width=7     height=7     xoffset=5     yoffset=16    xadvance=14    page=0 chnl=0 letter="٠"
char id=1633   x=99    y=281   width=9     height=20    xoffset=4     yoffset=6     xadvance=14    page=0 chnl=0 letter="١"
char id=1634   x=239   y=261   width=12    height=20    xoffset=3     yoffset=6     xadvance=14    page=0 chnl=0 letter="٢"
char id=1635   x=180   y=241   width=14    height=20    xoffset=1     yoffset=6     xadvance=14    page=0 chnl=0 letter="٣"
char id=1636   x=89    y=281   width=10    height=20    xoffset=4     yoffset=6     xadvance=14    page=0 chnl=0 letter="٤"
char id=1637   x=150   y=386   width=10    height=14    xoffset=4     yoffset=9     xadvance=14    page=0 chnl=0 letter="٥"
char id=1638   x=42    y=261   width=14    height=20    xoffset=2     yoffset=6     xadvance=14    page=0 chnl=0 letter="٦"
char id=1639   x=251   y=281   width=15    height=19    xoffset=1     yoffset=7     xadvance=14    page=0 chnl=0 letter="٧"
char id=1640   x=266   y=281   width=15    height=19    xoffset=1     yoffset=7     xadvance=14    page=0 chnl=0 letter="٨"
char id=1641   x=215   y=261   width=12    height=20    xoffset=3     yoffset=6     xadvance=14    page=0 chnl=0 letter="٩"
char id=1642   x=120   y=241   width=15    height=20    xoffset=1     yoffset=6     xadvance=14    page=0 chnl=0 letter="٪"
char id=1643   x=28    y=422   width=6     height=8     xoffset=6     yoffset=21    xadvance=14    page=0 chnl=0 letter="٫"
char id=1644   x=185   y=422   width=4     height=6     xoffset=6     yoffset=22    xadvance=14    page=0 chnl=0 letter="٬"
char id=1645   x=126   y=386   width=13    height=14    xoffset=2     yoffset=14    xadvance=14    page=0 chnl=0 letter="٭"
char id=1646   x=23    y=401   width=19    height=11    xoffset=0     yoffset=16    xadvance=17    page=0 chnl=0 letter="ٮ"
char id=1647   x=118   y=338   width=17    height=17    xoffset=0     yoffset=14    xadvance=15    page=0 chnl=0 letter="ٯ"
char id=1648   x=37    y=422   width=3     height=8     xoffset=2     yoffset=2     xadvance=13    page=0 chnl=0 letter="ٰ"
char id=1649   x=212   y=112   width=9     height=23    xoffset=1     yoffset=4     xadvance=8     page=0 chnl=0 letter="ٱ"
char id=1650   x=81    y=88    width=11    height=24    xoffset=-0    yoffset=3     xadvance=8     page=0 chnl=0 letter="ٲ"
char id=1651   x=14    y=34    width=11    height=28    xoffset=-0    yoffset=5     xadvance=8     page=0 chnl=0 letter="ٳ"
char id=1652   x=0     y=422   width=7     height=8     xoffset=1     yoffset=-1    xadvance=14    page=0 chnl=0 letter="ٴ"
char id=1653   x=202   y=112   width=10    height=23    xoffset=4     yoffset=4     xadvance=11    page=0 chnl=0 letter="ٵ"
char id=1654   x=19    y=88    width=18    height=24    xoffset=-1    yoffset=8     xadvance=14    page=0 chnl=0 letter="ٶ"
char id=1655   x=87    y=112   width=16    height=23    xoffset=-1    yoffset=9     xadvance=13    page=0 chnl=0 letter="ٷ"
char id=1656   x=191   y=0     width=20    height=28    xoffset=0     yoffset=5     xadvance=17    page=0 chnl=0 letter="ٸ"
char id=1657   x=278   y=301   width=19    height=18    xoffset=0     yoffset=9     xadvance=17    page=0 chnl=0 letter="ٹ"
char id=1658   x=240   y=301   width=19    height=18    xoffset=0     yoffset=9     xadvance=17    page=0 chnl=0 letter="ٺ"
char id=1659   x=183   y=301   width=19    height=18    xoffset=0     yoffset=16    xadvance=17    page=0 chnl=0 letter="ٻ"
char id=1660   x=0     y=320   width=19    height=18    xoffset=0     yoffset=13    xadvance=17    page=0 chnl=0 letter="ټ"
char id=1661   x=119   y=355   width=19    height=16    xoffset=0     yoffset=11    xadvance=17    page=0 chnl=0 letter="ٽ"
char id=1662   x=221   y=301   width=19    height=18    xoffset=0     yoffset=17    xadvance=17    page=0 chnl=0 letter="پ"
char id=1663   x=19    y=320   width=19    height=18    xoffset=0     yoffset=9     xadvance=17    page=0 chnl=0 letter="ٿ"
char id=1664   x=202   y=301   width=19    height=18    xoffset=0     yoffset=17    xadvance=17    page=0 chnl=0 letter="ڀ"
char id=1665   x=211   y=0     width=17    height=28    xoffset=0     yoffset=4     xadvance=16    page=0 chnl=0 letter="ځ"
char id=1666   x=138   y=0     width=17    height=29    xoffset=0     yoffset=3     xadvance=16    page=0 chnl=0 letter="ڂ"
char id=1667   x=203   y=178   width=17    height=21    xoffset=0     yoffset=11    xadvance=16    page=0 chnl=0 letter="ڃ"
char id=1668   x=220   y=178   width=17    height=21    xoffset=0     yoffset=11    xadvance=16    page=0 chnl=0 letter="ڄ"
char id=1669   x=71    y=0     width=17    height=30    xoffset=0     yoffset=2     xadvance=16    page=0 chnl=0 letter="څ"
char id=1670   x=237   y=178   width=17    height=21    xoffset=0     yoffset=11    xadvance=16    page=0 chnl=0 letter="چ"
char id=1671   x=254   y=178   width=17    height=21    xoffset=0     yoffset=11    xadvance=16    page=0 chnl=0 letter="ڇ"
char id=1672   x=70    y=88    width=11    height=24    xoffset=2     yoffset=3     xadvance=11    page=0 chnl=0 letter="ڈ"
char id=1673   x=121   y=320   width=11    height=18    xoffset=2     yoffset=13    xadvance=11    page=0 chnl=0 letter="ډ"
char id=1674   x=45    y=281   width=11    height=20    xoffset=2     yoffset=12    xadvance=11    page=0 chnl=0 letter="ڊ"
char id=1675   x=105   y=0     width=11    height=30    xoffset=2     yoffset=2     xadvance=11    page=0 chnl=0 letter="ڋ"
char id=1676   x=23    y=281   width=11    height=20    xoffset=2     yoffset=7     xadvance=11    page=0 chnl=0 letter="ڌ"
char id=1677   x=56    y=281   width=11    height=20    xoffset=2     yoffset=12    xadvance=11    page=0 chnl=0 letter="ڍ"
char id=1678   x=226   y=135   width=11    height=22    xoffset=2     yoffset=5     xadvance=11    page=0 chnl=0 letter="ڎ"
char id=1679   x=237   y=135   width=11    height=22    xoffset=2     yoffset=5     xadvance=11    page=0 chnl=0 letter="ڏ"
char id=1680   x=191   y=112   width=11    height=23    xoffset=2     yoffset=4     xadvance=11    page=0 chnl=0 letter="ڐ"
char id=1681   x=280   y=34    width=14    height=26    xoffset=-0    yoffset=6     xadvance=11    page=0 chnl=0 letter="ڑ"
char id=1682   x=59    y=199   width=14    height=21    xoffset=-0    yoffset=11    xadvance=11    page=0 chnl=0 letter="ڒ"
char id=1683   x=151   y=338   width=14    height=17    xoffset=-0    yoffset=18    xadvance=11    page=0 chnl=0 letter="ړ"
char id=1684   x=101   y=199   width=14    height=21    xoffset=-0    yoffset=17    xadvance=11    page=0 chnl=0 letter="ڔ"
char id=1685   x=115   y=199   width=14    height=21    xoffset=-0    yoffset=17    xadvance=11    page=0 chnl=0 letter="ڕ"
char id=1686   x=0     y=34    width=14    height=28    xoffset=-0    yoffset=10    xadvance=11    page=0 chnl=0 letter="ږ"
char id=1687   x=177   y=112   width=14    height=23    xoffset=-0    yoffset=9     xadvance=11    page=0 chnl=0 letter="ڗ"
char id=1688   x=124   y=34    width=14    height=27    xoffset=-0    yoffset=5     xadvance=11    page=0 chnl=0 letter="ژ"
char id=1689   x=266   y=34    width=14    height=26    xoffset=-0    yoffset=6     xadvance=11    page=0 chnl=0 letter="ڙ"
char id=1690   x=255   y=135   width=26    height=21    xoffset=0     yoffset=11    xadvance=25    page=0 chnl=0 letter="ښ"
char id=1691   x=207   y=320   width=26    height=17    xoffset=0     yoffset=17    xadvance=25    page=0 chnl=0 letter="ڛ"
char id=1692   x=170   y=34    width=26    height=26    xoffset=0     yoffset=8     xadvance=25    page=0 chnl=0 letter="ڜ"
char id=1693   x=66    y=355   width=32    height=16    xoffset=0     yoffset=16    xadvance=30    page=0 chnl=0 letter="ڝ"
char id=1694   x=138   y=34    width=32    height=26    xoffset=0     yoffset=6     xadvance=30    page=0 chnl=0 letter="ڞ"
char id=1695   x=115   y=178   width=18    height=21    xoffset=0     yoffset=5     xadvance=16    page=0 chnl=0 letter="ڟ"
char id=1696   x=32    y=0     width=17    height=32    xoffset=0     yoffset=0     xadvance=16    page=0 chnl=0 letter="ڠ"
char id=1697   x=170   y=386   width=23    height=13    xoffset=0     yoffset=13    xadvance=21    page=0 chnl=0 letter="ڡ"
char id=1698   x=161   y=281   width=23    height=19    xoffset=0     yoffset=13    xadvance=21    page=0 chnl=0 letter="ڢ"
char id=1699   x=72    y=62    width=23    height=25    xoffset=0     yoffset=7     xadvance=21    page=0 chnl=0 letter="ڣ"
char id=1700   x=0     y=157   width=23    height=21    xoffset=0     yoffset=5     xadvance=21    page=0 chnl=0 letter="ڤ"
char id=1701   x=23    y=157   width=23    height=21    xoffset=0     yoffset=13    xadvance=21    page=0 chnl=0 letter="ڥ"
char id=1702   x=235   y=112   width=23    height=22    xoffset=0     yoffset=4     xadvance=21    page=0 chnl=0 letter="ڦ"
char id=1703   x=36    y=112   width=17    height=23    xoffset=0     yoffset=8     xadvance=15    page=0 chnl=0 letter="ڧ"
char id=1704   x=57    y=34    width=17    height=27    xoffset=0     yoffset=4     xadvance=15    page=0 chnl=0 letter="ڨ"
char id=1705   x=68    y=157   width=22    height=21    xoffset=0     yoffset=5     xadvance=19    page=0 chnl=0 letter="ک"
char id=1706   x=90    y=157   width=22    height=21    xoffset=0     yoffset=5     xadvance=19    page=0 chnl=0 letter="ڪ"
char id=1707   x=112   y=157   width=22    height=21    xoffset=0     yoffset=5     xadvance=19    page=0 chnl=0 letter="ګ"
char id=1708   x=135   y=135   width=17    height=22    xoffset=-0    yoffset=5     xadvance=15    page=0 chnl=0 letter="ڬ"
char id=1709   x=70    y=112   width=17    height=23    xoffset=-0    yoffset=4     xadvance=15    page=0 chnl=0 letter="ڭ"
char id=1710   x=88    y=0     width=17    height=30    xoffset=-0    yoffset=5     xadvance=15    page=0 chnl=0 letter="ڮ"
char id=1711   x=258   y=112   width=22    height=22    xoffset=0     yoffset=4     xadvance=19    page=0 chnl=0 letter="گ"
char id=1712   x=0     y=135   width=22    height=22    xoffset=0     yoffset=4     xadvance=19    page=0 chnl=0 letter="ڰ"
char id=1713   x=214   y=88    width=22    height=23    xoffset=0     yoffset=3     xadvance=19    page=0 chnl=0 letter="ڱ"
char id=1714   x=169   y=0     width=22    height=28    xoffset=0     yoffset=4     xadvance=19    page=0 chnl=0 letter="ڲ"
char id=1715   x=49    y=0     width=22    height=30    xoffset=0     yoffset=4     xadvance=19    page=0 chnl=0 letter="ڳ"
char id=1716   x=196   y=34    width=22    height=26    xoffset=0     yoffset=0     xadvance=19    page=0 chnl=0 letter="ڴ"
char id=1717   x=278   y=0     width=16    height=28    xoffset=-0    yoffset=3     xadvance=13    page=0 chnl=0 letter="ڵ"
char id=1718   x=262   y=0     width=16    height=28    xoffset=-0    yoffset=3     xadvance=13    page=0 chnl=0 letter="ڶ"
char id=1719   x=16    y=0     width=16    height=33    xoffset=-0    yoffset=-2    xadvance=13    page=0 chnl=0 letter="ڷ"
char id=1720   x=0     y=0     width=16    height=34    xoffset=-0    yoffset=5     xadvance=13    page=0 chnl=0 letter="ڸ"
char id=1721   x=108   y=34    width=16    height=27    xoffset=0     yoffset=10    xadvance=14    page=0 chnl=0 letter="ڹ"
char id=1722   x=171   y=371   width=16    height=15    xoffset=0     yoffset=17    xadvance=14    page=0 chnl=0 letter="ں"
char id=1723   x=113   y=62    width=16    height=25    xoffset=0     yoffset=7     xadvance=14    page=0 chnl=0 letter="ڻ"
char id=1724   x=129   y=62    width=16    height=25    xoffset=0     yoffset=10    xadvance=14    page=0 chnl=0 letter="ڼ"
char id=1725   x=54    y=88    width=16    height=24    xoffset=0     yoffset=8     xadvance=14    page=0 chnl=0 letter="ڽ"
char id=1726   x=154   y=371   width=17    height=15    xoffset=-1    yoffset=11    xadvance=14    page=0 chnl=0 letter="ھ"
char id=1727   x=91    y=34    width=17    height=27    xoffset=0     yoffset=5     xadvance=16    page=0 chnl=0 letter="ڿ"
char id=1728   x=117   y=301   width=10    height=19    xoffset=0     yoffset=7     xadvance=9     page=0 chnl=0 letter="ۀ"
char id=1729   x=219   y=386   width=10    height=13    xoffset=2     yoffset=14    xadvance=12    page=0 chnl=0 letter="ہ"
char id=1730   x=0     y=220   width=10    height=21    xoffset=2     yoffset=6     xadvance=12    page=0 chnl=0 letter="ۂ"
char id=1731   x=99    y=320   width=11    height=18    xoffset=1     yoffset=9     xadvance=12    page=0 chnl=0 letter="ۃ"
char id=1732   x=188   y=355   width=14    height=16    xoffset=-1    yoffset=16    xadvance=11    page=0 chnl=0 letter="ۄ"
char id=1733   x=202   y=355   width=14    height=16    xoffset=-1    yoffset=16    xadvance=11    page=0 chnl=0 letter="ۅ"
char id=1734   x=149   y=112   width=14    height=23    xoffset=-1    yoffset=9     xadvance=11    page=0 chnl=0 letter="ۆ"
char id=1735   x=31    y=199   width=14    height=21    xoffset=-1    yoffset=11    xadvance=11    page=0 chnl=0 letter="ۇ"
char id=1736   x=184   y=135   width=14    height=22    xoffset=-1    yoffset=10    xadvance=11    page=0 chnl=0 letter="ۈ"
char id=1737   x=45    y=199   width=14    height=21    xoffset=-1    yoffset=11    xadvance=11    page=0 chnl=0 letter="ۉ"
char id=1738   x=198   y=135   width=14    height=22    xoffset=-1    yoffset=10    xadvance=11    page=0 chnl=0 letter="ۊ"
char id=1739   x=252   y=34    width=14    height=26    xoffset=-1    yoffset=6     xadvance=11    page=0 chnl=0 letter="ۋ"
char id=1740   x=99    y=338   width=19    height=17    xoffset=0     yoffset=16    xadvance=17    page=0 chnl=0 letter="ی"
char id=1741   x=256   y=320   width=22    height=17    xoffset=-0    yoffset=16    xadvance=19    page=0 chnl=0 letter="ۍ"
char id=1742   x=58    y=178   width=19    height=21    xoffset=0     yoffset=12    xadvance=17    page=0 chnl=0 letter="ێ"
char id=1743   x=163   y=112   width=14    height=23    xoffset=-1    yoffset=9     xadvance=11    page=0 chnl=0 letter="ۏ"
char id=1744   x=61    y=135   width=19    height=22    xoffset=0     yoffset=16    xadvance=17    page=0 chnl=0 letter="ې"
char id=1745   x=278   y=88    width=19    height=23    xoffset=0     yoffset=16    xadvance=17    page=0 chnl=0 letter="ۑ"
char id=1746   x=247   y=386   width=16    height=12    xoffset=4     yoffset=20    xadvance=16    page=0 chnl=0 letter="ے"
char id=1747   x=38    y=320   width=17    height=18    xoffset=3     yoffset=14    xadvance=16    page=0 chnl=0 letter="ۓ"
char id=1748   x=199   y=422   width=9     height=5     xoffset=1     yoffset=21    xadvance=9     page=0 chnl=0 letter="۔"
char id=1749   x=229   y=386   width=10    height=13    xoffset=0     yoffset=13    xadvance=9     page=0 chnl=0 letter="ە"
char id=1750   x=256   y=401   width=13    height=10    xoffset=-2    yoffset=-3    xadvance=23    page=0 chnl=0 letter="ۖ"
char id=1751   x=73    y=401   width=11    height=11    xoffset=-1    yoffset=-4    xadvance=14    page=0 chnl=0 letter="ۗ"
char id=1752   x=269   y=412   width=9     height=8     xoffset=-0    yoffset=-1    xadvance=14    page=0 chnl=0 letter="ۘ"
char id=1753   x=92    y=401   width=7     height=11    xoffset=-0    yoffset=-4    xadvance=18    page=0 chnl=0 letter="ۙ"
char id=1754   x=19    y=412   width=9     height=10    xoffset=0     yoffset=-3    xadvance=15    page=0 chnl=0 letter="ۚ"
char id=1755   x=65    y=422   width=8     height=7     xoffset=0     yoffset=0     xadvance=15    page=0 chnl=0 letter="ۛ"
char id=1756   x=142   y=412   width=13    height=9     xoffset=0     yoffset=-2    xadvance=15    page=0 chnl=0 letter="ۜ"
char id=1759   x=152   y=422   width=6     height=6     xoffset=1     yoffset=1     xadvance=12    page=0 chnl=0 letter="۟"
char id=1760   x=116   y=422   width=6     height=7     xoffset=1     yoffset=0     xadvance=12    page=0 chnl=0 letter="۠"
char id=1761   x=208   y=422   width=7     height=5     xoffset=1     yoffset=2     xadvance=12    page=0 chnl=0 letter="ۡ"
char id=1762   x=228   y=412   width=5     height=9     xoffset=1     yoffset=-1    xadvance=12    page=0 chnl=0 letter="ۢ"
char id=1763   x=129   y=412   width=13    height=9     xoffset=0     yoffset=30    xadvance=6     page=0 chnl=0 letter="ۣ"
char id=1764   x=268   y=422   width=8     height=4     xoffset=1     yoffset=5     xadvance=13    page=0 chnl=0 letter="ۤ"
char id=1765   x=195   y=412   width=8     height=9     xoffset=0     yoffset=21    xadvance=6     page=0 chnl=0 letter="ۥ"
char id=1766   x=155   y=412   width=11    height=9     xoffset=1     yoffset=20    xadvance=9     page=0 chnl=0 letter="ۦ"
char id=1767   x=166   y=412   width=11    height=9     xoffset=1     yoffset=-3    xadvance=13    page=0 chnl=0 letter="ۧ"
char id=1768   x=84    y=401   width=8     height=11    xoffset=1     yoffset=-4    xadvance=17    page=0 chnl=0 letter="ۨ"
char id=1769   x=243   y=355   width=13    height=16    xoffset=3     yoffset=10    xadvance=17    page=0 chnl=0 letter="۩"
char id=1770   x=158   y=422   width=6     height=6     xoffset=1     yoffset=30    xadvance=17    page=0 chnl=0 letter="۪"
char id=1771   x=164   y=422   width=6     height=6     xoffset=1     yoffset=1     xadvance=17    page=0 chnl=0 letter="۫"
char id=1772   x=180   y=422   width=5     height=6     xoffset=1     yoffset=1     xadvance=17    page=0 chnl=0 letter="۬"
char id=1773   x=233   y=412   width=5     height=9     xoffset=1     yoffset=29    xadvance=17    page=0 chnl=0 letter="ۭ"
char id=1774   x=34    y=281   width=11    height=20    xoffset=2     yoffset=7     xadvance=11    page=0 chnl=0 letter="ۮ"
char id=1775   x=73    y=199   width=14    height=21    xoffset=-0    yoffset=11    xadvance=11    page=0 chnl=0 letter="ۯ"
char id=1776   x=96    y=422   width=7     height=7     xoffset=5     yoffset=16    xadvance=12    page=0 chnl=0 letter="۰"
char id=1777   x=108   y=281   width=9     height=20    xoffset=4     yoffset=6     xadvance=12    page=0 chnl=0 letter="۱"
char id=1778   x=251   y=261   width=12    height=20    xoffset=3     yoffset=6     xadvance=14    page=0 chnl=0 letter="۲"
char id=1779   x=194   y=241   width=14    height=20    xoffset=1     yoffset=6     xadvance=14    page=0 chnl=0 letter="۳"
char id=1780   x=98    y=261   width=13    height=20    xoffset=2     yoffset=6     xadvance=14    page=0 chnl=0 letter="۴"
char id=1781   x=94    y=301   width=12    height=19    xoffset=2     yoffset=6     xadvance=14    page=0 chnl=0 letter="۵"
char id=1782   x=43    y=301   width=14    height=19    xoffset=2     yoffset=6     xadvance=14    page=0 chnl=0 letter="۶"
char id=1783   x=281   y=281   width=15    height=19    xoffset=1     yoffset=7     xadvance=14    page=0 chnl=0 letter="۷"
char id=1784   x=0     y=301   width=15    height=19    xoffset=1     yoffset=7     xadvance=14    page=0 chnl=0 letter="۸"
char id=1785   x=227   y=261   width=12    height=20    xoffset=3     yoffset=6     xadvance=14    page=0 chnl=0 letter="۹"
char id=1786   x=46    y=62    width=26    height=25    xoffset=0     yoffset=7     xadvance=25    page=0 chnl=0 letter="ۺ"
char id=1787   x=158   y=88    width=32    height=23    xoffset=0     yoffset=9     xadvance=30    page=0 chnl=0 letter="ۻ"
char id=1788   x=245   y=0     width=17    height=28    xoffset=0     yoffset=4     xadvance=16    page=0 chnl=0 letter="ۼ"
char id=1789   x=160   y=386   width=10    height=14    xoffset=4     yoffset=12    xadvance=12    page=0 chnl=0 letter="۽"
char id=1790   x=273   y=371   width=14    height=15    xoffset=-0    yoffset=11    xadvance=12    page=0 chnl=0 letter="۾"
char id=1791   x=202   y=220   width=17    height=20    xoffset=-1    yoffset=6     xadvance=14    page=0 chnl=0 letter="ۿ"
char id=65155  x=228   y=112   width=7     height=23    xoffset=2     yoffset=4     xadvance=8     page=0 chnl=0 letter="ﺃ"
char id=65156  x=244   y=199   width=12    height=21    xoffset=1     yoffset=5     xadvance=8     page=0 chnl=0 letter="ﺄ"
char id=65158  x=53    y=112   width=17    height=23    xoffset=-2    yoffset=9     xadvance=11    page=0 chnl=0 letter="ﺆ"
char id=65159  x=32    y=34    width=7     height=28    xoffset=2     yoffset=5     xadvance=8     page=0 chnl=0 letter="ﺇ"
char id=65162  x=236   y=88    width=21    height=23    xoffset=1     yoffset=12    xadvance=18    page=0 chnl=0 letter="ﺊ"
char id=65163  x=106   y=301   width=11    height=19    xoffset=-0    yoffset=7     xadvance=8     page=0 chnl=0 letter="ﺋ"
char id=65166  x=19    y=220   width=9     height=21    xoffset=4     yoffset=5     xadvance=8     page=0 chnl=0 letter="ﺎ"
char id=65168  x=98    y=355   width=21    height=16    xoffset=0     yoffset=16    xadvance=17    page=0 chnl=0 letter="ﺐ"
char id=65169  x=218   y=338   width=11    height=17    xoffset=-0    yoffset=15    xadvance=8     page=0 chnl=0 letter="ﺑ"
char id=65170  x=179   y=338   width=13    height=17    xoffset=-0    yoffset=15    xadvance=8     page=0 chnl=0 letter="ﺒ"
char id=65172  x=208   y=199   width=12    height=21    xoffset=0     yoffset=5     xadvance=9     page=0 chnl=0 letter="ﺔ"
char id=65173  x=135   y=371   width=19    height=15    xoffset=0     yoffset=12    xadvance=17    page=0 chnl=0 letter="ﺕ"
char id=65174  x=55    y=371   width=21    height=15    xoffset=0     yoffset=12    xadvance=17    page=0 chnl=0 letter="ﺖ"
char id=65175  x=110   y=320   width=11    height=18    xoffset=-0    yoffset=8     xadvance=8     page=0 chnl=0 letter="ﺗ"
char id=65176  x=86    y=320   width=13    height=18    xoffset=-0    yoffset=8     xadvance=8     page=0 chnl=0 letter="ﺘ"
char id=65178  x=162   y=301   width=21    height=18    xoffset=0     yoffset=9     xadvance=17    page=0 chnl=0 letter="ﺚ"
char id=65179  x=278   y=199   width=11    height=21    xoffset=-0    yoffset=5     xadvance=8     page=0 chnl=0 letter="ﺛ"
char id=65180  x=195   y=199   width=13    height=21    xoffset=-0    yoffset=5     xadvance=8     page=0 chnl=0 letter="ﺜ"
char id=65182  x=112   y=220   width=18    height=20    xoffset=0     yoffset=16    xadvance=14    page=0 chnl=0 letter="ﺞ"
char id=65183  x=42    y=338   width=19    height=17    xoffset=-0    yoffset=15    xadvance=17    page=0 chnl=0 letter="ﺟ"
char id=65184  x=0     y=338   width=21    height=17    xoffset=-0    yoffset=15    xadvance=17    page=0 chnl=0 letter="ﺠ"
char id=65186  x=130   y=220   width=18    height=20    xoffset=0     yoffset=16    xadvance=14    page=0 chnl=0 letter="ﺢ"
char id=65187  x=178   y=401   width=19    height=10    xoffset=-0    yoffset=16    xadvance=17    page=0 chnl=0 letter="ﺣ"
char id=65188  x=157   y=401   width=21    height=10    xoffset=-0    yoffset=16    xadvance=17    page=0 chnl=0 letter="ﺤ"
char id=65190  x=39    y=34    width=18    height=27    xoffset=0     yoffset=9     xadvance=14    page=0 chnl=0 letter="ﺦ"
char id=65191  x=61    y=338   width=19    height=17    xoffset=-0    yoffset=9     xadvance=17    page=0 chnl=0 letter="ﺧ"
char id=65192  x=21    y=338   width=21    height=17    xoffset=-0    yoffset=9     xadvance=17    page=0 chnl=0 letter="ﺨ"
char id=65194  x=113   y=386   width=13    height=14    xoffset=2     yoffset=13    xadvance=11    page=0 chnl=0 letter="ﺪ"
char id=65196  x=111   y=261   width=13    height=20    xoffset=2     yoffset=7     xadvance=11    page=0 chnl=0 letter="ﺬ"
char id=65198  x=187   y=371   width=16    height=15    xoffset=-1    yoffset=17    xadvance=11    page=0 chnl=0 letter="ﺮ"
char id=65200  x=103   y=112   width=16    height=23    xoffset=-1    yoffset=9     xadvance=11    page=0 chnl=0 letter="ﺰ"
char id=65202  x=0     y=371   width=29    height=15    xoffset=0     yoffset=17    xadvance=24    page=0 chnl=0 letter="ﺲ"
char id=65203  x=93    y=412   width=23    height=9     xoffset=-0    yoffset=17    xadvance=20    page=0 chnl=0 letter="ﺳ"
char id=65204  x=68    y=412   width=25    height=9     xoffset=-0    yoffset=17    xadvance=20    page=0 chnl=0 letter="ﺴ"
char id=65206  x=227   y=62    width=29    height=24    xoffset=0     yoffset=8     xadvance=24    page=0 chnl=0 letter="ﺶ"
char id=65207  x=207   y=281   width=23    height=19    xoffset=-0    yoffset=7     xadvance=20    page=0 chnl=0 letter="ﺷ"
char id=65208  x=137   y=301   width=25    height=18    xoffset=-0    yoffset=8     xadvance=20    page=0 chnl=0 letter="ﺸ"
char id=65210  x=0     y=355   width=34    height=16    xoffset=0     yoffset=16    xadvance=30    page=0 chnl=0 letter="ﺺ"
char id=65211  x=129   y=401   width=28    height=10    xoffset=-0    yoffset=16    xadvance=25    page=0 chnl=0 letter="ﺻ"
char id=65212  x=99    y=401   width=30    height=10    xoffset=-0    yoffset=16    xadvance=25    page=0 chnl=0 letter="ﺼ"
char id=65214  x=92    y=88    width=34    height=23    xoffset=0     yoffset=9     xadvance=30    page=0 chnl=0 letter="ﺾ"
char id=65215  x=179   y=320   width=28    height=17    xoffset=-0    yoffset=9     xadvance=25    page=0 chnl=0 letter="ﺿ"
char id=65216  x=149   y=320   width=30    height=17    xoffset=-0    yoffset=9     xadvance=25    page=0 chnl=0 letter="ﻀ"
char id=65218  x=155   y=157   width=21    height=21    xoffset=-0    yoffset=5     xadvance=16    page=0 chnl=0 letter="ﻂ"
char id=65219  x=77    y=178   width=19    height=21    xoffset=-0    yoffset=5     xadvance=16    page=0 chnl=0 letter="ﻃ"
char id=65220  x=197   y=157   width=21    height=21    xoffset=-0    yoffset=5     xadvance=16    page=0 chnl=0 letter="ﻄ"
char id=65222  x=176   y=157   width=21    height=21    xoffset=-0    yoffset=5     xadvance=16    page=0 chnl=0 letter="ﻆ"
char id=65223  x=96    y=178   width=19    height=21    xoffset=-0    yoffset=5     xadvance=16    page=0 chnl=0 letter="ﻇ"
char id=65224  x=218   y=157   width=21    height=21    xoffset=-0    yoffset=5     xadvance=16    page=0 chnl=0 letter="ﻈ"
char id=65226  x=118   y=135   width=17    height=22    xoffset=0     yoffset=15    xadvance=13    page=0 chnl=0 letter="ﻊ"
char id=65227  x=58    y=401   width=15    height=11    xoffset=-0    yoffset=15    xadvance=13    page=0 chnl=0 letter="ﻋ"
char id=65228  x=42    y=401   width=16    height=11    xoffset=-0    yoffset=15    xadvance=11    page=0 chnl=0 letter="ﻌ"
char id=65231  x=71    y=320   width=15    height=18    xoffset=-0    yoffset=8     xadvance=13    page=0 chnl=0 letter="ﻏ"
char id=65232  x=135   y=338   width=16    height=17    xoffset=-0    yoffset=9     xadvance=11    page=0 chnl=0 letter="ﻐ"
char id=65234  x=136   y=281   width=25    height=19    xoffset=0     yoffset=7     xadvance=21    page=0 chnl=0 letter="ﻒ"
char id=65235  x=70    y=301   width=12    height=19    xoffset=-0    yoffset=7     xadvance=10    page=0 chnl=0 letter="ﻓ"
char id=65236  x=15    y=301   width=14    height=19    xoffset=-0    yoffset=7     xadvance=10    page=0 chnl=0 letter="ﻔ"
char id=65238  x=42    y=135   width=19    height=22    xoffset=0     yoffset=10    xadvance=15    page=0 chnl=0 letter="ﻖ"
char id=65239  x=82    y=301   width=12    height=19    xoffset=-0    yoffset=7     xadvance=10    page=0 chnl=0 letter="ﻗ"
char id=65240  x=29    y=301   width=14    height=19    xoffset=-0    yoffset=7     xadvance=10    page=0 chnl=0 letter="ﻘ"
char id=65242  x=99    y=135   width=19    height=22    xoffset=0     yoffset=5     xadvance=14    page=0 chnl=0 letter="ﻚ"
char id=65243  x=129   y=199   width=14    height=21    xoffset=-0    yoffset=5     xadvance=12    page=0 chnl=0 letter="ﻛ"
char id=65244  x=271   y=178   width=17    height=21    xoffset=-0    yoffset=5     xadvance=12    page=0 chnl=0 letter="ﻜ"
char id=65246  x=95    y=62    width=18    height=25    xoffset=-0    yoffset=6     xadvance=13    page=0 chnl=0 letter="ﻞ"
char id=65247  x=10    y=220   width=9     height=21    xoffset=-0    yoffset=5     xadvance=6     page=0 chnl=0 letter="ﻟ"
char id=65248  x=256   y=199   width=11    height=21    xoffset=-0    yoffset=5     xadvance=6     page=0 chnl=0 letter="ﻠ"
char id=65250  x=16    y=199   width=15    height=21    xoffset=0     yoffset=16    xadvance=11    page=0 chnl=0 letter="ﻢ"
char id=65251  x=214   y=401   width=14    height=10    xoffset=-0    yoffset=16    xadvance=12    page=0 chnl=0 letter="ﻣ"
char id=65252  x=197   y=401   width=17    height=10    xoffset=-0    yoffset=16    xadvance=12    page=0 chnl=0 letter="ﻤ"
char id=65254  x=93    y=220   width=19    height=20    xoffset=0     yoffset=12    xadvance=14    page=0 chnl=0 letter="ﻦ"
char id=65255  x=229   y=338   width=11    height=17    xoffset=-0    yoffset=9     xadvance=8     page=0 chnl=0 letter="ﻧ"
char id=65256  x=192   y=338   width=13    height=17    xoffset=-0    yoffset=9     xadvance=8     page=0 chnl=0 letter="ﻨ"
char id=65258  x=39    y=386   width=12    height=15    xoffset=0     yoffset=11    xadvance=9     page=0 chnl=0 letter="ﻪ"
char id=65259  x=97    y=386   width=16    height=14    xoffset=-0    yoffset=12    xadvance=14    page=0 chnl=0 letter="ﻫ"
char id=65260  x=55    y=320   width=16    height=18    xoffset=-0    yoffset=14    xadvance=11    page=0 chnl=0 letter="ﻬ"
char id=65262  x=157   y=355   width=17    height=16    xoffset=-2    yoffset=16    xadvance=11    page=0 chnl=0 letter="ﻮ"
char id=65264  x=76    y=386   width=21    height=14    xoffset=1     yoffset=21    xadvance=18    page=0 chnl=0 letter="ﻰ"
char id=65265  x=39    y=178   width=19    height=21    xoffset=0     yoffset=11    xadvance=17    page=0 chnl=0 letter="ﻱ"
char id=65266  x=230   y=281   width=21    height=19    xoffset=1     yoffset=20    xadvance=18    page=0 chnl=0 letter="ﻲ"
char id=65267  x=240   y=338   width=11    height=17    xoffset=-0    yoffset=15    xadvance=8     page=0 chnl=0 letter="ﻳ"
char id=65268  x=205   y=338   width=13    height=17    xoffset=-0    yoffset=15    xadvance=8     page=0 chnl=0 letter="ﻴ"
char id=65269  x=169   y=135   width=15    height=22    xoffset=1     yoffset=4     xadvance=14    page=0 chnl=0 letter="ﻵ"
char id=65270  x=257   y=88    width=21    height=23    xoffset=-1    yoffset=5     xadvance=16    page=0 chnl=0 letter="ﻶ"
char id=65271  x=119   y=112   width=16    height=23    xoffset=0     yoffset=3     xadvance=14    page=0 chnl=0 letter="ﻷ"
char id=65273  x=155   y=0     width=14    height=29    xoffset=2     yoffset=5     xadvance=14    page=0 chnl=0 letter="ﻹ"
char id=65275  x=87    y=199   width=14    height=21    xoffset=2     yoffset=5     xadvance=14    page=0 chnl=0 letter="ﻻ"
char id=65276  x=134   y=157   width=21    height=21    xoffset=-1    yoffset=7     xadvance=16    page=0 chnl=0 letter="ﻼ"
