%YAML 1.1
%TAG !u! tag:unity3d.com,2011:
--- !u!74 &7400000
AnimationClip:
  m_ObjectHideFlags: 0
  m_PrefabParentObject: {fileID: 0}
  m_PrefabInternal: {fileID: 0}
  m_Name: banner
  serializedVersion: 6
  m_Legacy: 1
  m_Compressed: 0
  m_UseHighQualityCurve: 1
  m_RotationCurves: []
  m_CompressedRotationCurves: []
  m_EulerCurves: []
  m_PositionCurves:
  - curve:
      serializedVersion: 2
      m_Curve:
      - time: 0
        value: {x: 0, y: 8, z: 0}
        inSlope: {x: 0, y: 0, z: 0}
        outSlope: {x: 0, y: 0, z: 0}
        tangentMode: 0
      - time: 0.33333334
        value: {x: 0, y: -69, z: 0}
        inSlope: {x: 0, y: 0, z: 0}
        outSlope: {x: 0, y: 0, z: 0}
        tangentMode: 0
      - time: 0.45
        value: {x: 0, y: -84, z: 0}
        inSlope: {x: 0, y: 0, z: 0}
        outSlope: {x: 0, y: 0, z: 0}
        tangentMode: 0
      - time: 8.333333
        value: {x: 0, y: -84, z: 0}
        inSlope: {x: 0, y: 0, z: 0}
        outSlope: {x: 0, y: 0, z: 0}
        tangentMode: 58
      - time: 8.666667
        value: {x: 0, y: 8, z: 0}
        inSlope: {x: 0, y: 0, z: 0}
        outSlope: {x: 0, y: 0, z: 0}
        tangentMode: 0
      - time: 8.983334
        value: {x: 0, y: 8, z: 0}
        inSlope: {x: 0, y: 0, z: 0}
        outSlope: {x: 0, y: 0, z: 0}
        tangentMode: 0
      - time: 15.05
        value: {x: 0, y: 8, z: 0}
        inSlope: {x: 0, y: 0, z: 0}
        outSlope: {x: 0, y: 0, z: 0}
        tangentMode: 0
      m_PreInfinity: 2
      m_PostInfinity: 2
      m_RotationOrder: 4
    path: Score
  - curve:
      serializedVersion: 2
      m_Curve:
      - time: 0
        value: {x: 530, y: 0, z: 0}
        inSlope: {x: 0, y: 0, z: 0}
        outSlope: {x: 0, y: 0, z: 0}
        tangentMode: 0
      - time: 0.45
        value: {x: 533, y: 0, z: 0}
        inSlope: {x: 0, y: 0, z: 0}
        outSlope: {x: 0, y: 0, z: 0}
        tangentMode: 0
      - time: 0.78333336
        value: {x: 0, y: 0, z: 0}
        inSlope: {x: 0, y: 0, z: 0}
        outSlope: {x: 0, y: 0, z: 0}
        tangentMode: 58
      - time: 8
        value: {x: 0, y: 0, z: 0}
        inSlope: {x: 0, y: 0, z: 0}
        outSlope: {x: 0, y: 0, z: 0}
        tangentMode: 0
      - time: 8.333333
        value: {x: 500, y: 0, z: 0}
        inSlope: {x: 0, y: 0, z: 0}
        outSlope: {x: 0, y: 0, z: 0}
        tangentMode: 1243475969
      m_PreInfinity: 2
      m_PostInfinity: 2
      m_RotationOrder: 4
    path: bannerHolder
  m_ScaleCurves: []
  m_FloatCurves: []
  m_PPtrCurves: []
  m_SampleRate: 60
  m_WrapMode: 0
  m_Bounds:
    m_Center: {x: 0, y: 0, z: 0}
    m_Extent: {x: 0, y: 0, z: 0}
  m_ClipBindingConstant:
    genericBindings: []
    pptrCurveMapping: []
  m_AnimationClipSettings:
    serializedVersion: 2
    m_AdditiveReferencePoseClip: {fileID: 0}
    m_AdditiveReferencePoseTime: 0
    m_StartTime: 0
    m_StopTime: 15.05
    m_OrientationOffsetY: 0
    m_Level: 0
    m_CycleOffset: 0
    m_HasAdditiveReferencePose: 0
    m_LoopTime: 0
    m_LoopBlend: 0
    m_LoopBlendOrientation: 0
    m_LoopBlendPositionY: 0
    m_LoopBlendPositionXZ: 0
    m_KeepOriginalOrientation: 0
    m_KeepOriginalPositionY: 1
    m_KeepOriginalPositionXZ: 0
    m_HeightFromFeet: 0
    m_Mirror: 0
  m_EditorCurves:
  - curve:
      serializedVersion: 2
      m_Curve:
      - time: 0
        value: 0
        inSlope: 0
        outSlope: 0
        tangentMode: 0
      - time: 0.33333334
        value: 0
        inSlope: 0
        outSlope: 0
        tangentMode: 0
      - time: 0.45
        value: 0
        inSlope: 0
        outSlope: 0
        tangentMode: 0
      - time: 8.333333
        value: 0
        inSlope: 0
        outSlope: 0
        tangentMode: 0
      - time: 8.666667
        value: 0
        inSlope: 0
        outSlope: 0
        tangentMode: 0
      - time: 8.983334
        value: 0
        inSlope: 0
        outSlope: 0
        tangentMode: 0
      - time: 15.05
        value: 0
        inSlope: 0
        outSlope: 0
        tangentMode: 0
      m_PreInfinity: 2
      m_PostInfinity: 2
      m_RotationOrder: 4
    attribute: m_LocalPosition.x
    path: Score
    classID: 4
    script: {fileID: 0}
  - curve:
      serializedVersion: 2
      m_Curve:
      - time: 0
        value: 8
        inSlope: 0
        outSlope: 0
        tangentMode: 0
      - time: 0.33333334
        value: -69
        inSlope: 0
        outSlope: 0
        tangentMode: 0
      - time: 0.45
        value: -84
        inSlope: 0
        outSlope: 0
        tangentMode: 0
      - time: 8.333333
        value: -84
        inSlope: 0
        outSlope: 0
        tangentMode: 0
      - time: 8.666667
        value: 8
        inSlope: 0
        outSlope: 0
        tangentMode: 0
      - time: 8.983334
        value: 8
        inSlope: 0
        outSlope: 0
        tangentMode: 0
      - time: 15.05
        value: 8
        inSlope: 0
        outSlope: 0
        tangentMode: 0
      m_PreInfinity: 2
      m_PostInfinity: 2
      m_RotationOrder: 4
    attribute: m_LocalPosition.y
    path: Score
    classID: 4
    script: {fileID: 0}
  - curve:
      serializedVersion: 2
      m_Curve:
      - time: 0
        value: 0
        inSlope: 0
        outSlope: 0
        tangentMode: 0
      - time: 0.33333334
        value: 0
        inSlope: 0
        outSlope: 0
        tangentMode: 0
      - time: 0.45
        value: 0
        inSlope: 0
        outSlope: 0
        tangentMode: 0
      - time: 8.333333
        value: 0
        inSlope: 0
        outSlope: 0
        tangentMode: 0
      - time: 8.666667
        value: 0
        inSlope: 0
        outSlope: 0
        tangentMode: 0
      - time: 8.983334
        value: 0
        inSlope: 0
        outSlope: 0
        tangentMode: 0
      - time: 15.05
        value: 0
        inSlope: 0
        outSlope: 0
        tangentMode: 0
      m_PreInfinity: 2
      m_PostInfinity: 2
      m_RotationOrder: 4
    attribute: m_LocalPosition.z
    path: Score
    classID: 4
    script: {fileID: 0}
  - curve:
      serializedVersion: 2
      m_Curve:
      - time: 0
        value: 530
        inSlope: 0
        outSlope: 0
        tangentMode: 0
      - time: 0.45
        value: 533
        inSlope: 0
        outSlope: 0
        tangentMode: 0
      - time: 0.78333336
        value: 0
        inSlope: 0
        outSlope: 0
        tangentMode: 0
      - time: 8
        value: 0
        inSlope: 0
        outSlope: 0
        tangentMode: 0
      - time: 8.333333
        value: 500
        inSlope: 0
        outSlope: 0
        tangentMode: 0
      m_PreInfinity: 2
      m_PostInfinity: 2
      m_RotationOrder: 4
    attribute: m_LocalPosition.x
    path: bannerHolder
    classID: 4
    script: {fileID: 0}
  - curve:
      serializedVersion: 2
      m_Curve:
      - time: 0
        value: 0
        inSlope: 0
        outSlope: 0
        tangentMode: 0
      - time: 0.45
        value: 0
        inSlope: 0
        outSlope: 0
        tangentMode: 0
      - time: 0.78333336
        value: 0
        inSlope: 0
        outSlope: 0
        tangentMode: 0
      - time: 8
        value: 0
        inSlope: 0
        outSlope: 0
        tangentMode: 0
      - time: 8.333333
        value: 0
        inSlope: 0
        outSlope: 0
        tangentMode: 0
      m_PreInfinity: 2
      m_PostInfinity: 2
      m_RotationOrder: 4
    attribute: m_LocalPosition.y
    path: bannerHolder
    classID: 4
    script: {fileID: 0}
  - curve:
      serializedVersion: 2
      m_Curve:
      - time: 0
        value: 0
        inSlope: 0
        outSlope: 0
        tangentMode: 0
      - time: 0.45
        value: 0
        inSlope: 0
        outSlope: 0
        tangentMode: 0
      - time: 0.78333336
        value: 0
        inSlope: 0
        outSlope: 0
        tangentMode: 0
      - time: 8
        value: 0
        inSlope: 0
        outSlope: 0
        tangentMode: 0
      - time: 8.333333
        value: 0
        inSlope: 0
        outSlope: 0
        tangentMode: 0
      m_PreInfinity: 2
      m_PostInfinity: 2
      m_RotationOrder: 4
    attribute: m_LocalPosition.z
    path: bannerHolder
    classID: 4
    script: {fileID: 0}
  m_EulerEditorCurves: []
  m_HasGenericRootTransform: 0
  m_HasMotionFloatCurves: 0
  m_GenerateMotionCurves: 0
  m_Events: []
