%YAML 1.1
%TAG !u! tag:unity3d.com,2011:
--- !u!74 &7400000
AnimationClip:
  m_ObjectHideFlags: 0
  m_PrefabParentObject: {fileID: 0}
  m_PrefabInternal: {fileID: 0}
  m_Name: CenterCardDown
  serializedVersion: 6
  m_Legacy: 0
  m_Compressed: 0
  m_UseHighQualityCurve: 1
  m_RotationCurves: []
  m_CompressedRotationCurves: []
  m_EulerCurves: []
  m_PositionCurves:
  - curve:
      serializedVersion: 2
      m_Curve:
      - time: 0
        value: {x: 0, y: -13, z: 0}
        inSlope: {x: 0, y: 2160, z: 0}
        outSlope: {x: 0, y: -108, z: 0}
        tangentMode: 0
      - time: 0.25
        value: {x: 0, y: -40, z: 0}
        inSlope: {x: 0, y: -108, z: 0}
        outSlope: {x: 0, y: -63.473686, z: 0}
        tangentMode: 0
      m_PreInfinity: 2
      m_PostInfinity: 2
      m_RotationOrder: 4
    path: AnimPlayCard
  - curve:
      serializedVersion: 2
      m_Curve:
      - time: 0
        value: {x: 0, y: 130, z: 0}
        inSlope: {x: 0, y: -32, z: 0}
        outSlope: {x: 0, y: -32, z: 0}
        tangentMode: 0
      - time: 0.125
        value: {x: 0, y: 126, z: 0}
        inSlope: {x: 0, y: -41.600006, z: 0}
        outSlope: {x: 0, y: -41.600006, z: 0}
        tangentMode: 0
      - time: 0.25
        value: {x: 0, y: 119.6, z: 0}
        inSlope: {x: 0, y: 0, z: 0}
        outSlope: {x: 0, y: 0, z: 0}
        tangentMode: 0
      - time: 0.2625
        value: {x: 0, y: 144.4, z: 0}
        inSlope: {x: 0, y: 0, z: 0}
        outSlope: {x: 0, y: 0, z: 0}
        tangentMode: 0
      - time: 0.3875
        value: {x: 0, y: 149.7, z: 0}
        inSlope: {x: 0, y: 0, z: 0}
        outSlope: {x: 0, y: 0, z: 0}
        tangentMode: 0
      m_PreInfinity: 2
      m_PostInfinity: 2
      m_RotationOrder: 4
    path: Backcard1
  - curve:
      serializedVersion: 2
      m_Curve:
      - time: 0.0625
        value: {x: 0, y: 140, z: 0}
        inSlope: {x: 0, y: -40, z: 0}
        outSlope: {x: 0, y: -40, z: 0}
        tangentMode: 0
      - time: 0.3125
        value: {x: 0, y: 130, z: 0}
        inSlope: {x: 0, y: -40, z: 0}
        outSlope: {x: 0, y: -40, z: 0}
        tangentMode: 0
      m_PreInfinity: 2
      m_PostInfinity: 2
      m_RotationOrder: 4
    path: Backcard2
  - curve:
      serializedVersion: 2
      m_Curve:
      - time: 0.125
        value: {x: 0, y: 150, z: 0}
        inSlope: {x: 0, y: -40, z: 0}
        outSlope: {x: 0, y: -40, z: 0}
        tangentMode: 0
      - time: 0.375
        value: {x: 0, y: 140, z: 0}
        inSlope: {x: 0, y: -40, z: 0}
        outSlope: {x: 0, y: -40, z: 0}
        tangentMode: 0
      m_PreInfinity: 2
      m_PostInfinity: 2
      m_RotationOrder: 4
    path: Backcard3
  - curve:
      serializedVersion: 2
      m_Curve:
      - time: 0
        value: {x: 0, y: -40, z: 0}
        inSlope: {x: 0, y: 0, z: 0}
        outSlope: {x: 0, y: 0, z: 0}
        tangentMode: 0
      - time: 0.0125
        value: {x: 0, y: -40, z: 0}
        inSlope: {x: 0, y: 0, z: 0}
        outSlope: {x: 0, y: 0, z: 0}
        tangentMode: 0
      - time: 0.1875
        value: {x: 0, y: -458, z: 0}
        inSlope: {x: 0, y: -2388.5715, z: 0}
        outSlope: {x: 0, y: -2388.5715, z: 0}
        tangentMode: 0
      m_PreInfinity: 2
      m_PostInfinity: 2
      m_RotationOrder: 4
    path: CenterAnimHolder/CenterPlayCard
  - curve:
      serializedVersion: 2
      m_Curve:
      - time: 0
        value: {x: 0.6, y: -36.100025, z: 0}
        inSlope: {x: 0, y: 0, z: 0}
        outSlope: {x: 0, y: 0, z: 0}
        tangentMode: 0
      m_PreInfinity: 2
      m_PostInfinity: 2
      m_RotationOrder: 4
    path: 
  m_ScaleCurves:
  - curve:
      serializedVersion: 2
      m_Curve:
      - time: 0
        value: {x: 0.9, y: 0.9, z: 1}
        inSlope: {x: -8.000002, y: -8.000002, z: 0}
        outSlope: {x: 0.4000001, y: 0.4000001, z: 0}
        tangentMode: 0
      - time: 0.25
        value: {x: 1, y: 1, z: 1}
        inSlope: {x: 0.4000001, y: 0.4000001, z: 0}
        outSlope: {x: 0.4000001, y: 0.4000001, z: 0}
        tangentMode: 0
      m_PreInfinity: 2
      m_PostInfinity: 2
      m_RotationOrder: 4
    path: AnimPlayCard
  - curve:
      serializedVersion: 2
      m_Curve:
      - time: 0.0625
        value: {x: 1, y: 1, z: 1}
        inSlope: {x: 0, y: 0, z: 0}
        outSlope: {x: 0, y: 0, z: 0}
        tangentMode: 0
      - time: 0.3125
        value: {x: 1.1, y: 1, z: 1}
        inSlope: {x: 0, y: 0, z: 0}
        outSlope: {x: 0, y: 0, z: 0}
        tangentMode: 0
      m_PreInfinity: 2
      m_PostInfinity: 2
      m_RotationOrder: 4
    path: Backcard2
  - curve:
      serializedVersion: 2
      m_Curve:
      - time: 0.125
        value: {x: 1, y: 1, z: 1}
        inSlope: {x: 0.48000002, y: 0, z: 0}
        outSlope: {x: 0.48000002, y: 0, z: 0}
        tangentMode: 0
      - time: 0.375
        value: {x: 1.12, y: 1, z: 1}
        inSlope: {x: 0.48000002, y: 0, z: 0}
        outSlope: {x: 0.48000002, y: 0, z: 0}
        tangentMode: 0
      m_PreInfinity: 2
      m_PostInfinity: 2
      m_RotationOrder: 4
    path: Backcard3
  - curve:
      serializedVersion: 2
      m_Curve:
      - time: 0
        value: {x: 1, y: 1, z: 1}
        inSlope: {x: 0, y: 0, z: 0}
        outSlope: {x: 0, y: 0, z: 0}
        tangentMode: 0
      - time: 0.075
        value: {x: 1, y: 1, z: 1}
        inSlope: {x: 0, y: 0, z: 0}
        outSlope: {x: 0.5714287, y: 0, z: 0}
        tangentMode: 0
      - time: 0.125
        value: {x: 1.0285715, y: 1, z: 1}
        inSlope: {x: 0.5714287, y: 0, z: 0}
        outSlope: {x: 0.5714287, y: 0, z: 0}
        tangentMode: 0
      - time: 0.25
        value: {x: 1.1, y: 1, z: 1}
        inSlope: {x: 0.5714287, y: 0, z: 0}
        outSlope: {x: -0.38571435, y: 0, z: 0}
        tangentMode: 0
      - time: 0.2625
        value: {x: 0.7, y: 1, z: 1}
        inSlope: {x: -32.000034, y: 0, z: 0}
        outSlope: {x: 0.8800001, y: 0, z: 0}
        tangentMode: 0
      - time: 0.3875
        value: {x: 0.81, y: 1, z: 1}
        inSlope: {x: 0.8800001, y: 0, z: 0}
        outSlope: {x: 0.8800001, y: 0, z: 0}
        tangentMode: 0
      m_PreInfinity: 2
      m_PostInfinity: 2
      m_RotationOrder: 4
    path: Backcard1
  m_FloatCurves:
  - curve:
      serializedVersion: 2
      m_Curve:
      - time: 0
        value: 0.4
        inSlope: 2.4
        outSlope: 2.4
        tangentMode: 10
      - time: 0.25
        value: 1
        inSlope: 1.2
        outSlope: 1.2
        tangentMode: 10
      - time: 0.3875
        value: 1
        inSlope: 0
        outSlope: 0
        tangentMode: 10
      m_PreInfinity: 2
      m_PostInfinity: 2
      m_RotationOrder: 4
    attribute: alpha
    path: AnimPlayCard
    classID: 114
    script: {fileID: 11500000, guid: 6f9aef6d5962d8849aa830ef46c7c993, type: 3}
  m_PPtrCurves: []
  m_SampleRate: 80
  m_WrapMode: 0
  m_Bounds:
    m_Center: {x: 0, y: 0, z: 0}
    m_Extent: {x: 0, y: 0, z: 0}
  m_ClipBindingConstant:
    genericBindings:
    - path: 3948391008
      attribute: 1
      script: {fileID: 0}
      classID: 4
      customType: 0
      isPPtrCurve: 0
    - path: 2289285559
      attribute: 1
      script: {fileID: 0}
      classID: 4
      customType: 0
      isPPtrCurve: 0
    - path: 293267469
      attribute: 1
      script: {fileID: 0}
      classID: 4
      customType: 0
      isPPtrCurve: 0
    - path: 1719523483
      attribute: 1
      script: {fileID: 0}
      classID: 4
      customType: 0
      isPPtrCurve: 0
    - path: 3804540476
      attribute: 1
      script: {fileID: 0}
      classID: 4
      customType: 0
      isPPtrCurve: 0
    - path: 3948391008
      attribute: 3
      script: {fileID: 0}
      classID: 4
      customType: 0
      isPPtrCurve: 0
    - path: 293267469
      attribute: 3
      script: {fileID: 0}
      classID: 4
      customType: 0
      isPPtrCurve: 0
    - path: 1719523483
      attribute: 3
      script: {fileID: 0}
      classID: 4
      customType: 0
      isPPtrCurve: 0
    - path: 2289285559
      attribute: 3
      script: {fileID: 0}
      classID: 4
      customType: 0
      isPPtrCurve: 0
    - path: 3948391008
      attribute: 3504355690
      script: {fileID: 11500000, guid: 6f9aef6d5962d8849aa830ef46c7c993, type: 3}
      classID: 114
      customType: 0
      isPPtrCurve: 0
    - path: 0
      attribute: 1
      script: {fileID: 0}
      classID: 4
      customType: 0
      isPPtrCurve: 0
    pptrCurveMapping: []
  m_AnimationClipSettings:
    serializedVersion: 2
    m_AdditiveReferencePoseClip: {fileID: 0}
    m_AdditiveReferencePoseTime: 0
    m_StartTime: 0
    m_StopTime: 0.3875
    m_OrientationOffsetY: 0
    m_Level: 0
    m_CycleOffset: 0
    m_HasAdditiveReferencePose: 0
    m_LoopTime: 0
    m_LoopBlend: 0
    m_LoopBlendOrientation: 0
    m_LoopBlendPositionY: 0
    m_LoopBlendPositionXZ: 0
    m_KeepOriginalOrientation: 1
    m_KeepOriginalPositionY: 1
    m_KeepOriginalPositionXZ: 1
    m_HeightFromFeet: 0
    m_Mirror: 0
  m_EditorCurves:
  - curve:
      serializedVersion: 2
      m_Curve:
      - time: 0
        value: -13
        inSlope: 2160
        outSlope: -108
        tangentMode: 21
      - time: 0.25
        value: -40
        inSlope: -108
        outSlope: -63.473686
        tangentMode: 5
      m_PreInfinity: 2
      m_PostInfinity: 2
      m_RotationOrder: 4
    attribute: m_LocalPosition.y
    path: AnimPlayCard
    classID: 4
    script: {fileID: 0}
  - curve:
      serializedVersion: 2
      m_Curve:
      - time: 0
        value: 0.9
        inSlope: -8.000002
        outSlope: 0.4000001
        tangentMode: 21
      - time: 0.25
        value: 1
        inSlope: 0.4000001
        outSlope: 0.4000001
        tangentMode: 10
      m_PreInfinity: 2
      m_PostInfinity: 2
      m_RotationOrder: 4
    attribute: m_LocalScale.x
    path: AnimPlayCard
    classID: 4
    script: {fileID: 0}
  - curve:
      serializedVersion: 2
      m_Curve:
      - time: 0
        value: 0.9
        inSlope: -8.000002
        outSlope: 0.4000001
        tangentMode: 21
      - time: 0.25
        value: 1
        inSlope: 0.4000001
        outSlope: 0.4000001
        tangentMode: 10
      m_PreInfinity: 2
      m_PostInfinity: 2
      m_RotationOrder: 4
    attribute: m_LocalScale.y
    path: AnimPlayCard
    classID: 4
    script: {fileID: 0}
  - curve:
      serializedVersion: 2
      m_Curve:
      - time: 0
        value: 1
        inSlope: 0
        outSlope: 0
        tangentMode: 10
      - time: 0.25
        value: 1
        inSlope: 0
        outSlope: 0
        tangentMode: 10
      m_PreInfinity: 2
      m_PostInfinity: 2
      m_RotationOrder: 4
    attribute: m_LocalScale.z
    path: AnimPlayCard
    classID: 4
    script: {fileID: 0}
  - curve:
      serializedVersion: 2
      m_Curve:
      - time: 0
        value: 0
        inSlope: 0
        outSlope: 0
        tangentMode: 10
      - time: 0.125
        value: 0
        inSlope: 0
        outSlope: 0
        tangentMode: 10
      - time: 0.25
        value: 0
        inSlope: 0
        outSlope: 0
        tangentMode: 10
      - time: 0.2625
        value: 0
        inSlope: 0
        outSlope: 0
        tangentMode: 10
      - time: 0.3875
        value: 0
        inSlope: 0
        outSlope: 0
        tangentMode: 10
      m_PreInfinity: 2
      m_PostInfinity: 2
      m_RotationOrder: 4
    attribute: m_LocalPosition.x
    path: Backcard1
    classID: 4
    script: {fileID: 0}
  - curve:
      serializedVersion: 2
      m_Curve:
      - time: 0
        value: 130
        inSlope: -32
        outSlope: -32
        tangentMode: 10
      - time: 0.125
        value: 126
        inSlope: -41.600006
        outSlope: -41.600006
        tangentMode: 10
      - time: 0.25
        value: 119.6
        inSlope: 0
        outSlope: 0
        tangentMode: 0
      - time: 0.2625
        value: 144.4
        inSlope: 0
        outSlope: 0
        tangentMode: 0
      - time: 0.3875
        value: 149.7
        inSlope: 0
        outSlope: 0
        tangentMode: 0
      m_PreInfinity: 2
      m_PostInfinity: 2
      m_RotationOrder: 4
    attribute: m_LocalPosition.y
    path: Backcard1
    classID: 4
    script: {fileID: 0}
  - curve:
      serializedVersion: 2
      m_Curve:
      - time: 0
        value: 0
        inSlope: 0
        outSlope: 0
        tangentMode: 10
      - time: 0.125
        value: 0
        inSlope: 0
        outSlope: 0
        tangentMode: 10
      - time: 0.25
        value: 0
        inSlope: 0
        outSlope: 0
        tangentMode: 10
      - time: 0.2625
        value: 0
        inSlope: 0
        outSlope: 0
        tangentMode: 10
      - time: 0.3875
        value: 0
        inSlope: 0
        outSlope: 0
        tangentMode: 10
      m_PreInfinity: 2
      m_PostInfinity: 2
      m_RotationOrder: 4
    attribute: m_LocalPosition.z
    path: Backcard1
    classID: 4
    script: {fileID: 0}
  - curve:
      serializedVersion: 2
      m_Curve:
      - time: 0.0625
        value: 0
        inSlope: 0
        outSlope: 0
        tangentMode: 0
      - time: 0.3125
        value: 0
        inSlope: 0
        outSlope: 0
        tangentMode: 0
      m_PreInfinity: 2
      m_PostInfinity: 2
      m_RotationOrder: 4
    attribute: m_LocalPosition.x
    path: Backcard2
    classID: 4
    script: {fileID: 0}
  - curve:
      serializedVersion: 2
      m_Curve:
      - time: 0.0625
        value: 140
        inSlope: -40
        outSlope: -40
        tangentMode: 10
      - time: 0.3125
        value: 130
        inSlope: -40
        outSlope: -40
        tangentMode: 10
      m_PreInfinity: 2
      m_PostInfinity: 2
      m_RotationOrder: 4
    attribute: m_LocalPosition.y
    path: Backcard2
    classID: 4
    script: {fileID: 0}
  - curve:
      serializedVersion: 2
      m_Curve:
      - time: 0.0625
        value: 0
        inSlope: 0
        outSlope: 0
        tangentMode: 0
      - time: 0.3125
        value: 0
        inSlope: 0
        outSlope: 0
        tangentMode: 0
      m_PreInfinity: 2
      m_PostInfinity: 2
      m_RotationOrder: 4
    attribute: m_LocalPosition.z
    path: Backcard2
    classID: 4
    script: {fileID: 0}
  - curve:
      serializedVersion: 2
      m_Curve:
      - time: 0.0625
        value: 1
        inSlope: 0
        outSlope: 0
        tangentMode: 0
      - time: 0.3125
        value: 1.1
        inSlope: 0
        outSlope: 0
        tangentMode: 0
      m_PreInfinity: 2
      m_PostInfinity: 2
      m_RotationOrder: 4
    attribute: m_LocalScale.x
    path: Backcard2
    classID: 4
    script: {fileID: 0}
  - curve:
      serializedVersion: 2
      m_Curve:
      - time: 0.0625
        value: 1
        inSlope: 0
        outSlope: 0
        tangentMode: 0
      - time: 0.3125
        value: 1
        inSlope: 0
        outSlope: 0
        tangentMode: 0
      m_PreInfinity: 2
      m_PostInfinity: 2
      m_RotationOrder: 4
    attribute: m_LocalScale.y
    path: Backcard2
    classID: 4
    script: {fileID: 0}
  - curve:
      serializedVersion: 2
      m_Curve:
      - time: 0.0625
        value: 1
        inSlope: 0
        outSlope: 0
        tangentMode: 0
      - time: 0.3125
        value: 1
        inSlope: 0
        outSlope: 0
        tangentMode: 0
      m_PreInfinity: 2
      m_PostInfinity: 2
      m_RotationOrder: 4
    attribute: m_LocalScale.z
    path: Backcard2
    classID: 4
    script: {fileID: 0}
  - curve:
      serializedVersion: 2
      m_Curve:
      - time: 0.125
        value: 0
        inSlope: 0
        outSlope: 0
        tangentMode: 10
      - time: 0.375
        value: 0
        inSlope: 0
        outSlope: 0
        tangentMode: 10
      m_PreInfinity: 2
      m_PostInfinity: 2
      m_RotationOrder: 4
    attribute: m_LocalPosition.x
    path: Backcard3
    classID: 4
    script: {fileID: 0}
  - curve:
      serializedVersion: 2
      m_Curve:
      - time: 0.125
        value: 150
        inSlope: -40
        outSlope: -40
        tangentMode: 10
      - time: 0.375
        value: 140
        inSlope: -40
        outSlope: -40
        tangentMode: 10
      m_PreInfinity: 2
      m_PostInfinity: 2
      m_RotationOrder: 4
    attribute: m_LocalPosition.y
    path: Backcard3
    classID: 4
    script: {fileID: 0}
  - curve:
      serializedVersion: 2
      m_Curve:
      - time: 0.125
        value: 0
        inSlope: 0
        outSlope: 0
        tangentMode: 10
      - time: 0.375
        value: 0
        inSlope: 0
        outSlope: 0
        tangentMode: 10
      m_PreInfinity: 2
      m_PostInfinity: 2
      m_RotationOrder: 4
    attribute: m_LocalPosition.z
    path: Backcard3
    classID: 4
    script: {fileID: 0}
  - curve:
      serializedVersion: 2
      m_Curve:
      - time: 0.125
        value: 1
        inSlope: 0.48000002
        outSlope: 0.48000002
        tangentMode: 10
      - time: 0.375
        value: 1.12
        inSlope: 0.48000002
        outSlope: 0.48000002
        tangentMode: 10
      m_PreInfinity: 2
      m_PostInfinity: 2
      m_RotationOrder: 4
    attribute: m_LocalScale.x
    path: Backcard3
    classID: 4
    script: {fileID: 0}
  - curve:
      serializedVersion: 2
      m_Curve:
      - time: 0.125
        value: 1
        inSlope: 0
        outSlope: 0
        tangentMode: 10
      - time: 0.375
        value: 1
        inSlope: 0
        outSlope: 0
        tangentMode: 10
      m_PreInfinity: 2
      m_PostInfinity: 2
      m_RotationOrder: 4
    attribute: m_LocalScale.y
    path: Backcard3
    classID: 4
    script: {fileID: 0}
  - curve:
      serializedVersion: 2
      m_Curve:
      - time: 0.125
        value: 1
        inSlope: 0
        outSlope: 0
        tangentMode: 10
      - time: 0.375
        value: 1
        inSlope: 0
        outSlope: 0
        tangentMode: 10
      m_PreInfinity: 2
      m_PostInfinity: 2
      m_RotationOrder: 4
    attribute: m_LocalScale.z
    path: Backcard3
    classID: 4
    script: {fileID: 0}
  - curve:
      serializedVersion: 2
      m_Curve:
      - time: 0
        value: 1
        inSlope: 0
        outSlope: 0
        tangentMode: 10
      - time: 0.075
        value: 1
        inSlope: 0
        outSlope: 0.5714287
        tangentMode: 21
      - time: 0.25
        value: 1.1
        inSlope: 0.5714287
        outSlope: -0.38571435
        tangentMode: 5
      - time: 0.2625
        value: 0.7
        inSlope: -32.000034
        outSlope: 0.8800001
        tangentMode: 21
      - time: 0.3875
        value: 0.81
        inSlope: 0.8800001
        outSlope: 0.8800001
        tangentMode: 10
      m_PreInfinity: 2
      m_PostInfinity: 2
      m_RotationOrder: 4
    attribute: m_LocalScale.x
    path: Backcard1
    classID: 4
    script: {fileID: 0}
  - curve:
      serializedVersion: 2
      m_Curve:
      - time: 0
        value: 1
        inSlope: 0
        outSlope: 0
        tangentMode: 10
      - time: 0.075
        value: 1
        inSlope: 0
        outSlope: 0
        tangentMode: 5
      - time: 0.125
        value: 1
        inSlope: 0
        outSlope: 0
        tangentMode: 10
      - time: 0.25
        value: 1
        inSlope: 0
        outSlope: 0
        tangentMode: 10
      - time: 0.2625
        value: 1
        inSlope: 0
        outSlope: 0
        tangentMode: 10
      - time: 0.3875
        value: 1
        inSlope: 0
        outSlope: 0
        tangentMode: 10
      m_PreInfinity: 2
      m_PostInfinity: 2
      m_RotationOrder: 4
    attribute: m_LocalScale.y
    path: Backcard1
    classID: 4
    script: {fileID: 0}
  - curve:
      serializedVersion: 2
      m_Curve:
      - time: 0
        value: 1
        inSlope: 0
        outSlope: 0
        tangentMode: 10
      - time: 0.075
        value: 1
        inSlope: 0
        outSlope: 0
        tangentMode: 5
      - time: 0.125
        value: 1
        inSlope: 0
        outSlope: 0
        tangentMode: 10
      - time: 0.25
        value: 1
        inSlope: 0
        outSlope: 0
        tangentMode: 9
      - time: 0.2625
        value: 1
        inSlope: 0
        outSlope: 0
        tangentMode: 11
      - time: 0.3875
        value: 1
        inSlope: 0
        outSlope: 0
        tangentMode: 10
      m_PreInfinity: 2
      m_PostInfinity: 2
      m_RotationOrder: 4
    attribute: m_LocalScale.z
    path: Backcard1
    classID: 4
    script: {fileID: 0}
  - curve:
      serializedVersion: 2
      m_Curve:
      - time: 0
        value: 0.4
        inSlope: 2.4
        outSlope: 2.4
        tangentMode: 10
      - time: 0.25
        value: 1
        inSlope: 1.2
        outSlope: 1.2
        tangentMode: 10
      - time: 0.3875
        value: 1
        inSlope: 0
        outSlope: 0
        tangentMode: 10
      m_PreInfinity: 2
      m_PostInfinity: 2
      m_RotationOrder: 4
    attribute: alpha
    path: AnimPlayCard
    classID: 114
    script: {fileID: 11500000, guid: 6f9aef6d5962d8849aa830ef46c7c993, type: 3}
  - curve:
      serializedVersion: 2
      m_Curve:
      - time: 0
        value: 0
        inSlope: 0
        outSlope: 0
        tangentMode: 10
      - time: 0.0125
        value: 0
        inSlope: 0
        outSlope: 0
        tangentMode: 10
      - time: 0.1875
        value: 0
        inSlope: 0
        outSlope: 0
        tangentMode: 10
      m_PreInfinity: 2
      m_PostInfinity: 2
      m_RotationOrder: 4
    attribute: m_LocalPosition.x
    path: CenterAnimHolder/CenterPlayCard
    classID: 4
    script: {fileID: 0}
  - curve:
      serializedVersion: 2
      m_Curve:
      - time: 0
        value: -40
        inSlope: 0
        outSlope: 0
        tangentMode: 0
      - time: 0.0125
        value: -40
        inSlope: 0
        outSlope: 0
        tangentMode: 0
      - time: 0.1875
        value: -458
        inSlope: -2388.5715
        outSlope: -2388.5715
        tangentMode: 10
      m_PreInfinity: 2
      m_PostInfinity: 2
      m_RotationOrder: 4
    attribute: m_LocalPosition.y
    path: CenterAnimHolder/CenterPlayCard
    classID: 4
    script: {fileID: 0}
  - curve:
      serializedVersion: 2
      m_Curve:
      - time: 0
        value: 0
        inSlope: 0
        outSlope: 0
        tangentMode: 10
      - time: 0.0125
        value: 0
        inSlope: 0
        outSlope: 0
        tangentMode: 10
      - time: 0.1875
        value: 0
        inSlope: 0
        outSlope: 0
        tangentMode: 10
      m_PreInfinity: 2
      m_PostInfinity: 2
      m_RotationOrder: 4
    attribute: m_LocalPosition.z
    path: CenterAnimHolder/CenterPlayCard
    classID: 4
    script: {fileID: 0}
  - curve:
      serializedVersion: 2
      m_Curve:
      - time: 0
        value: 0
        inSlope: 0
        outSlope: 0
        tangentMode: 10
      m_PreInfinity: 2
      m_PostInfinity: 2
      m_RotationOrder: 4
    attribute: m_LocalPosition.x
    path: AnimPlayCard
    classID: 4
    script: {fileID: 0}
  - curve:
      serializedVersion: 2
      m_Curve:
      - time: 0
        value: 0
        inSlope: 0
        outSlope: 0
        tangentMode: 10
      m_PreInfinity: 2
      m_PostInfinity: 2
      m_RotationOrder: 4
    attribute: m_LocalPosition.z
    path: AnimPlayCard
    classID: 4
    script: {fileID: 0}
  - curve:
      serializedVersion: 2
      m_Curve:
      - time: 0
        value: 0.6
        inSlope: 0
        outSlope: 0
        tangentMode: 10
      m_PreInfinity: 2
      m_PostInfinity: 2
      m_RotationOrder: 4
    attribute: m_LocalPosition.x
    path: 
    classID: 4
    script: {fileID: 0}
  - curve:
      serializedVersion: 2
      m_Curve:
      - time: 0
        value: -36.100025
        inSlope: 0
        outSlope: 0
        tangentMode: 10
      m_PreInfinity: 2
      m_PostInfinity: 2
      m_RotationOrder: 4
    attribute: m_LocalPosition.y
    path: 
    classID: 4
    script: {fileID: 0}
  - curve:
      serializedVersion: 2
      m_Curve:
      - time: 0
        value: 0
        inSlope: 0
        outSlope: 0
        tangentMode: 10
      m_PreInfinity: 2
      m_PostInfinity: 2
      m_RotationOrder: 4
    attribute: m_LocalPosition.z
    path: 
    classID: 4
    script: {fileID: 0}
  m_EulerEditorCurves: []
  m_HasGenericRootTransform: 1
  m_HasMotionFloatCurves: 0
  m_GenerateMotionCurves: 0
  m_Events:
  - time: 0.25
    functionName: resetCards
    data: 
    objectReferenceParameter: {fileID: 0}
    floatParameter: 0
    intParameter: 0
    messageOptions: 0
