%YAML 1.1
%TAG !u! tag:unity3d.com,2011:
--- !u!74 &7400000
AnimationClip:
  m_ObjectHideFlags: 0
  m_PrefabParentObject: {fileID: 0}
  m_PrefabInternal: {fileID: 0}
  m_Name: clockPulse
  serializedVersion: 6
  m_Legacy: 1
  m_Compressed: 0
  m_UseHighQualityCurve: 1
  m_RotationCurves: []
  m_CompressedRotationCurves: []
  m_EulerCurves: []
  m_PositionCurves:
  - curve:
      serializedVersion: 2
      m_Curve:
      - time: 0
        value: {x: 0, y: 0.000045776367, z: 0}
        inSlope: {x: -0.75, y: 0.37498283, z: 0}
        outSlope: {x: -0.75, y: 0.37498283, z: 0}
        tangentMode: 0
      - time: 2.6666667
        value: {x: -2, y: 1, z: 0}
        inSlope: {x: -0.75, y: 0.37498283, z: 0}
        outSlope: {x: -0.75, y: 0.37498283, z: 0}
        tangentMode: 0
      m_PreInfinity: 2
      m_PostInfinity: 2
      m_RotationOrder: 4
    path: circle2
  - curve:
      serializedVersion: 2
      m_Curve:
      - time: 0
        value: {x: -2, y: 1, z: 0}
        inSlope: {x: 0, y: 0, z: 0}
        outSlope: {x: 0, y: 0, z: 0}
        tangentMode: 0
      - time: 1.6
        value: {x: -2, y: 1, z: 0}
        inSlope: {x: 0, y: 0, z: 0}
        outSlope: {x: 0, y: 0, z: 0}
        tangentMode: 0
      m_PreInfinity: 2
      m_PostInfinity: 2
      m_RotationOrder: 4
    path: circle1
  m_ScaleCurves:
  - curve:
      serializedVersion: 2
      m_Curve:
      - time: 0
        value: {x: 1, y: 1, z: 1}
        inSlope: {x: -0.093541056, y: -0.093541056, z: -0.093541056}
        outSlope: {x: -0.093541056, y: -0.093541056, z: -0.093541056}
        tangentMode: 0
      - time: 0.6666667
        value: {x: 0.9376393, y: 0.9376393, z: 0.9376393}
        inSlope: {x: 0, y: 0, z: 0}
        outSlope: {x: 0, y: 0, z: 0}
        tangentMode: 0
      - time: 1.3333334
        value: {x: 1, y: 1, z: 1}
        inSlope: {x: -0.022499986, y: -0.022499986, z: -0.022499986}
        outSlope: {x: -0.022499986, y: -0.022499986, z: -0.022499986}
        tangentMode: 0
      - time: 2
        value: {x: 0.9076393, y: 0.9076393, z: 0.9076393}
        inSlope: {x: -0.000000014901161, y: -0.000000014901161, z: -0.000000014901161}
        outSlope: {x: -0.000000014901161, y: -0.000000014901161, z: -0.000000014901161}
        tangentMode: 0
      - time: 2.6666667
        value: {x: 1, y: 1, z: 1}
        inSlope: {x: 0.138541, y: 0.138541, z: 0.138541}
        outSlope: {x: 0.138541, y: 0.138541, z: 0.138541}
        tangentMode: 0
      m_PreInfinity: 2
      m_PostInfinity: 2
      m_RotationOrder: 4
    path: Guru
  m_FloatCurves:
  - curve:
      serializedVersion: 2
      m_Curve:
      - time: 0
        value: 10
        inSlope: 120.8125
        outSlope: 120.8125
        tangentMode: 10
      - time: 1.6
        value: 203.3
        inSlope: -34.421875
        outSlope: -34.421875
        tangentMode: 10
      - time: 2.6666667
        value: 1
        inSlope: -189.65625
        outSlope: -189.65625
        tangentMode: 10
      m_PreInfinity: 2
      m_PostInfinity: 2
      m_RotationOrder: 4
    attribute: width
    path: circle1
    classID: 114
    script: {fileID: 11500000, guid: 27adfee35dd94cb4a8d0cd2ed7d934be, type: 3}
  - curve:
      serializedVersion: 2
      m_Curve:
      - time: 0
        value: 1
        inSlope: -0.625
        outSlope: -0.625
        tangentMode: 10
      - time: 1.6
        value: 0
        inSlope: -0.3125
        outSlope: -0.3125
        tangentMode: 10
      - time: 2.6666667
        value: 0
        inSlope: 0
        outSlope: 0
        tangentMode: 10
      - time: 3.6222222
        value: 0
        inSlope: 0
        outSlope: 0
        tangentMode: 10
      m_PreInfinity: 2
      m_PostInfinity: 2
      m_RotationOrder: 4
    attribute: alpha
    path: circle1
    classID: 114
    script: {fileID: 11500000, guid: 6f9aef6d5962d8849aa830ef46c7c993, type: 3}
  - curve:
      serializedVersion: 2
      m_Curve:
      - time: 0
        value: 1
        inSlope: 75.862495
        outSlope: 75.862495
        tangentMode: 10
      - time: 2.6666667
        value: 203.3
        inSlope: 75.862495
        outSlope: 75.862495
        tangentMode: 10
      m_PreInfinity: 2
      m_PostInfinity: 2
      m_RotationOrder: 4
    attribute: width
    path: circle2
    classID: 114
    script: {fileID: 11500000, guid: 27adfee35dd94cb4a8d0cd2ed7d934be, type: 3}
  - curve:
      serializedVersion: 2
      m_Curve:
      - time: 0
        value: 1
        inSlope: 57.074997
        outSlope: 57.074997
        tangentMode: 10
      - time: 2.6666667
        value: 153.2
        inSlope: 57.074997
        outSlope: 57.074997
        tangentMode: 10
      m_PreInfinity: 2
      m_PostInfinity: 2
      m_RotationOrder: 4
    attribute: height
    path: circle2
    classID: 114
    script: {fileID: 11500000, guid: 27adfee35dd94cb4a8d0cd2ed7d934be, type: 3}
  - curve:
      serializedVersion: 2
      m_Curve:
      - time: 0
        value: 1
        inSlope: 0
        outSlope: 0
        tangentMode: 10
      - time: 0.7777778
        value: 1
        inSlope: 0
        outSlope: 0
        tangentMode: 10
      - time: 1.3333334
        value: 1
        inSlope: -0.375
        outSlope: -0.375
        tangentMode: 10
      - time: 2.6666667
        value: 0
        inSlope: -0.75
        outSlope: -0.75
        tangentMode: 10
      m_PreInfinity: 2
      m_PostInfinity: 2
      m_RotationOrder: 4
    attribute: alpha
    path: circle2
    classID: 114
    script: {fileID: 11500000, guid: 6f9aef6d5962d8849aa830ef46c7c993, type: 3}
  - curve:
      serializedVersion: 2
      m_Curve:
      - time: 0
        value: 8
        inSlope: 90.75
        outSlope: 90.75
        tangentMode: 10
      - time: 1.6
        value: 153.2
        inSlope: -25.968742
        outSlope: -25.968742
        tangentMode: 10
      - time: 2.6666667
        value: 1
        inSlope: -142.68748
        outSlope: -142.68748
        tangentMode: 10
      m_PreInfinity: 2
      m_PostInfinity: 2
      m_RotationOrder: 4
    attribute: height
    path: circle1
    classID: 114
    script: {fileID: 11500000, guid: 27adfee35dd94cb4a8d0cd2ed7d934be, type: 3}
  - curve:
      serializedVersion: 2
      m_Curve:
      - time: 0
        value: 64
        inSlope: 18
        outSlope: 18
        tangentMode: 10
      - time: 0.8888889
        value: 80
        inSlope: -8.999998
        outSlope: -8.999998
        tangentMode: 10
      - time: 1.3333334
        value: 64
        inSlope: -35.999996
        outSlope: -35.999996
        tangentMode: 10
      m_PreInfinity: 2
      m_PostInfinity: 2
      m_RotationOrder: 4
    attribute: width
    path: 
    classID: 114
    script: {fileID: 11500000, guid: 27adfee35dd94cb4a8d0cd2ed7d934be, type: 3}
  - curve:
      serializedVersion: 2
      m_Curve:
      - time: 0
        value: 64
        inSlope: 18
        outSlope: 18
        tangentMode: 10
      - time: 0.8888889
        value: 80
        inSlope: -8.999998
        outSlope: -8.999998
        tangentMode: 10
      - time: 1.3333334
        value: 64
        inSlope: -35.999996
        outSlope: -35.999996
        tangentMode: 10
      m_PreInfinity: 2
      m_PostInfinity: 2
      m_RotationOrder: 4
    attribute: height
    path: 
    classID: 114
    script: {fileID: 11500000, guid: 27adfee35dd94cb4a8d0cd2ed7d934be, type: 3}
  m_PPtrCurves: []
  m_SampleRate: 45
  m_WrapMode: 2
  m_Bounds:
    m_Center: {x: 0, y: 0, z: 0}
    m_Extent: {x: 0, y: 0, z: 0}
  m_ClipBindingConstant:
    genericBindings: []
    pptrCurveMapping: []
  m_AnimationClipSettings:
    serializedVersion: 2
    m_AdditiveReferencePoseClip: {fileID: 0}
    m_AdditiveReferencePoseTime: 0
    m_StartTime: 0
    m_StopTime: 3.6222222
    m_OrientationOffsetY: 0
    m_Level: 0
    m_CycleOffset: 0
    m_HasAdditiveReferencePose: 0
    m_LoopTime: 1
    m_LoopBlend: 0
    m_LoopBlendOrientation: 0
    m_LoopBlendPositionY: 0
    m_LoopBlendPositionXZ: 0
    m_KeepOriginalOrientation: 0
    m_KeepOriginalPositionY: 1
    m_KeepOriginalPositionXZ: 0
    m_HeightFromFeet: 0
    m_Mirror: 0
  m_EditorCurves:
  - curve:
      serializedVersion: 2
      m_Curve:
      - time: 0
        value: 10
        inSlope: 120.8125
        outSlope: 120.8125
        tangentMode: 10
      - time: 1.6
        value: 203.3
        inSlope: -34.421875
        outSlope: -34.421875
        tangentMode: 10
      - time: 2.6666667
        value: 1
        inSlope: -189.65625
        outSlope: -189.65625
        tangentMode: 10
      m_PreInfinity: 2
      m_PostInfinity: 2
      m_RotationOrder: 4
    attribute: width
    path: circle1
    classID: 114
    script: {fileID: 11500000, guid: 27adfee35dd94cb4a8d0cd2ed7d934be, type: 3}
  - curve:
      serializedVersion: 2
      m_Curve:
      - time: 0
        value: 1
        inSlope: -0.625
        outSlope: -0.625
        tangentMode: 10
      - time: 1.6
        value: 0
        inSlope: -0.3125
        outSlope: -0.3125
        tangentMode: 10
      - time: 2.6666667
        value: 0
        inSlope: 0
        outSlope: 0
        tangentMode: 10
      - time: 3.6222222
        value: 0
        inSlope: 0
        outSlope: 0
        tangentMode: 10
      m_PreInfinity: 2
      m_PostInfinity: 2
      m_RotationOrder: 4
    attribute: alpha
    path: circle1
    classID: 114
    script: {fileID: 11500000, guid: 6f9aef6d5962d8849aa830ef46c7c993, type: 3}
  - curve:
      serializedVersion: 2
      m_Curve:
      - time: 0
        value: 0
        inSlope: -0.75
        outSlope: -0.75
        tangentMode: 10
      - time: 2.6666667
        value: -2
        inSlope: -0.75
        outSlope: -0.75
        tangentMode: 10
      m_PreInfinity: 2
      m_PostInfinity: 2
      m_RotationOrder: 4
    attribute: m_LocalPosition.x
    path: circle2
    classID: 4
    script: {fileID: 0}
  - curve:
      serializedVersion: 2
      m_Curve:
      - time: 0
        value: 0.000045776367
        inSlope: 0.37498283
        outSlope: 0.37498283
        tangentMode: 10
      - time: 2.6666667
        value: 1
        inSlope: 0.37498283
        outSlope: 0.37498283
        tangentMode: 10
      m_PreInfinity: 2
      m_PostInfinity: 2
      m_RotationOrder: 4
    attribute: m_LocalPosition.y
    path: circle2
    classID: 4
    script: {fileID: 0}
  - curve:
      serializedVersion: 2
      m_Curve:
      - time: 0
        value: 0
        inSlope: 0
        outSlope: 0
        tangentMode: 10
      - time: 2.6666667
        value: 0
        inSlope: 0
        outSlope: 0
        tangentMode: 10
      m_PreInfinity: 2
      m_PostInfinity: 2
      m_RotationOrder: 4
    attribute: m_LocalPosition.z
    path: circle2
    classID: 4
    script: {fileID: 0}
  - curve:
      serializedVersion: 2
      m_Curve:
      - time: 0
        value: 1
        inSlope: 75.862495
        outSlope: 75.862495
        tangentMode: 10
      - time: 2.6666667
        value: 203.3
        inSlope: 75.862495
        outSlope: 75.862495
        tangentMode: 10
      m_PreInfinity: 2
      m_PostInfinity: 2
      m_RotationOrder: 4
    attribute: width
    path: circle2
    classID: 114
    script: {fileID: 11500000, guid: 27adfee35dd94cb4a8d0cd2ed7d934be, type: 3}
  - curve:
      serializedVersion: 2
      m_Curve:
      - time: 0
        value: 1
        inSlope: 57.074997
        outSlope: 57.074997
        tangentMode: 10
      - time: 2.6666667
        value: 153.2
        inSlope: 57.074997
        outSlope: 57.074997
        tangentMode: 10
      m_PreInfinity: 2
      m_PostInfinity: 2
      m_RotationOrder: 4
    attribute: height
    path: circle2
    classID: 114
    script: {fileID: 11500000, guid: 27adfee35dd94cb4a8d0cd2ed7d934be, type: 3}
  - curve:
      serializedVersion: 2
      m_Curve:
      - time: 0
        value: 1
        inSlope: 0
        outSlope: 0
        tangentMode: 10
      - time: 0.7777778
        value: 1
        inSlope: 0
        outSlope: 0
        tangentMode: 10
      - time: 1.3333334
        value: 1
        inSlope: -0.375
        outSlope: -0.375
        tangentMode: 10
      - time: 2.6666667
        value: 0
        inSlope: -0.75
        outSlope: -0.75
        tangentMode: 10
      m_PreInfinity: 2
      m_PostInfinity: 2
      m_RotationOrder: 4
    attribute: alpha
    path: circle2
    classID: 114
    script: {fileID: 11500000, guid: 6f9aef6d5962d8849aa830ef46c7c993, type: 3}
  - curve:
      serializedVersion: 2
      m_Curve:
      - time: 0
        value: 1
        inSlope: -0.093541056
        outSlope: -0.093541056
        tangentMode: 10
      - time: 0.6666667
        value: 0.9376393
        inSlope: 0
        outSlope: 0
        tangentMode: 10
      - time: 1.3333334
        value: 1
        inSlope: -0.022499986
        outSlope: -0.022499986
        tangentMode: 10
      - time: 2
        value: 0.9076393
        inSlope: -0.000000014901161
        outSlope: -0.000000014901161
        tangentMode: 10
      - time: 2.6666667
        value: 1
        inSlope: 0.138541
        outSlope: 0.138541
        tangentMode: 10
      m_PreInfinity: 2
      m_PostInfinity: 2
      m_RotationOrder: 4
    attribute: m_LocalScale.x
    path: Guru
    classID: 4
    script: {fileID: 0}
  - curve:
      serializedVersion: 2
      m_Curve:
      - time: 0
        value: 1
        inSlope: -0.093541056
        outSlope: -0.093541056
        tangentMode: 10
      - time: 0.6666667
        value: 0.9376393
        inSlope: 0
        outSlope: 0
        tangentMode: 10
      - time: 1.3333334
        value: 1
        inSlope: -0.022499986
        outSlope: -0.022499986
        tangentMode: 10
      - time: 2
        value: 0.9076393
        inSlope: -0.000000014901161
        outSlope: -0.000000014901161
        tangentMode: 10
      - time: 2.6666667
        value: 1
        inSlope: 0.138541
        outSlope: 0.138541
        tangentMode: 10
      m_PreInfinity: 2
      m_PostInfinity: 2
      m_RotationOrder: 4
    attribute: m_LocalScale.y
    path: Guru
    classID: 4
    script: {fileID: 0}
  - curve:
      serializedVersion: 2
      m_Curve:
      - time: 0
        value: 1
        inSlope: -0.093541056
        outSlope: -0.093541056
        tangentMode: 10
      - time: 0.6666667
        value: 0.9376393
        inSlope: 0
        outSlope: 0
        tangentMode: 10
      - time: 1.3333334
        value: 1
        inSlope: -0.022499986
        outSlope: -0.022499986
        tangentMode: 10
      - time: 2
        value: 0.9076393
        inSlope: -0.000000014901161
        outSlope: -0.000000014901161
        tangentMode: 10
      - time: 2.6666667
        value: 1
        inSlope: 0.138541
        outSlope: 0.138541
        tangentMode: 10
      m_PreInfinity: 2
      m_PostInfinity: 2
      m_RotationOrder: 4
    attribute: m_LocalScale.z
    path: Guru
    classID: 4
    script: {fileID: 0}
  - curve:
      serializedVersion: 2
      m_Curve:
      - time: 0
        value: 8
        inSlope: 90.75
        outSlope: 90.75
        tangentMode: 10
      - time: 1.6
        value: 153.2
        inSlope: -25.968742
        outSlope: -25.968742
        tangentMode: 10
      - time: 2.6666667
        value: 1
        inSlope: -142.68748
        outSlope: -142.68748
        tangentMode: 10
      m_PreInfinity: 2
      m_PostInfinity: 2
      m_RotationOrder: 4
    attribute: height
    path: circle1
    classID: 114
    script: {fileID: 11500000, guid: 27adfee35dd94cb4a8d0cd2ed7d934be, type: 3}
  - curve:
      serializedVersion: 2
      m_Curve:
      - time: 0
        value: -2
        inSlope: 0
        outSlope: 0
        tangentMode: 10
      - time: 1.6
        value: -2
        inSlope: 0
        outSlope: 0
        tangentMode: 10
      m_PreInfinity: 2
      m_PostInfinity: 2
      m_RotationOrder: 4
    attribute: m_LocalPosition.x
    path: circle1
    classID: 4
    script: {fileID: 0}
  - curve:
      serializedVersion: 2
      m_Curve:
      - time: 0
        value: 1
        inSlope: 0
        outSlope: 0
        tangentMode: 10
      - time: 1.6
        value: 1
        inSlope: 0
        outSlope: 0
        tangentMode: 10
      m_PreInfinity: 2
      m_PostInfinity: 2
      m_RotationOrder: 4
    attribute: m_LocalPosition.y
    path: circle1
    classID: 4
    script: {fileID: 0}
  - curve:
      serializedVersion: 2
      m_Curve:
      - time: 0
        value: 0
        inSlope: 0
        outSlope: 0
        tangentMode: 10
      - time: 1.6
        value: 0
        inSlope: 0
        outSlope: 0
        tangentMode: 10
      m_PreInfinity: 2
      m_PostInfinity: 2
      m_RotationOrder: 4
    attribute: m_LocalPosition.z
    path: circle1
    classID: 4
    script: {fileID: 0}
  - curve:
      serializedVersion: 2
      m_Curve:
      - time: 0
        value: 64
        inSlope: 18
        outSlope: 18
        tangentMode: 10
      - time: 0.8888889
        value: 80
        inSlope: -8.999998
        outSlope: -8.999998
        tangentMode: 10
      - time: 1.3333334
        value: 64
        inSlope: -35.999996
        outSlope: -35.999996
        tangentMode: 10
      m_PreInfinity: 2
      m_PostInfinity: 2
      m_RotationOrder: 4
    attribute: width
    path: 
    classID: 114
    script: {fileID: 11500000, guid: 27adfee35dd94cb4a8d0cd2ed7d934be, type: 3}
  - curve:
      serializedVersion: 2
      m_Curve:
      - time: 0
        value: 64
        inSlope: 18
        outSlope: 18
        tangentMode: 10
      - time: 0.8888889
        value: 80
        inSlope: -8.999998
        outSlope: -8.999998
        tangentMode: 10
      - time: 1.3333334
        value: 64
        inSlope: -35.999996
        outSlope: -35.999996
        tangentMode: 10
      m_PreInfinity: 2
      m_PostInfinity: 2
      m_RotationOrder: 4
    attribute: height
    path: 
    classID: 114
    script: {fileID: 11500000, guid: 27adfee35dd94cb4a8d0cd2ed7d934be, type: 3}
  m_EulerEditorCurves: []
  m_HasGenericRootTransform: 0
  m_HasMotionFloatCurves: 0
  m_GenerateMotionCurves: 0
  m_Events: []
