%YAML 1.1
%TAG !u! tag:unity3d.com,2011:
--- !u!74 &7400000
AnimationClip:
  m_ObjectHideFlags: 0
  m_PrefabParentObject: {fileID: 0}
  m_PrefabInternal: {fileID: 0}
  m_Name: CoachAppear
  serializedVersion: 6
  m_Legacy: 1
  m_Compressed: 0
  m_UseHighQualityCurve: 1
  m_RotationCurves:
  - curve:
      serializedVersion: 2
      m_Curve:
      - time: 0
        value: {x: 0, y: 0, z: 0.0029500998, w: -0.99999565}
        inSlope: {x: 0, y: 0, z: -0.0041923374, w: -0.000011444092}
        outSlope: {x: 0, y: 0, z: -0.0041923374, w: -0.000011444092}
        tangentMode: 0
      - time: 0.125
        value: {x: 0, y: 0, z: 0.0024260576, w: -0.9999971}
        inSlope: {x: 0, y: 0, z: 0.12029155, w: 0.0021641254}
        outSlope: {x: 0, y: 0, z: 0.12029155, w: 0.0021641254}
        tangentMode: 0
      - time: 0.25
        value: {x: 0, y: 0, z: 0.03302299, w: -0.9994546}
        inSlope: {x: 0, y: 0, z: 0.15391743, w: 0.0033361912}
        outSlope: {x: 0, y: 0, z: 0.15391743, w: 0.0033361912}
        tangentMode: 0
      - time: 0.375
        value: {x: 0, y: 0, z: 0.040905416, w: -0.99916303}
        inSlope: {x: 0, y: 0, z: -0.15157615, w: -0.004230976}
        outSlope: {x: 0, y: 0, z: -0.15157615, w: -0.004230976}
        tangentMode: 0
      - time: 0.4375
        value: {x: 0, y: 0, z: 0.018017184, w: -0.9998377}
        inSlope: {x: 0, y: 0, z: -0.3662117, w: -0.01079464}
        outSlope: {x: 0, y: 0, z: -0.3662117, w: -0.01079464}
        tangentMode: 0
      m_PreInfinity: 2
      m_PostInfinity: 2
      m_RotationOrder: 4
    path: Character/body
  - curve:
      serializedVersion: 2
      m_Curve:
      - time: 0
        value: {x: 0, y: 0, z: 0.0025137954, w: -0.99999684}
        inSlope: {x: 0, y: 0, z: -0.10309831, w: 0.00040531158}
        outSlope: {x: 0, y: 0, z: -0.10309831, w: 0.00040531158}
        tangentMode: 0
      - time: 0.125
        value: {x: 0, y: 0, z: -0.010373494, w: -0.9999462}
        inSlope: {x: 0, y: 0, z: 0.05188219, w: 0.00046682358}
        outSlope: {x: 0, y: 0, z: 0.05188219, w: 0.00046682358}
        tangentMode: 0
      - time: 0.25
        value: {x: 0, y: 0, z: 0.015484342, w: -0.99988014}
        inSlope: {x: 0, y: 0, z: 0.5629535, w: 0.033920288}
        outSlope: {x: 0, y: 0, z: 0.5629535, w: 0.033920288}
        tangentMode: 0
      - time: 0.375
        value: {x: 0, y: 0, z: 0.13036487, w: -0.9914661}
        inSlope: {x: 0, y: 0, z: -0.19295958, w: -0.0090133585}
        outSlope: {x: 0, y: 0, z: -0.19295958, w: -0.0090133585}
        tangentMode: 0
      - time: 0.475
        value: {x: 0, y: 0, z: -0.00013145606, w: -1}
        inSlope: {x: 0, y: 0, z: -1.3049634, w: -0.08533896}
        outSlope: {x: 0, y: 0, z: -1.3049634, w: -0.08533896}
        tangentMode: 0
      m_PreInfinity: 2
      m_PostInfinity: 2
      m_RotationOrder: 4
    path: Character/head
  - curve:
      serializedVersion: 2
      m_Curve:
      - time: 0
        value: {x: 0, y: 0, z: -0.2036503, w: 0.9790437}
        inSlope: {x: 0, y: 0, z: 0.01958251, w: 0.004067421}
        outSlope: {x: 0, y: 0, z: 0.01958251, w: 0.004067421}
        tangentMode: 0
      - time: 0.0125
        value: {x: 0, y: 0, z: -0.20340551, w: 0.97909456}
        inSlope: {x: 0, y: 0, z: 0.03746748, w: 0.00777483}
        outSlope: {x: 0, y: 0, z: 0.03746748, w: 0.00777483}
        tangentMode: 0
      - time: 0.025
        value: {x: 0, y: 0, z: -0.20271361, w: 0.9792381}
        inSlope: {x: 0, y: 0, z: 0.07068992, w: 0.014619826}
        outSlope: {x: 0, y: 0, z: 0.07068992, w: 0.014619826}
        tangentMode: 0
      - time: 0.0375
        value: {x: 0, y: 0, z: -0.20163827, w: 0.97946006}
        inSlope: {x: 0, y: 0, z: 0.09881616, w: 0.020325184}
        outSlope: {x: 0, y: 0, z: 0.09881616, w: 0.020325184}
        tangentMode: 0
      - time: 0.05
        value: {x: 0, y: 0, z: -0.2002432, w: 0.9797462}
        inSlope: {x: 0, y: 0, z: 0.121850386, w: 0.024888517}
        outSlope: {x: 0, y: 0, z: 0.121850386, w: 0.024888517}
        tangentMode: 0
      - time: 0.0625
        value: {x: 0, y: 0, z: -0.198592, w: 0.9800823}
        inSlope: {x: 0, y: 0, z: 0.13979197, w: 0.028312203}
        outSlope: {x: 0, y: 0, z: 0.13979197, w: 0.028312203}
        tangentMode: 0
      - time: 0.075
        value: {x: 0, y: 0, z: -0.1967484, w: 0.980454}
        inSlope: {x: 0, y: 0, z: 0.15263376, w: 0.030617706}
        outSlope: {x: 0, y: 0, z: 0.15263376, w: 0.030617706}
        tangentMode: 0
      - time: 0.087500006
        value: {x: 0, y: 0, z: -0.19477616, w: 0.9808477}
        inSlope: {x: 0, y: 0, z: 0.16037221, w: 0.031840794}
        outSlope: {x: 0, y: 0, z: 0.16037221, w: 0.031840794}
        tangentMode: 0
      - time: 0.10000001
        value: {x: 0, y: 0, z: -0.1927391, w: 0.98125005}
        inSlope: {x: 0, y: 0, z: 0.1629978, w: 0.032017224}
        outSlope: {x: 0, y: 0, z: 0.1629978, w: 0.032017224}
        tangentMode: 0
      - time: 0.11250001
        value: {x: 0, y: 0, z: -0.19070122, w: 0.98164815}
        inSlope: {x: 0, y: 0, z: 0.16050096, w: 0.031185143}
        outSlope: {x: 0, y: 0, z: 0.16050096, w: 0.031185143}
        tangentMode: 0
      - time: 0.12500001
        value: {x: 0, y: 0, z: -0.18872657, w: 0.9820297}
        inSlope: {x: 0, y: 0, z: 0.15287575, w: 0.02938985}
        outSlope: {x: 0, y: 0, z: 0.15287575, w: 0.02938985}
        tangentMode: 0
      - time: 0.13750002
        value: {x: 0, y: 0, z: -0.18687932, w: 0.9823829}
        inSlope: {x: 0, y: 0, z: 0.1401144, w: 0.02666711}
        outSlope: {x: 0, y: 0, z: 0.1401144, w: 0.02666711}
        tangentMode: 0
      - time: 0.15000002
        value: {x: 0, y: 0, z: -0.18522371, w: 0.98269635}
        inSlope: {x: 0, y: 0, z: 0.122211546, w: 0.023050303}
        outSlope: {x: 0, y: 0, z: 0.122211546, w: 0.023050303}
        tangentMode: 0
      - time: 0.16250002
        value: {x: 0, y: 0, z: -0.18382403, w: 0.98295915}
        inSlope: {x: 0, y: 0, z: 0.09916243, w: 0.018563267}
        outSlope: {x: 0, y: 0, z: 0.09916243, w: 0.018563267}
        tangentMode: 0
      - time: 0.17500003
        value: {x: 0, y: 0, z: -0.18274465, w: 0.98316044}
        inSlope: {x: 0, y: 0, z: 0.07096647, w: 0.013206001}
        outSlope: {x: 0, y: 0, z: 0.07096647, w: 0.013206001}
        tangentMode: 0
      - time: 0.18750003
        value: {x: 0, y: 0, z: -0.18204987, w: 0.9832893}
        inSlope: {x: 0, y: 0, z: 0.03762542, w: 0.0069737416}
        outSlope: {x: 0, y: 0, z: 0.03762542, w: 0.0069737416}
        tangentMode: 0
      - time: 0.20000003
        value: {x: 0, y: 0, z: -0.18180402, w: 0.9833348}
        inSlope: {x: 0, y: 0, z: -0.00085532665, w: -0.00015735626}
        outSlope: {x: 0, y: 0, z: -0.00085532665, w: -0.00015735626}
        tangentMode: 0
      - time: 0.21250004
        value: {x: 0, y: 0, z: -0.18207125, w: 0.98328537}
        inSlope: {x: 0, y: 0, z: -0.044466246, w: -0.008246897}
        outSlope: {x: 0, y: 0, z: -0.044466246, w: -0.008246897}
        tangentMode: 0
      - time: 0.22500004
        value: {x: 0, y: 0, z: -0.18291567, w: 0.9831286}
        inSlope: {x: 0, y: 0, z: -0.09319184, w: -0.017371174}
        outSlope: {x: 0, y: 0, z: -0.09319184, w: -0.017371174}
        tangentMode: 0
      - time: 0.23750004
        value: {x: 0, y: 0, z: -0.18440105, w: 0.9828511}
        inSlope: {x: 0, y: 0, z: -0.14701194, w: -0.027637493}
        outSlope: {x: 0, y: 0, z: -0.14701194, w: -0.027637493}
        tangentMode: 0
      - time: 0.25000003
        value: {x: 0, y: 0, z: -0.18659097, w: 0.9824377}
        inSlope: {x: 0, y: 0, z: -0.20589967, w: -0.0391889}
        outSlope: {x: 0, y: 0, z: -0.20589967, w: -0.0391889}
        tangentMode: 0
      - time: 0.26250002
        value: {x: 0, y: 0, z: -0.18954854, w: 0.98187137}
        inSlope: {x: 0, y: 0, z: -0.26981917, w: -0.05220657}
        outSlope: {x: 0, y: 0, z: -0.26981917, w: -0.05220657}
        tangentMode: 0
      - time: 0.275
        value: {x: 0, y: 0, z: -0.19333644, w: 0.9811325}
        inSlope: {x: 0, y: 0, z: -0.3387234, w: -0.06690747}
        outSlope: {x: 0, y: 0, z: -0.3387234, w: -0.06690747}
        tangentMode: 0
      - time: 0.2875
        value: {x: 0, y: 0, z: -0.19801661, w: 0.9801987}
        inSlope: {x: 0, y: 0, z: -0.41255394, w: -0.08355149}
        outSlope: {x: 0, y: 0, z: -0.41255394, w: -0.08355149}
        tangentMode: 0
      - time: 0.29999998
        value: {x: 0, y: 0, z: -0.20365028, w: 0.9790437}
        inSlope: {x: 0, y: 0, z: -0.57839745, w: -0.12130034}
        outSlope: {x: 0, y: 0, z: -0.57839745, w: -0.12130034}
        tangentMode: 0
      - time: 0.31249997
        value: {x: 0, y: 0, z: -0.21247654, w: 0.9771662}
        inSlope: {x: 0, y: 0, z: -0.88376963, w: -0.19428748}
        outSlope: {x: 0, y: 0, z: -0.88376963, w: -0.19428748}
        tangentMode: 0
      - time: 0.32499996
        value: {x: 0, y: 0, z: -0.2257445, w: 0.97418654}
        inSlope: {x: 0, y: 0, z: -1.1821018, w: -0.27588633}
        outSlope: {x: 0, y: 0, z: -1.1821018, w: -0.27588633}
        tangentMode: 0
      - time: 0.33749995
        value: {x: 0, y: 0, z: -0.24202906, w: 0.970269}
        inSlope: {x: 0, y: 0, z: -1.3667722, w: -0.3421882}
        outSlope: {x: 0, y: 0, z: -1.3667722, w: -0.3421882}
        tangentMode: 0
      - time: 0.34999993
        value: {x: 0, y: 0, z: -0.25991377, w: 0.96563184}
        inSlope: {x: 0, y: 0, z: -1.4388771, w: -0.3875283}
        outSlope: {x: 0, y: 0, z: -1.4388771, w: -0.3875283}
        tangentMode: 0
      - time: 0.36249992
        value: {x: 0, y: 0, z: -0.27800095, w: 0.9605808}
        inSlope: {x: 0, y: 0, z: -1.4002254, w: -0.4043893}
        outSlope: {x: 0, y: 0, z: -1.4002254, w: -0.4043893}
        tangentMode: 0
      - time: 0.3749999
        value: {x: 0, y: 0, z: -0.29491937, w: 0.9555221}
        inSlope: {x: 0, y: 0, z: -1.2530422, w: -0.38500345}
        outSlope: {x: 0, y: 0, z: -1.2530422, w: -0.38500345}
        tangentMode: 0
      - time: 0.3874999
        value: {x: 0, y: 0, z: -0.30932698, w: 0.95095575}
        inSlope: {x: 0, y: 0, z: -0.9994874, w: -0.32292157}
        outSlope: {x: 0, y: 0, z: -0.9994874, w: -0.32292157}
        tangentMode: 0
      - time: 0.3999999
        value: {x: 0, y: 0, z: -0.31990653, w: 0.9474491}
        inSlope: {x: 0, y: 0, z: -0.6410068, w: -0.21451256}
        outSlope: {x: 0, y: 0, z: -0.6410068, w: -0.21451256}
        tangentMode: 0
      - time: 0.41249987
        value: {x: 0, y: 0, z: -0.32535213, w: 0.94559294}
        inSlope: {x: 0, y: 0, z: -0.17761129, w: -0.0604344}
        outSlope: {x: 0, y: 0, z: -0.17761129, w: -0.0604344}
        tangentMode: 0
      - time: 0.42499986
        value: {x: 0, y: 0, z: -0.3243468, w: 0.9459382}
        inSlope: {x: 0, y: 0, z: 0.5209081, w: 0.17523782}
        outSlope: {x: 0, y: 0, z: 0.5209081, w: 0.17523782}
        tangentMode: 0
      - time: 0.43749985
        value: {x: 0, y: 0, z: -0.31232944, w: 0.9499739}
        inSlope: {x: 0, y: 0, z: 1.392435, w: 0.44915718}
        outSlope: {x: 0, y: 0, z: 1.392435, w: 0.44915718}
        tangentMode: 0
      - time: 0.44999984
        value: {x: 0, y: 0, z: -0.28953597, w: 0.95716715}
        inSlope: {x: 0, y: 0, z: 2.0179398, w: 0.6050521}
        outSlope: {x: 0, y: 0, z: 2.0179398, w: 0.6050521}
        tangentMode: 0
      - time: 0.46249983
        value: {x: 0, y: 0, z: -0.261881, w: 0.96510017}
        inSlope: {x: 0, y: 0, z: 2.1632562, w: 0.5887276}
        outSlope: {x: 0, y: 0, z: 2.1632562, w: 0.5887276}
        tangentMode: 0
      - time: 0.47499982
        value: {x: 0, y: 0, z: -0.23545462, w: 0.9718853}
        inSlope: {x: 0, y: 0, z: 1.8145787, w: 0.44715208}
        outSlope: {x: 0, y: 0, z: 1.8145787, w: 0.44715208}
        tangentMode: 0
      - time: 0.4874998
        value: {x: 0, y: 0, z: -0.21651657, w: 0.97627896}
        inSlope: {x: 0, y: 0, z: 1.085587, w: 0.2470591}
        outSlope: {x: 0, y: 0, z: 1.085587, w: 0.2470591}
        tangentMode: 0
      - time: 0.4999998
        value: {x: 0, y: 0, z: -0.20831497, w: 0.9780618}
        inSlope: {x: 0, y: 0, z: 0.42133468, w: 0.09106163}
        outSlope: {x: 0, y: 0, z: 0.42133468, w: 0.09106163}
        tangentMode: 0
      - time: 0.5124998
        value: {x: 0, y: 0, z: -0.2059832, w: 0.9785555}
        inSlope: {x: 0, y: 0, z: 0.1865856, w: 0.039276786}
        outSlope: {x: 0, y: 0, z: 0.1865856, w: 0.039276786}
        tangentMode: 0
      - time: 0.525
        value: {x: 0, y: 0, z: -0.2036503, w: 0.9790437}
        inSlope: {x: 0, y: 0, z: 0.18663038, w: 0.03905721}
        outSlope: {x: 0, y: 0, z: 0.18663038, w: 0.03905721}
        tangentMode: 0
      m_PreInfinity: 2
      m_PostInfinity: 2
      m_RotationOrder: 4
    path: crown
  m_CompressedRotationCurves: []
  m_EulerCurves: []
  m_PositionCurves:
  - curve:
      serializedVersion: 2
      m_Curve:
      - time: 0
        value: {x: -39.1, y: 22, z: 0}
        inSlope: {x: 202.66667, y: 0, z: 0}
        outSlope: {x: 202.66667, y: 0, z: 0}
        tangentMode: 0
      - time: 0.1875
        value: {x: -1.1, y: 22, z: 0}
        inSlope: {x: 148.93333, y: 0, z: 0}
        outSlope: {x: 148.93333, y: 0, z: 0}
        tangentMode: 0
      - time: 0.3125
        value: {x: 10.8, y: 22, z: 0}
        inSlope: {x: 58.266674, y: -3.9999905, z: 0}
        outSlope: {x: 58.266674, y: -3.9999905, z: 0}
        tangentMode: 0
      - time: 0.35
        value: {x: 11.6, y: 21.7, z: 0}
        inSlope: {x: -46.333336, y: -2.9999962, z: 0}
        outSlope: {x: -46.333336, y: -2.9999962, z: 0}
        tangentMode: 0
      - time: 0.45
        value: {x: 0.2, y: 21.9, z: 0}
        inSlope: {x: -51.000008, y: 3.0000014, z: 0}
        outSlope: {x: -51.000008, y: 3.0000014, z: 0}
        tangentMode: 0
      - time: 0.475
        value: {x: 0.5, y: 22, z: 0}
        inSlope: {x: 11.999998, y: 4.0000143, z: 0}
        outSlope: {x: 11.999998, y: 4.0000143, z: 0}
        tangentMode: 0
      m_PreInfinity: 2
      m_PostInfinity: 2
      m_RotationOrder: 4
    path: Character/head
  - curve:
      serializedVersion: 2
      m_Curve:
      - time: 0
        value: {x: -38, y: -40.3, z: 0}
        inSlope: {x: 0, y: 0, z: 0}
        outSlope: {x: 0, y: 0, z: 0}
        tangentMode: 0
      - time: 0.1875
        value: {x: 0.3, y: -40.3, z: 0}
        inSlope: {x: 0, y: 0, z: 0}
        outSlope: {x: 0, y: 0, z: 0}
        tangentMode: 0
      - time: 0.3125
        value: {x: 4.1, y: -39.7, z: 0}
        inSlope: {x: 0, y: 0, z: 0}
        outSlope: {x: 0, y: 0, z: 0}
        tangentMode: 0
      - time: 0.4375
        value: {x: 0.3, y: -40.3, z: 0}
        inSlope: {x: 0, y: 0, z: 0}
        outSlope: {x: 0, y: 0, z: 0}
        tangentMode: 0
      m_PreInfinity: 2
      m_PostInfinity: 2
      m_RotationOrder: 4
    path: Character/body
  - curve:
      serializedVersion: 2
      m_Curve:
      - time: 0
        value: {x: 37.100014, y: 86.6, z: 0}
        inSlope: {x: 0, y: 0, z: 0}
        outSlope: {x: 0, y: 0, z: 0}
        tangentMode: 0
      - time: 0.3
        value: {x: 37.100014, y: 86.6, z: 0}
        inSlope: {x: 30.799942, y: 70.399994, z: 0}
        outSlope: {x: 30.799942, y: 70.399994, z: 0}
        tangentMode: 0
      - time: 0.425
        value: {x: 44.8, y: 104.2, z: 0}
        inSlope: {x: -7.700001, y: -17.600029, z: 0}
        outSlope: {x: -7.700001, y: -17.600029, z: 0}
        tangentMode: 0
      - time: 0.525
        value: {x: 37.100014, y: 86.6, z: 0}
        inSlope: {x: -76.999886, y: -176.00005, z: 0}
        outSlope: {x: -76.999886, y: -176.00005, z: 0}
        tangentMode: 0
      m_PreInfinity: 2
      m_PostInfinity: 2
      m_RotationOrder: 4
    path: crown
  m_ScaleCurves: []
  m_FloatCurves:
  - curve:
      serializedVersion: 2
      m_Curve:
      - time: 0
        value: 0
        inSlope: 5.3333335
        outSlope: 5.3333335
        tangentMode: 10
      - time: 0.1875
        value: 1
        inSlope: 5.3333335
        outSlope: 5.3333335
        tangentMode: 10
      m_PreInfinity: 2
      m_PostInfinity: 2
      m_RotationOrder: 4
    attribute: alpha
    path: Character/head
    classID: 114
    script: {fileID: 11500000, guid: 6f9aef6d5962d8849aa830ef46c7c993, type: 3}
  - curve:
      serializedVersion: 2
      m_Curve:
      - time: 0
        value: 0
        inSlope: 5.3333335
        outSlope: 5.3333335
        tangentMode: 10
      - time: 0.1875
        value: 1
        inSlope: 5.3333335
        outSlope: 5.3333335
        tangentMode: 10
      m_PreInfinity: 2
      m_PostInfinity: 2
      m_RotationOrder: 4
    attribute: alpha
    path: Character/body
    classID: 114
    script: {fileID: 11500000, guid: 6f9aef6d5962d8849aa830ef46c7c993, type: 3}
  m_PPtrCurves: []
  m_SampleRate: 80
  m_WrapMode: 0
  m_Bounds:
    m_Center: {x: 0, y: 0, z: 0}
    m_Extent: {x: 0, y: 0, z: 0}
  m_ClipBindingConstant:
    genericBindings: []
    pptrCurveMapping: []
  m_AnimationClipSettings:
    serializedVersion: 2
    m_AdditiveReferencePoseClip: {fileID: 0}
    m_AdditiveReferencePoseTime: 0
    m_StartTime: 0
    m_StopTime: 0.525
    m_OrientationOffsetY: 0
    m_Level: 0
    m_CycleOffset: 0
    m_HasAdditiveReferencePose: 0
    m_LoopTime: 0
    m_LoopBlend: 0
    m_LoopBlendOrientation: 0
    m_LoopBlendPositionY: 0
    m_LoopBlendPositionXZ: 0
    m_KeepOriginalOrientation: 0
    m_KeepOriginalPositionY: 1
    m_KeepOriginalPositionXZ: 0
    m_HeightFromFeet: 0
    m_Mirror: 0
  m_EditorCurves:
  - curve:
      serializedVersion: 2
      m_Curve:
      - time: 0
        value: -39.1
        inSlope: 202.66667
        outSlope: 202.66667
        tangentMode: 10
      - time: 0.1875
        value: -1.1
        inSlope: 148.93333
        outSlope: 148.93333
        tangentMode: 10
      - time: 0.3125
        value: 10.8
        inSlope: 58.266674
        outSlope: 58.266674
        tangentMode: 10
      - time: 0.35
        value: 11.6
        inSlope: -46.333336
        outSlope: -46.333336
        tangentMode: 10
      - time: 0.45
        value: 0.2
        inSlope: -51.000008
        outSlope: -51.000008
        tangentMode: 10
      - time: 0.475
        value: 0.5
        inSlope: 11.999998
        outSlope: 11.999998
        tangentMode: 10
      m_PreInfinity: 2
      m_PostInfinity: 2
      m_RotationOrder: 4
    attribute: m_LocalPosition.x
    path: Character/head
    classID: 4
    script: {fileID: 0}
  - curve:
      serializedVersion: 2
      m_Curve:
      - time: 0
        value: 22
        inSlope: 0
        outSlope: 0
        tangentMode: 10
      - time: 0.1875
        value: 22
        inSlope: 0
        outSlope: 0
        tangentMode: 10
      - time: 0.3125
        value: 22
        inSlope: -3.9999905
        outSlope: -3.9999905
        tangentMode: 10
      - time: 0.35
        value: 21.7
        inSlope: -2.9999962
        outSlope: -2.9999962
        tangentMode: 10
      - time: 0.45
        value: 21.9
        inSlope: 3.0000014
        outSlope: 3.0000014
        tangentMode: 10
      - time: 0.475
        value: 22
        inSlope: 4.0000143
        outSlope: 4.0000143
        tangentMode: 10
      m_PreInfinity: 2
      m_PostInfinity: 2
      m_RotationOrder: 4
    attribute: m_LocalPosition.y
    path: Character/head
    classID: 4
    script: {fileID: 0}
  - curve:
      serializedVersion: 2
      m_Curve:
      - time: 0
        value: 0
        inSlope: 0
        outSlope: 0
        tangentMode: 10
      - time: 0.1875
        value: 0
        inSlope: 0
        outSlope: 0
        tangentMode: 10
      - time: 0.3125
        value: 0
        inSlope: 0
        outSlope: 0
        tangentMode: 10
      - time: 0.35
        value: 0
        inSlope: 0
        outSlope: 0
        tangentMode: 10
      - time: 0.45
        value: 0
        inSlope: 0
        outSlope: 0
        tangentMode: 10
      - time: 0.475
        value: 0
        inSlope: 0
        outSlope: 0
        tangentMode: 10
      m_PreInfinity: 2
      m_PostInfinity: 2
      m_RotationOrder: 4
    attribute: m_LocalPosition.z
    path: Character/head
    classID: 4
    script: {fileID: 0}
  - curve:
      serializedVersion: 2
      m_Curve:
      - time: 0
        value: -38
        inSlope: 0
        outSlope: 0
        tangentMode: 0
      - time: 0.1875
        value: 0.3
        inSlope: 0
        outSlope: 0
        tangentMode: 0
      - time: 0.3125
        value: 4.1
        inSlope: 0
        outSlope: 0
        tangentMode: 0
      - time: 0.4375
        value: 0.3
        inSlope: 0
        outSlope: 0
        tangentMode: 0
      m_PreInfinity: 2
      m_PostInfinity: 2
      m_RotationOrder: 4
    attribute: m_LocalPosition.x
    path: Character/body
    classID: 4
    script: {fileID: 0}
  - curve:
      serializedVersion: 2
      m_Curve:
      - time: 0
        value: -40.3
        inSlope: 0
        outSlope: 0
        tangentMode: 0
      - time: 0.1875
        value: -40.3
        inSlope: 0
        outSlope: 0
        tangentMode: 0
      - time: 0.3125
        value: -39.7
        inSlope: 0
        outSlope: 0
        tangentMode: 0
      - time: 0.4375
        value: -40.3
        inSlope: 0
        outSlope: 0
        tangentMode: 0
      m_PreInfinity: 2
      m_PostInfinity: 2
      m_RotationOrder: 4
    attribute: m_LocalPosition.y
    path: Character/body
    classID: 4
    script: {fileID: 0}
  - curve:
      serializedVersion: 2
      m_Curve:
      - time: 0
        value: 0
        inSlope: 0
        outSlope: 0
        tangentMode: 0
      - time: 0.1875
        value: 0
        inSlope: 0
        outSlope: 0
        tangentMode: 0
      - time: 0.3125
        value: 0
        inSlope: 0
        outSlope: 0
        tangentMode: 0
      - time: 0.4375
        value: 0
        inSlope: 0
        outSlope: 0
        tangentMode: 0
      m_PreInfinity: 2
      m_PostInfinity: 2
      m_RotationOrder: 4
    attribute: m_LocalPosition.z
    path: Character/body
    classID: 4
    script: {fileID: 0}
  - curve:
      serializedVersion: 2
      m_Curve:
      - time: 0
        value: 0
        inSlope: 5.3333335
        outSlope: 5.3333335
        tangentMode: 10
      - time: 0.1875
        value: 1
        inSlope: 5.3333335
        outSlope: 5.3333335
        tangentMode: 10
      m_PreInfinity: 2
      m_PostInfinity: 2
      m_RotationOrder: 4
    attribute: alpha
    path: Character/head
    classID: 114
    script: {fileID: 11500000, guid: 6f9aef6d5962d8849aa830ef46c7c993, type: 3}
  - curve:
      serializedVersion: 2
      m_Curve:
      - time: 0
        value: 0
        inSlope: 5.3333335
        outSlope: 5.3333335
        tangentMode: 10
      - time: 0.1875
        value: 1
        inSlope: 5.3333335
        outSlope: 5.3333335
        tangentMode: 10
      m_PreInfinity: 2
      m_PostInfinity: 2
      m_RotationOrder: 4
    attribute: alpha
    path: Character/body
    classID: 114
    script: {fileID: 11500000, guid: 6f9aef6d5962d8849aa830ef46c7c993, type: 3}
  - curve:
      serializedVersion: 2
      m_Curve:
      - time: 0
        value: -0.99999565
        inSlope: -0.000011444092
        outSlope: -0.000011444092
        tangentMode: 0
      - time: 0.125
        value: -0.9999971
        inSlope: 0.0021641254
        outSlope: 0.0021641254
        tangentMode: 0
      - time: 0.25
        value: -0.9994546
        inSlope: 0.0033361912
        outSlope: 0.0033361912
        tangentMode: 0
      - time: 0.375
        value: -0.99916303
        inSlope: -0.004230976
        outSlope: -0.004230976
        tangentMode: 0
      - time: 0.4375
        value: -0.9998377
        inSlope: -0.01079464
        outSlope: -0.01079464
        tangentMode: 0
      m_PreInfinity: 2
      m_PostInfinity: 2
      m_RotationOrder: 4
    attribute: m_LocalRotation.w
    path: Character/body
    classID: 4
    script: {fileID: 0}
  - curve:
      serializedVersion: 2
      m_Curve:
      - time: 0
        value: 0.0029500998
        inSlope: -0.0041923374
        outSlope: -0.0041923374
        tangentMode: 0
      - time: 0.125
        value: 0.0024260576
        inSlope: 0.12029155
        outSlope: 0.12029155
        tangentMode: 0
      - time: 0.25
        value: 0.03302299
        inSlope: 0.15391743
        outSlope: 0.15391743
        tangentMode: 0
      - time: 0.375
        value: 0.040905416
        inSlope: -0.15157615
        outSlope: -0.15157615
        tangentMode: 0
      - time: 0.4375
        value: 0.018017184
        inSlope: -0.3662117
        outSlope: -0.3662117
        tangentMode: 0
      m_PreInfinity: 2
      m_PostInfinity: 2
      m_RotationOrder: 4
    attribute: m_LocalRotation.z
    path: Character/body
    classID: 4
    script: {fileID: 0}
  - curve:
      serializedVersion: 2
      m_Curve:
      - time: 0
        value: 0
        inSlope: 0
        outSlope: 0
        tangentMode: 0
      - time: 0.125
        value: 0
        inSlope: 0
        outSlope: 0
        tangentMode: 0
      - time: 0.25
        value: 0
        inSlope: 0
        outSlope: 0
        tangentMode: 0
      - time: 0.375
        value: 0
        inSlope: 0
        outSlope: 0
        tangentMode: 0
      - time: 0.4375
        value: 0
        inSlope: 0
        outSlope: 0
        tangentMode: 0
      m_PreInfinity: 2
      m_PostInfinity: 2
      m_RotationOrder: 4
    attribute: m_LocalRotation.y
    path: Character/body
    classID: 4
    script: {fileID: 0}
  - curve:
      serializedVersion: 2
      m_Curve:
      - time: 0
        value: 0
        inSlope: 0
        outSlope: 0
        tangentMode: 0
      - time: 0.125
        value: 0
        inSlope: 0
        outSlope: 0
        tangentMode: 0
      - time: 0.25
        value: 0
        inSlope: 0
        outSlope: 0
        tangentMode: 0
      - time: 0.375
        value: 0
        inSlope: 0
        outSlope: 0
        tangentMode: 0
      - time: 0.4375
        value: 0
        inSlope: 0
        outSlope: 0
        tangentMode: 0
      m_PreInfinity: 2
      m_PostInfinity: 2
      m_RotationOrder: 4
    attribute: m_LocalRotation.x
    path: Character/body
    classID: 4
    script: {fileID: 0}
  - curve:
      serializedVersion: 2
      m_Curve:
      - time: 0
        value: 0
        inSlope: 0
        outSlope: 0
        tangentMode: 0
      - time: 0.125
        value: 0
        inSlope: 0
        outSlope: 0
        tangentMode: 0
      - time: 0.25
        value: 0
        inSlope: 0
        outSlope: 0
        tangentMode: 0
      - time: 0.375
        value: 0
        inSlope: 0
        outSlope: 0
        tangentMode: 0
      - time: 0.475
        value: 0
        inSlope: 0
        outSlope: 0
        tangentMode: 0
      m_PreInfinity: 2
      m_PostInfinity: 2
      m_RotationOrder: 4
    attribute: m_LocalRotation.x
    path: Character/head
    classID: 4
    script: {fileID: 0}
  - curve:
      serializedVersion: 2
      m_Curve:
      - time: 0
        value: 0
        inSlope: 0
        outSlope: 0
        tangentMode: 0
      - time: 0.125
        value: 0
        inSlope: 0
        outSlope: 0
        tangentMode: 0
      - time: 0.25
        value: 0
        inSlope: 0
        outSlope: 0
        tangentMode: 0
      - time: 0.375
        value: 0
        inSlope: 0
        outSlope: 0
        tangentMode: 0
      - time: 0.475
        value: 0
        inSlope: 0
        outSlope: 0
        tangentMode: 0
      m_PreInfinity: 2
      m_PostInfinity: 2
      m_RotationOrder: 4
    attribute: m_LocalRotation.y
    path: Character/head
    classID: 4
    script: {fileID: 0}
  - curve:
      serializedVersion: 2
      m_Curve:
      - time: 0
        value: 0.0025137954
        inSlope: -0.10309831
        outSlope: -0.10309831
        tangentMode: 0
      - time: 0.125
        value: -0.010373494
        inSlope: 0.05188219
        outSlope: 0.05188219
        tangentMode: 0
      - time: 0.25
        value: 0.015484342
        inSlope: 0.5629535
        outSlope: 0.5629535
        tangentMode: 0
      - time: 0.375
        value: 0.13036487
        inSlope: -0.19295958
        outSlope: -0.19295958
        tangentMode: 0
      - time: 0.475
        value: -0.00013145606
        inSlope: -1.3049634
        outSlope: -1.3049634
        tangentMode: 0
      m_PreInfinity: 2
      m_PostInfinity: 2
      m_RotationOrder: 4
    attribute: m_LocalRotation.z
    path: Character/head
    classID: 4
    script: {fileID: 0}
  - curve:
      serializedVersion: 2
      m_Curve:
      - time: 0
        value: -0.99999684
        inSlope: 0.00040531158
        outSlope: 0.00040531158
        tangentMode: 0
      - time: 0.125
        value: -0.9999462
        inSlope: 0.00046682358
        outSlope: 0.00046682358
        tangentMode: 0
      - time: 0.25
        value: -0.99988014
        inSlope: 0.033920288
        outSlope: 0.033920288
        tangentMode: 0
      - time: 0.375
        value: -0.9914661
        inSlope: -0.0090133585
        outSlope: -0.0090133585
        tangentMode: 0
      - time: 0.475
        value: -1
        inSlope: -0.08533896
        outSlope: -0.08533896
        tangentMode: 0
      m_PreInfinity: 2
      m_PostInfinity: 2
      m_RotationOrder: 4
    attribute: m_LocalRotation.w
    path: Character/head
    classID: 4
    script: {fileID: 0}
  - curve:
      serializedVersion: 2
      m_Curve:
      - time: 0
        value: 37.100014
        inSlope: 0
        outSlope: 0
        tangentMode: 10
      - time: 0.3
        value: 37.100014
        inSlope: 30.799942
        outSlope: 30.799942
        tangentMode: 10
      - time: 0.425
        value: 44.8
        inSlope: -7.700001
        outSlope: -7.700001
        tangentMode: 10
      - time: 0.525
        value: 37.100014
        inSlope: -76.999886
        outSlope: -76.999886
        tangentMode: 10
      m_PreInfinity: 2
      m_PostInfinity: 2
      m_RotationOrder: 4
    attribute: m_LocalPosition.x
    path: crown
    classID: 4
    script: {fileID: 0}
  - curve:
      serializedVersion: 2
      m_Curve:
      - time: 0
        value: 86.6
        inSlope: 0
        outSlope: 0
        tangentMode: 10
      - time: 0.3
        value: 86.6
        inSlope: 70.399994
        outSlope: 70.399994
        tangentMode: 10
      - time: 0.425
        value: 104.2
        inSlope: -17.600029
        outSlope: -17.600029
        tangentMode: 10
      - time: 0.525
        value: 86.6
        inSlope: -176.00005
        outSlope: -176.00005
        tangentMode: 10
      m_PreInfinity: 2
      m_PostInfinity: 2
      m_RotationOrder: 4
    attribute: m_LocalPosition.y
    path: crown
    classID: 4
    script: {fileID: 0}
  - curve:
      serializedVersion: 2
      m_Curve:
      - time: 0
        value: 0
        inSlope: 0
        outSlope: 0
        tangentMode: 10
      - time: 0.3
        value: 0
        inSlope: 0
        outSlope: 0
        tangentMode: 10
      - time: 0.425
        value: 0
        inSlope: 0
        outSlope: 0
        tangentMode: 10
      - time: 0.525
        value: 0
        inSlope: 0
        outSlope: 0
        tangentMode: 10
      m_PreInfinity: 2
      m_PostInfinity: 2
      m_RotationOrder: 4
    attribute: m_LocalPosition.z
    path: crown
    classID: 4
    script: {fileID: 0}
  - curve:
      serializedVersion: 2
      m_Curve:
      - time: 0
        value: 0
        inSlope: 0
        outSlope: 0
        tangentMode: 0
      - time: 0.0125
        value: 0
        inSlope: 0
        outSlope: 0
        tangentMode: 0
      - time: 0.025
        value: 0
        inSlope: 0
        outSlope: 0
        tangentMode: 0
      - time: 0.0375
        value: 0
        inSlope: 0
        outSlope: 0
        tangentMode: 0
      - time: 0.05
        value: 0
        inSlope: 0
        outSlope: 0
        tangentMode: 0
      - time: 0.0625
        value: 0
        inSlope: 0
        outSlope: 0
        tangentMode: 0
      - time: 0.075
        value: 0
        inSlope: 0
        outSlope: 0
        tangentMode: 0
      - time: 0.087500006
        value: 0
        inSlope: 0
        outSlope: 0
        tangentMode: 0
      - time: 0.10000001
        value: 0
        inSlope: 0
        outSlope: 0
        tangentMode: 0
      - time: 0.11250001
        value: 0
        inSlope: 0
        outSlope: 0
        tangentMode: 0
      - time: 0.12500001
        value: 0
        inSlope: 0
        outSlope: 0
        tangentMode: 0
      - time: 0.13750002
        value: 0
        inSlope: 0
        outSlope: 0
        tangentMode: 0
      - time: 0.15000002
        value: 0
        inSlope: 0
        outSlope: 0
        tangentMode: 0
      - time: 0.16250002
        value: 0
        inSlope: 0
        outSlope: 0
        tangentMode: 0
      - time: 0.17500003
        value: 0
        inSlope: 0
        outSlope: 0
        tangentMode: 0
      - time: 0.18750003
        value: 0
        inSlope: 0
        outSlope: 0
        tangentMode: 0
      - time: 0.20000003
        value: 0
        inSlope: 0
        outSlope: 0
        tangentMode: 0
      - time: 0.21250004
        value: 0
        inSlope: 0
        outSlope: 0
        tangentMode: 0
      - time: 0.22500004
        value: 0
        inSlope: 0
        outSlope: 0
        tangentMode: 0
      - time: 0.23750004
        value: 0
        inSlope: 0
        outSlope: 0
        tangentMode: 0
      - time: 0.25000003
        value: 0
        inSlope: 0
        outSlope: 0
        tangentMode: 0
      - time: 0.26250002
        value: 0
        inSlope: 0
        outSlope: 0
        tangentMode: 0
      - time: 0.275
        value: 0
        inSlope: 0
        outSlope: 0
        tangentMode: 0
      - time: 0.2875
        value: 0
        inSlope: 0
        outSlope: 0
        tangentMode: 0
      - time: 0.29999998
        value: 0
        inSlope: 0
        outSlope: 0
        tangentMode: 0
      - time: 0.31249997
        value: 0
        inSlope: 0
        outSlope: 0
        tangentMode: 0
      - time: 0.32499996
        value: 0
        inSlope: 0
        outSlope: 0
        tangentMode: 0
      - time: 0.33749995
        value: 0
        inSlope: 0
        outSlope: 0
        tangentMode: 0
      - time: 0.34999993
        value: 0
        inSlope: 0
        outSlope: 0
        tangentMode: 0
      - time: 0.36249992
        value: 0
        inSlope: 0
        outSlope: 0
        tangentMode: 0
      - time: 0.3749999
        value: 0
        inSlope: 0
        outSlope: 0
        tangentMode: 0
      - time: 0.3874999
        value: 0
        inSlope: 0
        outSlope: 0
        tangentMode: 0
      - time: 0.3999999
        value: 0
        inSlope: 0
        outSlope: 0
        tangentMode: 0
      - time: 0.41249987
        value: 0
        inSlope: 0
        outSlope: 0
        tangentMode: 0
      - time: 0.42499986
        value: 0
        inSlope: 0
        outSlope: 0
        tangentMode: 0
      - time: 0.43749985
        value: 0
        inSlope: 0
        outSlope: 0
        tangentMode: 0
      - time: 0.44999984
        value: 0
        inSlope: 0
        outSlope: 0
        tangentMode: 0
      - time: 0.46249983
        value: 0
        inSlope: 0
        outSlope: 0
        tangentMode: 0
      - time: 0.47499982
        value: 0
        inSlope: 0
        outSlope: 0
        tangentMode: 0
      - time: 0.4874998
        value: 0
        inSlope: 0
        outSlope: 0
        tangentMode: 0
      - time: 0.4999998
        value: 0
        inSlope: 0
        outSlope: 0
        tangentMode: 0
      - time: 0.5124998
        value: 0
        inSlope: 0
        outSlope: 0
        tangentMode: 0
      - time: 0.525
        value: 0
        inSlope: 0
        outSlope: 0
        tangentMode: 0
      m_PreInfinity: 2
      m_PostInfinity: 2
      m_RotationOrder: 4
    attribute: m_LocalRotation.x
    path: crown
    classID: 4
    script: {fileID: 0}
  - curve:
      serializedVersion: 2
      m_Curve:
      - time: 0
        value: 0
        inSlope: 0
        outSlope: 0
        tangentMode: 0
      - time: 0.0125
        value: 0
        inSlope: 0
        outSlope: 0
        tangentMode: 0
      - time: 0.025
        value: 0
        inSlope: 0
        outSlope: 0
        tangentMode: 0
      - time: 0.0375
        value: 0
        inSlope: 0
        outSlope: 0
        tangentMode: 0
      - time: 0.05
        value: 0
        inSlope: 0
        outSlope: 0
        tangentMode: 0
      - time: 0.0625
        value: 0
        inSlope: 0
        outSlope: 0
        tangentMode: 0
      - time: 0.075
        value: 0
        inSlope: 0
        outSlope: 0
        tangentMode: 0
      - time: 0.087500006
        value: 0
        inSlope: 0
        outSlope: 0
        tangentMode: 0
      - time: 0.10000001
        value: 0
        inSlope: 0
        outSlope: 0
        tangentMode: 0
      - time: 0.11250001
        value: 0
        inSlope: 0
        outSlope: 0
        tangentMode: 0
      - time: 0.12500001
        value: 0
        inSlope: 0
        outSlope: 0
        tangentMode: 0
      - time: 0.13750002
        value: 0
        inSlope: 0
        outSlope: 0
        tangentMode: 0
      - time: 0.15000002
        value: 0
        inSlope: 0
        outSlope: 0
        tangentMode: 0
      - time: 0.16250002
        value: 0
        inSlope: 0
        outSlope: 0
        tangentMode: 0
      - time: 0.17500003
        value: 0
        inSlope: 0
        outSlope: 0
        tangentMode: 0
      - time: 0.18750003
        value: 0
        inSlope: 0
        outSlope: 0
        tangentMode: 0
      - time: 0.20000003
        value: 0
        inSlope: 0
        outSlope: 0
        tangentMode: 0
      - time: 0.21250004
        value: 0
        inSlope: 0
        outSlope: 0
        tangentMode: 0
      - time: 0.22500004
        value: 0
        inSlope: 0
        outSlope: 0
        tangentMode: 0
      - time: 0.23750004
        value: 0
        inSlope: 0
        outSlope: 0
        tangentMode: 0
      - time: 0.25000003
        value: 0
        inSlope: 0
        outSlope: 0
        tangentMode: 0
      - time: 0.26250002
        value: 0
        inSlope: 0
        outSlope: 0
        tangentMode: 0
      - time: 0.275
        value: 0
        inSlope: 0
        outSlope: 0
        tangentMode: 0
      - time: 0.2875
        value: 0
        inSlope: 0
        outSlope: 0
        tangentMode: 0
      - time: 0.29999998
        value: 0
        inSlope: 0
        outSlope: 0
        tangentMode: 0
      - time: 0.31249997
        value: 0
        inSlope: 0
        outSlope: 0
        tangentMode: 0
      - time: 0.32499996
        value: 0
        inSlope: 0
        outSlope: 0
        tangentMode: 0
      - time: 0.33749995
        value: 0
        inSlope: 0
        outSlope: 0
        tangentMode: 0
      - time: 0.34999993
        value: 0
        inSlope: 0
        outSlope: 0
        tangentMode: 0
      - time: 0.36249992
        value: 0
        inSlope: 0
        outSlope: 0
        tangentMode: 0
      - time: 0.3749999
        value: 0
        inSlope: 0
        outSlope: 0
        tangentMode: 0
      - time: 0.3874999
        value: 0
        inSlope: 0
        outSlope: 0
        tangentMode: 0
      - time: 0.3999999
        value: 0
        inSlope: 0
        outSlope: 0
        tangentMode: 0
      - time: 0.41249987
        value: 0
        inSlope: 0
        outSlope: 0
        tangentMode: 0
      - time: 0.42499986
        value: 0
        inSlope: 0
        outSlope: 0
        tangentMode: 0
      - time: 0.43749985
        value: 0
        inSlope: 0
        outSlope: 0
        tangentMode: 0
      - time: 0.44999984
        value: 0
        inSlope: 0
        outSlope: 0
        tangentMode: 0
      - time: 0.46249983
        value: 0
        inSlope: 0
        outSlope: 0
        tangentMode: 0
      - time: 0.47499982
        value: 0
        inSlope: 0
        outSlope: 0
        tangentMode: 0
      - time: 0.4874998
        value: 0
        inSlope: 0
        outSlope: 0
        tangentMode: 0
      - time: 0.4999998
        value: 0
        inSlope: 0
        outSlope: 0
        tangentMode: 0
      - time: 0.5124998
        value: 0
        inSlope: 0
        outSlope: 0
        tangentMode: 0
      - time: 0.525
        value: 0
        inSlope: 0
        outSlope: 0
        tangentMode: 0
      m_PreInfinity: 2
      m_PostInfinity: 2
      m_RotationOrder: 4
    attribute: m_LocalRotation.y
    path: crown
    classID: 4
    script: {fileID: 0}
  - curve:
      serializedVersion: 2
      m_Curve:
      - time: 0
        value: -0.2036503
        inSlope: 0.01958251
        outSlope: 0.01958251
        tangentMode: 0
      - time: 0.0125
        value: -0.20340551
        inSlope: 0.03746748
        outSlope: 0.03746748
        tangentMode: 0
      - time: 0.025
        value: -0.20271361
        inSlope: 0.07068992
        outSlope: 0.07068992
        tangentMode: 0
      - time: 0.0375
        value: -0.20163827
        inSlope: 0.09881616
        outSlope: 0.09881616
        tangentMode: 0
      - time: 0.05
        value: -0.2002432
        inSlope: 0.121850386
        outSlope: 0.121850386
        tangentMode: 0
      - time: 0.0625
        value: -0.198592
        inSlope: 0.13979197
        outSlope: 0.13979197
        tangentMode: 0
      - time: 0.075
        value: -0.1967484
        inSlope: 0.15263376
        outSlope: 0.15263376
        tangentMode: 0
      - time: 0.087500006
        value: -0.19477616
        inSlope: 0.16037221
        outSlope: 0.16037221
        tangentMode: 0
      - time: 0.10000001
        value: -0.1927391
        inSlope: 0.1629978
        outSlope: 0.1629978
        tangentMode: 0
      - time: 0.11250001
        value: -0.19070122
        inSlope: 0.16050096
        outSlope: 0.16050096
        tangentMode: 0
      - time: 0.12500001
        value: -0.18872657
        inSlope: 0.15287575
        outSlope: 0.15287575
        tangentMode: 0
      - time: 0.13750002
        value: -0.18687932
        inSlope: 0.1401144
        outSlope: 0.1401144
        tangentMode: 0
      - time: 0.15000002
        value: -0.18522371
        inSlope: 0.122211546
        outSlope: 0.122211546
        tangentMode: 0
      - time: 0.16250002
        value: -0.18382403
        inSlope: 0.09916243
        outSlope: 0.09916243
        tangentMode: 0
      - time: 0.17500003
        value: -0.18274465
        inSlope: 0.07096647
        outSlope: 0.07096647
        tangentMode: 0
      - time: 0.18750003
        value: -0.18204987
        inSlope: 0.03762542
        outSlope: 0.03762542
        tangentMode: 0
      - time: 0.20000003
        value: -0.18180402
        inSlope: -0.00085532665
        outSlope: -0.00085532665
        tangentMode: 0
      - time: 0.21250004
        value: -0.18207125
        inSlope: -0.044466246
        outSlope: -0.044466246
        tangentMode: 0
      - time: 0.22500004
        value: -0.18291567
        inSlope: -0.09319184
        outSlope: -0.09319184
        tangentMode: 0
      - time: 0.23750004
        value: -0.18440105
        inSlope: -0.14701194
        outSlope: -0.14701194
        tangentMode: 0
      - time: 0.25000003
        value: -0.18659097
        inSlope: -0.20589967
        outSlope: -0.20589967
        tangentMode: 0
      - time: 0.26250002
        value: -0.18954854
        inSlope: -0.26981917
        outSlope: -0.26981917
        tangentMode: 0
      - time: 0.275
        value: -0.19333644
        inSlope: -0.3387234
        outSlope: -0.3387234
        tangentMode: 0
      - time: 0.2875
        value: -0.19801661
        inSlope: -0.41255394
        outSlope: -0.41255394
        tangentMode: 0
      - time: 0.29999998
        value: -0.20365028
        inSlope: -0.57839745
        outSlope: -0.57839745
        tangentMode: 0
      - time: 0.31249997
        value: -0.21247654
        inSlope: -0.88376963
        outSlope: -0.88376963
        tangentMode: 0
      - time: 0.32499996
        value: -0.2257445
        inSlope: -1.1821018
        outSlope: -1.1821018
        tangentMode: 0
      - time: 0.33749995
        value: -0.24202906
        inSlope: -1.3667722
        outSlope: -1.3667722
        tangentMode: 0
      - time: 0.34999993
        value: -0.25991377
        inSlope: -1.4388771
        outSlope: -1.4388771
        tangentMode: 0
      - time: 0.36249992
        value: -0.27800095
        inSlope: -1.4002254
        outSlope: -1.4002254
        tangentMode: 0
      - time: 0.3749999
        value: -0.29491937
        inSlope: -1.2530422
        outSlope: -1.2530422
        tangentMode: 0
      - time: 0.3874999
        value: -0.30932698
        inSlope: -0.9994874
        outSlope: -0.9994874
        tangentMode: 0
      - time: 0.3999999
        value: -0.31990653
        inSlope: -0.6410068
        outSlope: -0.6410068
        tangentMode: 0
      - time: 0.41249987
        value: -0.32535213
        inSlope: -0.17761129
        outSlope: -0.17761129
        tangentMode: 0
      - time: 0.42499986
        value: -0.3243468
        inSlope: 0.5209081
        outSlope: 0.5209081
        tangentMode: 0
      - time: 0.43749985
        value: -0.31232944
        inSlope: 1.392435
        outSlope: 1.392435
        tangentMode: 0
      - time: 0.44999984
        value: -0.28953597
        inSlope: 2.0179398
        outSlope: 2.0179398
        tangentMode: 0
      - time: 0.46249983
        value: -0.261881
        inSlope: 2.1632562
        outSlope: 2.1632562
        tangentMode: 0
      - time: 0.47499982
        value: -0.23545462
        inSlope: 1.8145787
        outSlope: 1.8145787
        tangentMode: 0
      - time: 0.4874998
        value: -0.21651657
        inSlope: 1.085587
        outSlope: 1.085587
        tangentMode: 0
      - time: 0.4999998
        value: -0.20831497
        inSlope: 0.42133468
        outSlope: 0.42133468
        tangentMode: 0
      - time: 0.5124998
        value: -0.2059832
        inSlope: 0.1865856
        outSlope: 0.1865856
        tangentMode: 0
      - time: 0.525
        value: -0.2036503
        inSlope: 0.18663038
        outSlope: 0.18663038
        tangentMode: 0
      m_PreInfinity: 2
      m_PostInfinity: 2
      m_RotationOrder: 4
    attribute: m_LocalRotation.z
    path: crown
    classID: 4
    script: {fileID: 0}
  - curve:
      serializedVersion: 2
      m_Curve:
      - time: 0
        value: 0.9790437
        inSlope: 0.004067421
        outSlope: 0.004067421
        tangentMode: 0
      - time: 0.0125
        value: 0.97909456
        inSlope: 0.00777483
        outSlope: 0.00777483
        tangentMode: 0
      - time: 0.025
        value: 0.9792381
        inSlope: 0.014619826
        outSlope: 0.014619826
        tangentMode: 0
      - time: 0.0375
        value: 0.97946006
        inSlope: 0.020325184
        outSlope: 0.020325184
        tangentMode: 0
      - time: 0.05
        value: 0.9797462
        inSlope: 0.024888517
        outSlope: 0.024888517
        tangentMode: 0
      - time: 0.0625
        value: 0.9800823
        inSlope: 0.028312203
        outSlope: 0.028312203
        tangentMode: 0
      - time: 0.075
        value: 0.980454
        inSlope: 0.030617706
        outSlope: 0.030617706
        tangentMode: 0
      - time: 0.087500006
        value: 0.9808477
        inSlope: 0.031840794
        outSlope: 0.031840794
        tangentMode: 0
      - time: 0.10000001
        value: 0.98125005
        inSlope: 0.032017224
        outSlope: 0.032017224
        tangentMode: 0
      - time: 0.11250001
        value: 0.98164815
        inSlope: 0.031185143
        outSlope: 0.031185143
        tangentMode: 0
      - time: 0.12500001
        value: 0.9820297
        inSlope: 0.02938985
        outSlope: 0.02938985
        tangentMode: 0
      - time: 0.13750002
        value: 0.9823829
        inSlope: 0.02666711
        outSlope: 0.02666711
        tangentMode: 0
      - time: 0.15000002
        value: 0.98269635
        inSlope: 0.023050303
        outSlope: 0.023050303
        tangentMode: 0
      - time: 0.16250002
        value: 0.98295915
        inSlope: 0.018563267
        outSlope: 0.018563267
        tangentMode: 0
      - time: 0.17500003
        value: 0.98316044
        inSlope: 0.013206001
        outSlope: 0.013206001
        tangentMode: 0
      - time: 0.18750003
        value: 0.9832893
        inSlope: 0.0069737416
        outSlope: 0.0069737416
        tangentMode: 0
      - time: 0.20000003
        value: 0.9833348
        inSlope: -0.00015735626
        outSlope: -0.00015735626
        tangentMode: 0
      - time: 0.21250004
        value: 0.98328537
        inSlope: -0.008246897
        outSlope: -0.008246897
        tangentMode: 0
      - time: 0.22500004
        value: 0.9831286
        inSlope: -0.017371174
        outSlope: -0.017371174
        tangentMode: 0
      - time: 0.23750004
        value: 0.9828511
        inSlope: -0.027637493
        outSlope: -0.027637493
        tangentMode: 0
      - time: 0.25000003
        value: 0.9824377
        inSlope: -0.0391889
        outSlope: -0.0391889
        tangentMode: 0
      - time: 0.26250002
        value: 0.98187137
        inSlope: -0.05220657
        outSlope: -0.05220657
        tangentMode: 0
      - time: 0.275
        value: 0.9811325
        inSlope: -0.06690747
        outSlope: -0.06690747
        tangentMode: 0
      - time: 0.2875
        value: 0.9801987
        inSlope: -0.08355149
        outSlope: -0.08355149
        tangentMode: 0
      - time: 0.29999998
        value: 0.9790437
        inSlope: -0.12130034
        outSlope: -0.12130034
        tangentMode: 0
      - time: 0.31249997
        value: 0.9771662
        inSlope: -0.19428748
        outSlope: -0.19428748
        tangentMode: 0
      - time: 0.32499996
        value: 0.97418654
        inSlope: -0.27588633
        outSlope: -0.27588633
        tangentMode: 0
      - time: 0.33749995
        value: 0.970269
        inSlope: -0.3421882
        outSlope: -0.3421882
        tangentMode: 0
      - time: 0.34999993
        value: 0.96563184
        inSlope: -0.3875283
        outSlope: -0.3875283
        tangentMode: 0
      - time: 0.36249992
        value: 0.9605808
        inSlope: -0.4043893
        outSlope: -0.4043893
        tangentMode: 0
      - time: 0.3749999
        value: 0.9555221
        inSlope: -0.38500345
        outSlope: -0.38500345
        tangentMode: 0
      - time: 0.3874999
        value: 0.95095575
        inSlope: -0.32292157
        outSlope: -0.32292157
        tangentMode: 0
      - time: 0.3999999
        value: 0.9474491
        inSlope: -0.21451256
        outSlope: -0.21451256
        tangentMode: 0
      - time: 0.41249987
        value: 0.94559294
        inSlope: -0.0604344
        outSlope: -0.0604344
        tangentMode: 0
      - time: 0.42499986
        value: 0.9459382
        inSlope: 0.17523782
        outSlope: 0.17523782
        tangentMode: 0
      - time: 0.43749985
        value: 0.9499739
        inSlope: 0.44915718
        outSlope: 0.44915718
        tangentMode: 0
      - time: 0.44999984
        value: 0.95716715
        inSlope: 0.6050521
        outSlope: 0.6050521
        tangentMode: 0
      - time: 0.46249983
        value: 0.96510017
        inSlope: 0.5887276
        outSlope: 0.5887276
        tangentMode: 0
      - time: 0.47499982
        value: 0.9718853
        inSlope: 0.44715208
        outSlope: 0.44715208
        tangentMode: 0
      - time: 0.4874998
        value: 0.97627896
        inSlope: 0.2470591
        outSlope: 0.2470591
        tangentMode: 0
      - time: 0.4999998
        value: 0.9780618
        inSlope: 0.09106163
        outSlope: 0.09106163
        tangentMode: 0
      - time: 0.5124998
        value: 0.9785555
        inSlope: 0.039276786
        outSlope: 0.039276786
        tangentMode: 0
      - time: 0.525
        value: 0.9790437
        inSlope: 0.03905721
        outSlope: 0.03905721
        tangentMode: 0
      m_PreInfinity: 2
      m_PostInfinity: 2
      m_RotationOrder: 4
    attribute: m_LocalRotation.w
    path: crown
    classID: 4
    script: {fileID: 0}
  m_EulerEditorCurves:
  - curve:
      serializedVersion: 2
      m_Curve:
      - time: 0
        value: 0
        inSlope: 0
        outSlope: 0
        tangentMode: 0
      - time: 0.1875
        value: -0
        inSlope: 0
        outSlope: 0
        tangentMode: 0
      - time: 0.3125
        value: -0
        inSlope: 0
        outSlope: 0
        tangentMode: 0
      - time: 0.4375
        value: -0
        inSlope: 0
        outSlope: 0
        tangentMode: 0
      m_PreInfinity: 2
      m_PostInfinity: 2
      m_RotationOrder: 4
    attribute: localEulerAnglesBaked.x
    path: Character/body
    classID: 4
    script: {fileID: 0}
  - curve:
      serializedVersion: 2
      m_Curve:
      - time: 0
        value: 0
        inSlope: 0
        outSlope: 0
        tangentMode: 0
      - time: 0.1875
        value: 0
        inSlope: 0
        outSlope: 0
        tangentMode: 0
      - time: 0.3125
        value: 0
        inSlope: 0
        outSlope: 0
        tangentMode: 0
      - time: 0.4375
        value: 0
        inSlope: 0
        outSlope: 0
        tangentMode: 0
      m_PreInfinity: 2
      m_PostInfinity: 2
      m_RotationOrder: 4
    attribute: localEulerAnglesBaked.y
    path: Character/body
    classID: 4
    script: {fileID: 0}
  - curve:
      serializedVersion: 2
      m_Curve:
      - time: 0
        value: 359.66196
        inSlope: 0
        outSlope: 0
        tangentMode: 0
      - time: 0.1875
        value: 359.743
        inSlope: 0
        outSlope: 0
        tangentMode: 0
      - time: 0.3125
        value: 352.68732
        inSlope: 0
        outSlope: 0
        tangentMode: 0
      - time: 0.4375
        value: 357.93527
        inSlope: 0
        outSlope: 0
        tangentMode: 0
      m_PreInfinity: 2
      m_PostInfinity: 2
      m_RotationOrder: 4
    attribute: localEulerAnglesBaked.z
    path: Character/body
    classID: 4
    script: {fileID: 0}
  - curve:
      serializedVersion: 2
      m_Curve:
      - time: 0
        value: 0
        inSlope: -0
        outSlope: -0
        tangentMode: 10
      - time: 0.225
        value: -0
        inSlope: 0
        outSlope: 0
        tangentMode: 10
      - time: 0.3125
        value: 0
        inSlope: 0
        outSlope: 0
        tangentMode: 10
      - time: 0.35
        value: 0
        inSlope: 0
        outSlope: 0
        tangentMode: 10
      - time: 0.475
        value: 0
        inSlope: 0
        outSlope: 0
        tangentMode: 10
      m_PreInfinity: 2
      m_PostInfinity: 2
      m_RotationOrder: 4
    attribute: localEulerAnglesBaked.x
    path: Character/head
    classID: 4
    script: {fileID: 0}
  - curve:
      serializedVersion: 2
      m_Curve:
      - time: 0
        value: 0
        inSlope: 0
        outSlope: 0
        tangentMode: 10
      - time: 0.225
        value: 0
        inSlope: 0
        outSlope: 0
        tangentMode: 10
      - time: 0.3125
        value: 0
        inSlope: 0
        outSlope: 0
        tangentMode: 10
      - time: 0.35
        value: 0
        inSlope: 0
        outSlope: 0
        tangentMode: 10
      - time: 0.475
        value: 0
        inSlope: 0
        outSlope: 0
        tangentMode: 10
      m_PreInfinity: 2
      m_PostInfinity: 2
      m_RotationOrder: 4
    attribute: localEulerAnglesBaked.y
    path: Character/head
    classID: 4
    script: {fileID: 0}
  - curve:
      serializedVersion: 2
      m_Curve:
      - time: 0
        value: 359.71194
        inSlope: 0.13821073
        outSlope: 0.13821073
        tangentMode: 10
      - time: 0.225
        value: 359.74304
        inSlope: -47.151
        outSlope: -47.151
        tangentMode: 10
      - time: 0.3125
        value: 351.47952
        inSlope: -141.54834
        outSlope: -141.54834
        tangentMode: 10
      - time: 0.35
        value: 344.4049
        inSlope: -31.88755
        outSlope: -31.88755
        tangentMode: 10
      - time: 0.475
        value: 360.01508
        inSlope: 124.88135
        outSlope: 124.88135
        tangentMode: 10
      m_PreInfinity: 2
      m_PostInfinity: 2
      m_RotationOrder: 4
    attribute: localEulerAnglesBaked.z
    path: Character/head
    classID: 4
    script: {fileID: 0}
  - curve:
      serializedVersion: 2
      m_Curve:
      - time: 0
        value: 0
        inSlope: 0
        outSlope: 0
        tangentMode: 10
      - time: 0.3
        value: 0
        inSlope: 0
        outSlope: 0
        tangentMode: 10
      - time: 0.425
        value: 0
        inSlope: 0
        outSlope: 0
        tangentMode: 10
      - time: 0.4875
        value: 0
        inSlope: 0
        outSlope: 0
        tangentMode: 10
      - time: 0.525
        value: 0
        inSlope: 0
        outSlope: 0
        tangentMode: 10
      m_PreInfinity: 2
      m_PostInfinity: 2
      m_RotationOrder: 4
    attribute: localEulerAnglesBaked.x
    path: crown
    classID: 4
    script: {fileID: 0}
  - curve:
      serializedVersion: 2
      m_Curve:
      - time: 0
        value: 0
        inSlope: 0
        outSlope: 0
        tangentMode: 10
      - time: 0.3
        value: 0
        inSlope: 0
        outSlope: 0
        tangentMode: 10
      - time: 0.425
        value: 0
        inSlope: 0
        outSlope: 0
        tangentMode: 10
      - time: 0.4875
        value: 0
        inSlope: 0
        outSlope: 0
        tangentMode: 10
      - time: 0.525
        value: 0
        inSlope: 0
        outSlope: 0
        tangentMode: 10
      m_PreInfinity: 2
      m_PostInfinity: 2
      m_RotationOrder: 4
    attribute: localEulerAnglesBaked.y
    path: crown
    classID: 4
    script: {fileID: 0}
  - curve:
      serializedVersion: 2
      m_Curve:
      - time: 0
        value: -23.501001
        inSlope: 0
        outSlope: 0
        tangentMode: 10
      - time: 0.3
        value: -23.501001
        inSlope: -57.404
        outSlope: -57.404
        tangentMode: 10
      - time: 0.425
        value: -37.852
        inSlope: 45.340004
        outSlope: 45.340004
        tangentMode: 10
      - time: 0.4875
        value: -25.009
        inSlope: 122.85068
        outSlope: 122.85068
        tangentMode: 10
      - time: 0.525
        value: -23.501001
        inSlope: 40.213356
        outSlope: 40.213356
        tangentMode: 10
      m_PreInfinity: 2
      m_PostInfinity: 2
      m_RotationOrder: 4
    attribute: localEulerAnglesBaked.z
    path: crown
    classID: 4
    script: {fileID: 0}
  m_HasGenericRootTransform: 0
  m_HasMotionFloatCurves: 0
  m_GenerateMotionCurves: 0
  m_Events: []
