%YAML 1.1
%TAG !u! tag:unity3d.com,2011:
--- !u!74 &7400000
AnimationClip:
  m_ObjectHideFlags: 0
  m_PrefabParentObject: {fileID: 0}
  m_PrefabInternal: {fileID: 0}
  m_Name: EndMatch
  serializedVersion: 6
  m_Legacy: 1
  m_Compressed: 0
  m_UseHighQualityCurve: 1
  m_RotationCurves: []
  m_CompressedRotationCurves: []
  m_EulerCurves: []
  m_PositionCurves:
  - curve:
      serializedVersion: 2
      m_Curve:
      - time: 0
        value: {x: 0, y: -103.4, z: 0}
        inSlope: {x: 0, y: 0, z: 0}
        outSlope: {x: 0, y: 0, z: 0}
        tangentMode: 0
      - time: 1.5
        value: {x: 0, y: -103.4, z: 0}
        inSlope: {x: 0, y: -10.599249, z: 0}
        outSlope: {x: 0, y: -10.599249, z: 0}
        tangentMode: 0
      - time: 1.7
        value: {x: 0, y: 45.4, z: 0}
        inSlope: {x: 0, y: 371.9999, z: 0}
        outSlope: {x: 0, y: 371.9999, z: 0}
        tangentMode: 0
      - time: 1.82
        value: {x: 0, y: 45.4, z: 0}
        inSlope: {x: 0, y: 0, z: 0}
        outSlope: {x: 0, y: 0, z: 0}
        tangentMode: 0
      - time: 2.38
        value: {x: 0, y: 45.4, z: 0}
        inSlope: {x: 0, y: 0, z: 0}
        outSlope: {x: 0, y: 0, z: 0}
        tangentMode: 0
      m_PreInfinity: 2
      m_PostInfinity: 2
      m_RotationOrder: 4
    path: mainWidget/Top_box
  - curve:
      serializedVersion: 2
      m_Curve:
      - time: 0
        value: {x: 0, y: -112.4, z: 0}
        inSlope: {x: 303.3654, y: 0, z: 0}
        outSlope: {x: 303.3654, y: 0, z: 0}
        tangentMode: 0
      - time: 2.08
        value: {x: 631, y: -112.4, z: 0}
        inSlope: {x: 303.3654, y: 0, z: 0}
        outSlope: {x: 0, y: 0, z: 0}
        tangentMode: 0
      - time: 2.38
        value: {x: 0, y: -112.4, z: 0}
        inSlope: {x: -1051.666, y: 0, z: 0}
        outSlope: {x: -1051.666, y: 0, z: 0}
        tangentMode: 0
      - time: 2.66
        value: {x: 0, y: -112.4, z: 0}
        inSlope: {x: 0, y: 0, z: 0}
        outSlope: {x: 0, y: 0, z: 0}
        tangentMode: 0
      m_PreInfinity: 2
      m_PostInfinity: 2
      m_RotationOrder: 4
    path: mainWidget/Rank_box
  m_ScaleCurves:
  - curve:
      serializedVersion: 2
      m_Curve:
      - time: 0
        value: {x: 0.39198008, y: 0.3919801, z: 0.3919801}
        inSlope: {x: 1.2671275, y: 1.2671274, z: 1.2671274}
        outSlope: {x: 1.2671275, y: 1.2671274, z: 1.2671274}
        tangentMode: 0
      - time: 0.66
        value: {x: 1.2282842, y: 1.2282842, z: 1.2282842}
        inSlope: {x: -0.07982463, y: -0.079824686, z: -0.079824686}
        outSlope: {x: -0.07982463, y: -0.079824686, z: -0.079824686}
        tangentMode: 0
      - time: 0.82
        value: {x: 1, y: 1, z: 1}
        inSlope: {x: -0.7133884, y: -0.7133884, z: -0.7133884}
        outSlope: {x: -0, y: -0, z: -0}
        tangentMode: 0
      - time: 2.38
        value: {x: 1, y: 1, z: 1}
        inSlope: {x: 0, y: 0, z: 0}
        outSlope: {x: 0, y: 0, z: 0}
        tangentMode: 0
      m_PreInfinity: 2
      m_PostInfinity: 2
      m_RotationOrder: 4
    path: mainWidget/Top_box/Stars
  - curve:
      serializedVersion: 2
      m_Curve:
      - time: 0
        value: {x: 1, y: 1, z: 1}
        inSlope: {x: 0, y: 0, z: 0}
        outSlope: {x: 0, y: 0, z: 0}
        tangentMode: 0
      - time: 0.82
        value: {x: 1, y: 1, z: 1}
        inSlope: {x: 1.3873684, y: 1.387369, z: 1.387369}
        outSlope: {x: 1.3873684, y: 1.387369, z: 1.387369}
        tangentMode: 0
      - time: 1.04
        value: {x: 1.610442, y: 1.6104423, z: 1.6104423}
        inSlope: {x: -0.30830324, y: -0.30830336, z: -0.30830336}
        outSlope: {x: -0.30830324, y: -0.30830336, z: -0.30830336}
        tangentMode: 0
      - time: 1.22
        value: {x: 1, y: 1, z: 1}
        inSlope: {x: -3.0522103, y: -3.0522115, z: -3.0522115}
        outSlope: {x: -0, y: -0, z: -0}
        tangentMode: 0
      - time: 2.38
        value: {x: 1, y: 1, z: 1}
        inSlope: {x: 0, y: 0, z: 0}
        outSlope: {x: 0, y: 0, z: 0}
        tangentMode: 0
      m_PreInfinity: 2
      m_PostInfinity: 2
      m_RotationOrder: 4
    path: mainWidget/Top_box/main_text
  m_FloatCurves:
  - curve:
      serializedVersion: 2
      m_Curve:
      - time: 0
        value: 0
        inSlope: 0
        outSlope: 0
        tangentMode: 10
      - time: 2.38
        value: 0
        inSlope: 0
        outSlope: 0
        tangentMode: 10
      m_PreInfinity: 2
      m_PostInfinity: 2
      m_RotationOrder: 4
    attribute: alpha
    path: mainWidget/Rank_box/FinalPos
    classID: 114
    script: {fileID: 11500000, guid: 6f9aef6d5962d8849aa830ef46c7c993, type: 3}
  - curve:
      serializedVersion: 2
      m_Curve:
      - time: 0
        value: 0
        inSlope: 0
        outSlope: 0
        tangentMode: 10
      - time: 2.08
        value: 0
        inSlope: 0
        outSlope: 0
        tangentMode: 5
      - time: 2.38
        value: 1
        inSlope: 0
        outSlope: 0
        tangentMode: 1
      m_PreInfinity: 2
      m_PostInfinity: 2
      m_RotationOrder: 4
    attribute: alpha
    path: mainWidget/Rank_box
    classID: 114
    script: {fileID: 11500000, guid: 6f9aef6d5962d8849aa830ef46c7c993, type: 3}
  - curve:
      serializedVersion: 2
      m_Curve:
      - time: 0
        value: 0
        inSlope: 2
        outSlope: 2
        tangentMode: 10
      - time: 0.5
        value: 1
        inSlope: 1
        outSlope: 1
        tangentMode: 10
      - time: 2.38
        value: 1
        inSlope: 0
        outSlope: 0
        tangentMode: 10
      m_PreInfinity: 2
      m_PostInfinity: 2
      m_RotationOrder: 4
    attribute: alpha
    path: mainWidget/Top_box
    classID: 114
    script: {fileID: 11500000, guid: 6f9aef6d5962d8849aa830ef46c7c993, type: 3}
  m_PPtrCurves: []
  m_SampleRate: 50
  m_WrapMode: 0
  m_Bounds:
    m_Center: {x: 0, y: 0, z: 0}
    m_Extent: {x: 0, y: 0, z: 0}
  m_ClipBindingConstant:
    genericBindings: []
    pptrCurveMapping: []
  m_AnimationClipSettings:
    serializedVersion: 2
    m_AdditiveReferencePoseClip: {fileID: 0}
    m_AdditiveReferencePoseTime: 0
    m_StartTime: 0
    m_StopTime: 2.66
    m_OrientationOffsetY: 0
    m_Level: 0
    m_CycleOffset: 0
    m_HasAdditiveReferencePose: 0
    m_LoopTime: 1
    m_LoopBlend: 0
    m_LoopBlendOrientation: 0
    m_LoopBlendPositionY: 0
    m_LoopBlendPositionXZ: 0
    m_KeepOriginalOrientation: 0
    m_KeepOriginalPositionY: 1
    m_KeepOriginalPositionXZ: 0
    m_HeightFromFeet: 0
    m_Mirror: 0
  m_EditorCurves:
  - curve:
      serializedVersion: 2
      m_Curve:
      - time: 0
        value: 0
        inSlope: 0
        outSlope: 0
        tangentMode: 10
      - time: 2.38
        value: 0
        inSlope: 0
        outSlope: 0
        tangentMode: 10
      m_PreInfinity: 2
      m_PostInfinity: 2
      m_RotationOrder: 4
    attribute: alpha
    path: mainWidget/Rank_box/FinalPos
    classID: 114
    script: {fileID: 11500000, guid: 6f9aef6d5962d8849aa830ef46c7c993, type: 3}
  - curve:
      serializedVersion: 2
      m_Curve:
      - time: 0
        value: 0
        inSlope: 0
        outSlope: 0
        tangentMode: 10
      - time: 2.08
        value: 0
        inSlope: 0
        outSlope: 0
        tangentMode: 5
      - time: 2.38
        value: 1
        inSlope: 0
        outSlope: 0
        tangentMode: 1
      m_PreInfinity: 2
      m_PostInfinity: 2
      m_RotationOrder: 4
    attribute: alpha
    path: mainWidget/Rank_box
    classID: 114
    script: {fileID: 11500000, guid: 6f9aef6d5962d8849aa830ef46c7c993, type: 3}
  - curve:
      serializedVersion: 2
      m_Curve:
      - time: 0
        value: 0
        inSlope: 0
        outSlope: 0
        tangentMode: 10
      - time: 1.5
        value: 0
        inSlope: 0
        outSlope: 0
        tangentMode: 10
      - time: 1.7
        value: 0
        inSlope: 0
        outSlope: 0
        tangentMode: 10
      - time: 1.82
        value: 0
        inSlope: 0
        outSlope: 0
        tangentMode: 10
      - time: 2.38
        value: 0
        inSlope: 0
        outSlope: 0
        tangentMode: 10
      m_PreInfinity: 2
      m_PostInfinity: 2
      m_RotationOrder: 4
    attribute: m_LocalPosition.x
    path: mainWidget/Top_box
    classID: 4
    script: {fileID: 0}
  - curve:
      serializedVersion: 2
      m_Curve:
      - time: 0
        value: -103.4
        inSlope: 0
        outSlope: 0
        tangentMode: 10
      - time: 1.5
        value: -103.4
        inSlope: -10.599249
        outSlope: -10.599249
        tangentMode: 0
      - time: 1.7
        value: 45.4
        inSlope: 371.9999
        outSlope: 371.9999
        tangentMode: 10
      - time: 1.82
        value: 45.4
        inSlope: 0
        outSlope: 0
        tangentMode: 10
      - time: 2.38
        value: 45.4
        inSlope: 0
        outSlope: 0
        tangentMode: 10
      m_PreInfinity: 2
      m_PostInfinity: 2
      m_RotationOrder: 4
    attribute: m_LocalPosition.y
    path: mainWidget/Top_box
    classID: 4
    script: {fileID: 0}
  - curve:
      serializedVersion: 2
      m_Curve:
      - time: 0
        value: 0
        inSlope: 0
        outSlope: 0
        tangentMode: 10
      - time: 1.5
        value: 0
        inSlope: 0
        outSlope: 0
        tangentMode: 10
      - time: 1.7
        value: 0
        inSlope: 0
        outSlope: 0
        tangentMode: 10
      - time: 1.82
        value: 0
        inSlope: 0
        outSlope: 0
        tangentMode: 10
      - time: 2.38
        value: 0
        inSlope: 0
        outSlope: 0
        tangentMode: 10
      m_PreInfinity: 2
      m_PostInfinity: 2
      m_RotationOrder: 4
    attribute: m_LocalPosition.z
    path: mainWidget/Top_box
    classID: 4
    script: {fileID: 0}
  - curve:
      serializedVersion: 2
      m_Curve:
      - time: 0
        value: 0.39198008
        inSlope: 1.2671275
        outSlope: 1.2671275
        tangentMode: 10
      - time: 0.66
        value: 1.2282842
        inSlope: -0.07982463
        outSlope: -0.07982463
        tangentMode: 10
      - time: 0.82
        value: 1
        inSlope: -0.7133884
        outSlope: -0
        tangentMode: 17
      - time: 2.38
        value: 1
        inSlope: 0
        outSlope: 0
        tangentMode: 10
      m_PreInfinity: 2
      m_PostInfinity: 2
      m_RotationOrder: 4
    attribute: m_LocalScale.x
    path: mainWidget/Top_box/Stars
    classID: 4
    script: {fileID: 0}
  - curve:
      serializedVersion: 2
      m_Curve:
      - time: 0
        value: 0.3919801
        inSlope: 1.2671274
        outSlope: 1.2671274
        tangentMode: 10
      - time: 0.66
        value: 1.2282842
        inSlope: -0.079824686
        outSlope: -0.079824686
        tangentMode: 10
      - time: 0.82
        value: 1
        inSlope: -0.7133884
        outSlope: -0
        tangentMode: 17
      - time: 2.38
        value: 1
        inSlope: 0
        outSlope: 0
        tangentMode: 10
      m_PreInfinity: 2
      m_PostInfinity: 2
      m_RotationOrder: 4
    attribute: m_LocalScale.y
    path: mainWidget/Top_box/Stars
    classID: 4
    script: {fileID: 0}
  - curve:
      serializedVersion: 2
      m_Curve:
      - time: 0
        value: 0.3919801
        inSlope: 1.2671274
        outSlope: 1.2671274
        tangentMode: 10
      - time: 0.66
        value: 1.2282842
        inSlope: -0.079824686
        outSlope: -0.079824686
        tangentMode: 10
      - time: 0.82
        value: 1
        inSlope: -0.7133884
        outSlope: -0
        tangentMode: 17
      - time: 2.38
        value: 1
        inSlope: 0
        outSlope: 0
        tangentMode: 10
      m_PreInfinity: 2
      m_PostInfinity: 2
      m_RotationOrder: 4
    attribute: m_LocalScale.z
    path: mainWidget/Top_box/Stars
    classID: 4
    script: {fileID: 0}
  - curve:
      serializedVersion: 2
      m_Curve:
      - time: 0
        value: 0
        inSlope: 2
        outSlope: 2
        tangentMode: 10
      - time: 0.5
        value: 1
        inSlope: 1
        outSlope: 1
        tangentMode: 10
      - time: 2.38
        value: 1
        inSlope: 0
        outSlope: 0
        tangentMode: 10
      m_PreInfinity: 2
      m_PostInfinity: 2
      m_RotationOrder: 4
    attribute: alpha
    path: mainWidget/Top_box
    classID: 114
    script: {fileID: 11500000, guid: 6f9aef6d5962d8849aa830ef46c7c993, type: 3}
  - curve:
      serializedVersion: 2
      m_Curve:
      - time: 0
        value: 1
        inSlope: 0
        outSlope: 0
        tangentMode: 10
      - time: 0.82
        value: 1
        inSlope: 1.3873684
        outSlope: 1.3873684
        tangentMode: 10
      - time: 1.04
        value: 1.610442
        inSlope: -0.30830324
        outSlope: -0.30830324
        tangentMode: 10
      - time: 1.22
        value: 1
        inSlope: -3.0522103
        outSlope: -0
        tangentMode: 17
      - time: 2.38
        value: 1
        inSlope: 0
        outSlope: 0
        tangentMode: 10
      m_PreInfinity: 2
      m_PostInfinity: 2
      m_RotationOrder: 4
    attribute: m_LocalScale.x
    path: mainWidget/Top_box/main_text
    classID: 4
    script: {fileID: 0}
  - curve:
      serializedVersion: 2
      m_Curve:
      - time: 0
        value: 1
        inSlope: 0
        outSlope: 0
        tangentMode: 10
      - time: 0.82
        value: 1
        inSlope: 1.387369
        outSlope: 1.387369
        tangentMode: 10
      - time: 1.04
        value: 1.6104423
        inSlope: -0.30830336
        outSlope: -0.30830336
        tangentMode: 10
      - time: 1.22
        value: 1
        inSlope: -3.0522115
        outSlope: -0
        tangentMode: 17
      - time: 2.38
        value: 1
        inSlope: 0
        outSlope: 0
        tangentMode: 10
      m_PreInfinity: 2
      m_PostInfinity: 2
      m_RotationOrder: 4
    attribute: m_LocalScale.y
    path: mainWidget/Top_box/main_text
    classID: 4
    script: {fileID: 0}
  - curve:
      serializedVersion: 2
      m_Curve:
      - time: 0
        value: 1
        inSlope: 0
        outSlope: 0
        tangentMode: 10
      - time: 0.82
        value: 1
        inSlope: 1.387369
        outSlope: 1.387369
        tangentMode: 10
      - time: 1.04
        value: 1.6104423
        inSlope: -0.30830336
        outSlope: -0.30830336
        tangentMode: 10
      - time: 1.22
        value: 1
        inSlope: -3.0522115
        outSlope: -0
        tangentMode: 17
      - time: 2.38
        value: 1
        inSlope: 0
        outSlope: 0
        tangentMode: 10
      m_PreInfinity: 2
      m_PostInfinity: 2
      m_RotationOrder: 4
    attribute: m_LocalScale.z
    path: mainWidget/Top_box/main_text
    classID: 4
    script: {fileID: 0}
  - curve:
      serializedVersion: 2
      m_Curve:
      - time: 0
        value: 0
        inSlope: 303.3654
        outSlope: 303.3654
        tangentMode: 10
      - time: 2.08
        value: 631
        inSlope: 303.3654
        outSlope: 0
        tangentMode: 5
      - time: 2.38
        value: 0
        inSlope: -1051.666
        outSlope: -1051.666
        tangentMode: 10
      - time: 2.66
        value: 0
        inSlope: 0
        outSlope: 0
        tangentMode: 10
      m_PreInfinity: 2
      m_PostInfinity: 2
      m_RotationOrder: 4
    attribute: m_LocalPosition.x
    path: mainWidget/Rank_box
    classID: 4
    script: {fileID: 0}
  - curve:
      serializedVersion: 2
      m_Curve:
      - time: 0
        value: -112.4
        inSlope: 0
        outSlope: 0
        tangentMode: 10
      - time: 2.08
        value: -112.4
        inSlope: 0
        outSlope: 0
        tangentMode: 5
      - time: 2.38
        value: -112.4
        inSlope: 0
        outSlope: 0
        tangentMode: 10
      - time: 2.66
        value: -112.4
        inSlope: 0
        outSlope: 0
        tangentMode: 10
      m_PreInfinity: 2
      m_PostInfinity: 2
      m_RotationOrder: 4
    attribute: m_LocalPosition.y
    path: mainWidget/Rank_box
    classID: 4
    script: {fileID: 0}
  - curve:
      serializedVersion: 2
      m_Curve:
      - time: 0
        value: 0
        inSlope: 0
        outSlope: 0
        tangentMode: 10
      - time: 2.08
        value: 0
        inSlope: 0
        outSlope: 0
        tangentMode: 5
      - time: 2.38
        value: 0
        inSlope: 0
        outSlope: 0
        tangentMode: 10
      - time: 2.66
        value: 0
        inSlope: 0
        outSlope: 0
        tangentMode: 10
      m_PreInfinity: 2
      m_PostInfinity: 2
      m_RotationOrder: 4
    attribute: m_LocalPosition.z
    path: mainWidget/Rank_box
    classID: 4
    script: {fileID: 0}
  m_EulerEditorCurves: []
  m_HasGenericRootTransform: 0
  m_HasMotionFloatCurves: 0
  m_GenerateMotionCurves: 0
  m_Events:
  - time: 2.66
    functionName: startScoreCount
    data: 
    objectReferenceParameter: {fileID: 0}
    floatParameter: 0
    intParameter: 0
    messageOptions: 0
