%YAML 1.1
%TAG !u! tag:unity3d.com,2011:
--- !u!74 &7400000
AnimationClip:
  m_ObjectHideFlags: 0
  m_PrefabParentObject: {fileID: 0}
  m_PrefabInternal: {fileID: 0}
  m_Name: loader2
  serializedVersion: 6
  m_Legacy: 1
  m_Compressed: 0
  m_UseHighQualityCurve: 1
  m_RotationCurves:
  - curve:
      serializedVersion: 2
      m_Curve:
      - time: 0
        value: {x: -0, y: -0, z: -0, w: -1}
        inSlope: {x: 0, y: 0, z: -1.5706171, w: 0.020560024}
        outSlope: {x: 0, y: 0, z: -1.5706171, w: 0.020560024}
        tangentMode: 207315928
      - time: 0.016666668
        value: {x: -0, y: -0, z: -0.026176952, w: -0.99965733}
        inSlope: {x: 0, y: 0, z: -1.5700788, w: 0.041114684}
        outSlope: {x: 0, y: 0, z: -1.5700788, w: 0.041114684}
        tangentMode: 207410004
      - time: 0.033333335
        value: {x: -0, y: -0, z: -0.052335963, w: -0.9986295}
        inSlope: {x: 0, y: 0, z: -1.5684645, w: 0.08220076}
        outSlope: {x: 0, y: 0, z: -1.5684645, w: 0.08220076}
        tangentMode: 285734400
      - time: 0.050000004
        value: {x: -0, y: -0, z: -0.07845911, w: -0.9969173}
        inSlope: {x: 0, y: 0, z: -1.5657752, w: 0.123227835}
        outSlope: {x: 0, y: 0, z: -1.5657752, w: 0.123227835}
        tangentMode: 207211300
      - time: 0.06666667
        value: {x: -0, y: -0, z: -0.10452847, w: -0.9945219}
        inSlope: {x: 0, y: 0, z: -1.5620129, w: 0.16417266}
        outSlope: {x: 0, y: 0, z: -1.5620129, w: 0.16417266}
        tangentMode: 207565408
      - time: 0.083333336
        value: {x: -0, y: -0, z: -0.1305262, w: -0.9914449}
        inSlope: {x: 0, y: 0, z: -1.5571802, w: 0.20500661}
        outSlope: {x: 0, y: 0, z: -1.5571802, w: 0.20500661}
        tangentMode: 207732840
      - time: 0.1
        value: {x: -0, y: -0, z: -0.15643448, w: -0.98768836}
        inSlope: {x: 0, y: 0, z: -1.5512798, w: 0.24569932}
        outSlope: {x: 0, y: 0, z: -1.5512798, w: 0.24569932}
        tangentMode: 285738068
      - time: 0.11666667
        value: {x: -0, y: -0, z: -0.18223552, w: -0.9832549}
        inSlope: {x: 0, y: 0, z: -1.5443169, w: 0.28622204}
        outSlope: {x: 0, y: 0, z: -1.5443169, w: 0.28622204}
        tangentMode: 136719524
      - time: 0.13333334
        value: {x: -0, y: -0, z: -0.20791171, w: -0.9781476}
        inSlope: {x: 0, y: 0, z: -1.5362958, w: 0.32654995}
        outSlope: {x: 0, y: 0, z: -1.5362958, w: 0.32654995}
        tangentMode: 285840060
      - time: 0.15
        value: {x: -0, y: -0, z: -0.23344539, w: -0.9723699}
        inSlope: {x: 0, y: 0, z: -1.52722, w: 0.36665443}
        outSlope: {x: 0, y: 0, z: -1.52722, w: 0.36665443}
        tangentMode: 285771416
      - time: 0.16666667
        value: {x: -0, y: -0, z: -0.25881904, w: -0.9659258}
        inSlope: {x: 0, y: 0, z: -1.5170991, w: 0.4065049}
        outSlope: {x: 0, y: 0, z: -1.5170991, w: 0.4065049}
        tangentMode: 207721388
      - time: 0.18333334
        value: {x: -0, y: -0, z: -0.28401536, w: -0.95881975}
        inSlope: {x: 0, y: 0, z: -1.5059389, w: 0.4460782}
        outSlope: {x: 0, y: 0, z: -1.5059389, w: 0.4460782}
        tangentMode: 207460628
      - time: 0.2
        value: {x: -0, y: -0, z: -0.309017, w: -0.95105654}
        inSlope: {x: 0, y: 0, z: -1.4937456, w: 0.48534757}
        outSlope: {x: 0, y: 0, z: -1.4937456, w: 0.48534757}
        tangentMode: 206914696
      - time: 0.21666667
        value: {x: -0, y: -0, z: -0.33380687, w: -0.9426415}
        inSlope: {x: 0, y: 0, z: -1.4805286, w: 0.5242843}
        outSlope: {x: 0, y: 0, z: -1.4805286, w: 0.5242843}
        tangentMode: 285499372
      - time: 0.23333333
        value: {x: -0, y: -0, z: -0.35836795, w: -0.9335804}
        inSlope: {x: 0, y: 0, z: -1.4662976, w: 0.56285983}
        outSlope: {x: 0, y: 0, z: -1.4662976, w: 0.56285983}
        tangentMode: 207344568
      - time: 0.25
        value: {x: -0, y: -0, z: -0.38268346, w: -0.9238795}
        inSlope: {x: 0, y: 0, z: -1.4510611, w: 0.6010488}
        outSlope: {x: 0, y: 0, z: -1.4510611, w: 0.6010488}
        tangentMode: 206944728
      - time: 0.26666668
        value: {x: -0, y: -0, z: -0.40673667, w: -0.9135454}
        inSlope: {x: 0, y: 0, z: -1.4348295, w: 0.63882655}
        outSlope: {x: 0, y: 0, z: -1.4348295, w: 0.63882655}
        tangentMode: 207489500
      - time: 0.28333336
        value: {x: -0, y: -0, z: -0.43051115, w: -0.90258527}
        inSlope: {x: 0, y: 0, z: -1.417616, w: 0.6761682}
        outSlope: {x: 0, y: 0, z: -1.417616, w: 0.6761682}
        tangentMode: 207673056
      - time: 0.30000004
        value: {x: -0, y: -0, z: -0.45399058, w: -0.89100647}
        inSlope: {x: 0, y: 0, z: -1.3994298, w: 0.713045}
        outSlope: {x: 0, y: 0, z: -1.3994298, w: 0.713045}
        tangentMode: 285622408
      - time: 0.31666672
        value: {x: -0, y: -0, z: -0.47715884, w: -0.8788171}
        inSlope: {x: 0, y: 0, z: -1.3802832, w: 0.74943185}
        outSlope: {x: 0, y: 0, z: -1.3802832, w: 0.74943185}
        tangentMode: 285388400
      - time: 0.3333334
        value: {x: -0, y: -0, z: -0.50000006, w: -0.8660254}
        inSlope: {x: 0, y: 0, z: -1.3601935, w: 0.785309}
        outSlope: {x: 0, y: 0, z: -1.3601935, w: 0.785309}
        tangentMode: 207181812
      - time: 0.35000008
        value: {x: -0, y: -0, z: -0.52249867, w: -0.8526401}
        inSlope: {x: 0, y: 0, z: -1.3391722, w: 0.82064617}
        outSlope: {x: 0, y: 0, z: -1.3391722, w: 0.82064617}
        tangentMode: 285254836
      - time: 0.36666676
        value: {x: -0, y: -0, z: -0.54463917, w: -0.8386705}
        inSlope: {x: 0, y: 0, z: -1.31723, w: 0.8554183}
        outSlope: {x: 0, y: 0, z: -1.31723, w: 0.8554183}
        tangentMode: 285763864
      - time: 0.38333344
        value: {x: -0, y: -0, z: -0.56640637, w: -0.8241261}
        inSlope: {x: 0, y: 0, z: -1.2943865, w: 0.88960755}
        outSlope: {x: 0, y: 0, z: -1.2943865, w: 0.88960755}
        tangentMode: 285305988
      - time: 0.40000013
        value: {x: -0, y: -0, z: -0.5877854, w: -0.8090169}
        inSlope: {x: 0, y: 0, z: -1.2706543, w: 0.92318517}
        outSlope: {x: 0, y: 0, z: -1.2706543, w: 0.92318517}
        tangentMode: 285093564
      - time: 0.4166668
        value: {x: -0, y: -0, z: -0.60876155, w: -0.79335326}
        inSlope: {x: 0, y: 0, z: -1.2460531, w: 0.9561316}
        outSlope: {x: 0, y: 0, z: -1.2460531, w: 0.9561316}
        tangentMode: 207735848
      - time: 0.4333335
        value: {x: -0, y: -0, z: -0.62932056, w: -0.7771458}
        inSlope: {x: 0, y: 0, z: -1.2206008, w: 0.9884236}
        outSlope: {x: 0, y: 0, z: -1.2206008, w: 0.9884236}
        tangentMode: 285541748
      - time: 0.45000017
        value: {x: -0, y: -0, z: -0.6494483, w: -0.7604058}
        inSlope: {x: 0, y: 0, z: -1.1943063, w: 1.0200343}
        outSlope: {x: 0, y: 0, z: -1.1943063, w: 1.0200343}
        tangentMode: 206833160
      - time: 0.46666685
        value: {x: -0, y: -0, z: -0.6691308, w: -0.74314463}
        inSlope: {x: 0, y: 0, z: -1.1671963, w: 1.0509495}
        outSlope: {x: 0, y: 0, z: -1.1671963, w: 1.0509495}
        tangentMode: 207113520
      - time: 0.48333353
        value: {x: -0, y: -0, z: -0.68835485, w: -0.7253741}
        inSlope: {x: 0, y: 0, z: -1.1392844, w: 1.0811414}
        outSlope: {x: 0, y: 0, z: -1.1392844, w: 1.0811414}
        tangentMode: 207822780
      - time: 0.5000002
        value: {x: -0, y: -0, z: -0.70710695, w: -0.7071066}
        inSlope: {x: 0, y: 0, z: -1.1105912, w: 1.1105912}
        outSlope: {x: 0, y: 0, z: -1.1105912, w: 1.1105912}
        tangentMode: 207242972
      - time: 0.5166668
        value: {x: -0, y: -0, z: -0.7253745, w: -0.68835443}
        inSlope: {x: 0, y: 0, z: -1.0811423, w: 1.1392854}
        outSlope: {x: 0, y: 0, z: -1.0811423, w: 1.1392854}
        tangentMode: 206809896
      - time: 0.5333335
        value: {x: -0, y: -0, z: -0.743145, w: -0.66913044}
        inSlope: {x: 0, y: 0, z: -1.0509477, w: 1.1671965}
        outSlope: {x: 0, y: 0, z: -1.0509477, w: 1.1671965}
        tangentMode: 207691348
      - time: 0.55000013
        value: {x: -0, y: -0, z: -0.7604061, w: -0.6494479}
        inSlope: {x: 0, y: 0, z: -1.0200343, w: 1.1943083}
        outSlope: {x: 0, y: 0, z: -1.0200343, w: 1.1943083}
        tangentMode: 285526816
      - time: 0.5666668
        value: {x: -0, y: -0, z: -0.7771461, w: -0.6293202}
        inSlope: {x: 0, y: 0, z: -0.9884218, w: 1.2205994}
        outSlope: {x: 0, y: 0, z: -0.9884218, w: 1.2205994}
        tangentMode: 207797828
      - time: 0.58333343
        value: {x: -0, y: -0, z: -0.79335344, w: -0.6087613}
        inSlope: {x: 0, y: 0, z: -0.9561298, w: 1.2460536}
        outSlope: {x: 0, y: 0, z: -0.9561298, w: 1.2460536}
        tangentMode: 207063552
      - time: 0.6000001
        value: {x: -0, y: -0, z: -0.80901706, w: -0.5877851}
        inSlope: {x: 0, y: 0, z: -0.92318505, w: 1.2706566}
        outSlope: {x: 0, y: 0, z: -0.92318505, w: 1.2706566}
        tangentMode: 207061868
      - time: 0.61666673
        value: {x: -0, y: -0, z: -0.82412624, w: -0.56640613}
        inSlope: {x: 0, y: 0, z: -0.8896073, w: 1.2943852}
        outSlope: {x: 0, y: 0, z: -0.8896073, w: 1.2943852}
        tangentMode: 207505516
      - time: 0.6333334
        value: {x: -0, y: -0, z: -0.8386706, w: -0.544639}
        inSlope: {x: 0, y: 0, z: -0.8554199, w: 1.3172305}
        outSlope: {x: 0, y: 0, z: -0.8554199, w: 1.3172305}
        tangentMode: 285341576
      - time: 0.65000004
        value: {x: -0, y: -0, z: -0.8526402, w: -0.5224985}
        inSlope: {x: 0, y: 0, z: -0.82064587, w: 1.3391719}
        outSlope: {x: 0, y: 0, z: -0.82064587, w: 1.3391719}
        tangentMode: 285224404
      - time: 0.6666667
        value: {x: -0, y: -0, z: -0.86602545, w: -0.49999997}
        inSlope: {x: 0, y: 0, z: -0.7853086, w: 1.3601933}
        outSlope: {x: 0, y: 0, z: -0.7853086, w: 1.3601933}
        tangentMode: 207427364
      - time: 0.68333334
        value: {x: -0, y: -0, z: -0.87881714, w: -0.47715876}
        inSlope: {x: 0, y: 0, z: -0.74943316, w: 1.3802848}
        outSlope: {x: 0, y: 0, z: -0.74943316, w: 1.3802848}
        tangentMode: 207666900
      - time: 0.7
        value: {x: -0, y: -0, z: -0.8910065, w: -0.45399052}
        inSlope: {x: 0, y: 0, z: -0.7130445, w: 1.3994296}
        outSlope: {x: 0, y: 0, z: -0.7130445, w: 1.3994296}
        tangentMode: 207237752
      - time: 0.71666664
        value: {x: -0, y: -0, z: -0.90258527, w: -0.43051115}
        inSlope: {x: 0, y: 0, z: -0.67616767, w: 1.4176149}
        outSlope: {x: 0, y: 0, z: -0.67616767, w: 1.4176149}
        tangentMode: 285410868
      - time: 0.7333333
        value: {x: -0, y: -0, z: -0.9135454, w: -0.40673673}
        inSlope: {x: 0, y: 0, z: -0.6388277, w: 1.4348295}
        outSlope: {x: 0, y: 0, z: -0.6388277, w: 1.4348295}
        tangentMode: 207641372
      - time: 0.74999994
        value: {x: -0, y: -0, z: -0.9238795, w: -0.38268355}
        inSlope: {x: 0, y: 0, z: -0.60104966, w: 1.4510604}
        outSlope: {x: 0, y: 0, z: -0.60104966, w: 1.4510604}
        tangentMode: 207639164
      - time: 0.7666666
        value: {x: -0, y: -0, z: -0.9335804, w: -0.3583681}
        inSlope: {x: 0, y: 0, z: -0.5628585, w: 1.4662971}
        outSlope: {x: 0, y: 0, z: -0.5628585, w: 1.4662971}
        tangentMode: 207311584
      - time: 0.78333324
        value: {x: -0, y: -0, z: -0.94264144, w: -0.33380702}
        inSlope: {x: 0, y: 0, z: -0.52428293, w: 1.4805325}
        outSlope: {x: 0, y: 0, z: -0.52428293, w: 1.4805325}
        tangentMode: 207498452
      - time: 0.7999999
        value: {x: -0, y: -0, z: -0.9510565, w: -0.30901706}
        inSlope: {x: 0, y: 0, z: -0.485348, w: 1.4937487}
        outSlope: {x: 0, y: 0, z: -0.485348, w: 1.4937487}
        tangentMode: 207695216
      - time: 0.81666654
        value: {x: -0, y: -0, z: -0.9588197, w: -0.28401545}
        inSlope: {x: 0, y: 0, z: -0.4460786, w: 1.505934}
        outSlope: {x: 0, y: 0, z: -0.4460786, w: 1.505934}
        tangentMode: 207328020
      - time: 0.8333332
        value: {x: -0, y: -0, z: -0.96592575, w: -0.2588193}
        inSlope: {x: 0, y: 0, z: -0.40650526, w: 1.5170956}
        outSlope: {x: 0, y: 0, z: -0.40650526, w: 1.5170956}
        tangentMode: 285479792
      - time: 0.84999985
        value: {x: -0, y: -0, z: -0.97236985, w: -0.23344564}
        inSlope: {x: 0, y: 0, z: -0.36665297, w: 1.5272208}
        outSlope: {x: 0, y: 0, z: -0.36665297, w: 1.5272208}
        tangentMode: 207041108
      - time: 0.8666665
        value: {x: -0, y: -0, z: -0.9781475, w: -0.207912}
        inSlope: {x: 0, y: 0, z: -0.3265503, w: 1.5362983}
        outSlope: {x: 0, y: 0, z: -0.3265503, w: 1.5362983}
        tangentMode: 207681284
      - time: 0.88333315
        value: {x: -0, y: -0, z: -0.98325485, w: -0.18223575}
        inSlope: {x: 0, y: 0, z: -0.2862242, w: 1.5443199}
        outSlope: {x: 0, y: 0, z: -0.2862242, w: 1.5443199}
        tangentMode: 207052260
      - time: 0.8999998
        value: {x: -0, y: -0, z: -0.9876883, w: -0.15643471}
        inSlope: {x: 0, y: 0, z: -0.24569952, w: 1.5512757}
        outSlope: {x: 0, y: 0, z: -0.24569952, w: 1.5512757}
        tangentMode: 285776344
      - time: 0.91666645
        value: {x: -0, y: -0, z: -0.9914448, w: -0.1305266}
        inSlope: {x: 0, y: 0, z: -0.2050068, w: 1.557176}
        outSlope: {x: 0, y: 0, z: -0.2050068, w: 1.557176}
        tangentMode: 206927464
      - time: 0.9333331
        value: {x: -0, y: -0, z: -0.99452186, w: -0.1045289}
        inSlope: {x: 0, y: 0, z: -0.16417459, w: 1.5620127}
        outSlope: {x: 0, y: 0, z: -0.16417459, w: 1.5620127}
        tangentMode: 206875612
      - time: 0.94999975
        value: {x: -0, y: -0, z: -0.9969173, w: -0.07845956}
        inSlope: {x: 0, y: 0, z: -0.12322974, w: 1.5657785}
        outSlope: {x: 0, y: 0, z: -0.12322974, w: 1.5657785}
        tangentMode: 207179620
      - time: 0.9666664
        value: {x: -0, y: -0, z: -0.9986295, w: -0.05233633}
        inSlope: {x: 0, y: 0, z: -0.08220084, w: 1.5684677}
        outSlope: {x: 0, y: 0, z: -0.08220084, w: 1.5684677}
        tangentMode: 207119156
      - time: 0.98333305
        value: {x: -0, y: -0, z: -0.99965733, w: -0.026177352}
        inSlope: {x: 0, y: 0, z: -0.04111473, w: 1.5700748}
        outSlope: {x: 0, y: 0, z: -0.04111473, w: 1.5700748}
        tangentMode: 207145168
      - time: 0.9999997
        value: {x: -0, y: -0, z: -1, w: -0.00000055233505}
        inSlope: {x: 0, y: 0, z: -0.000000037252903, w: 1.5706139}
        outSlope: {x: 0, y: 0, z: -0.000000037252903, w: 1.5706139}
        tangentMode: 206909304
      - time: 1.0166664
        value: {x: -0, y: -0, z: -0.99965733, w: 0.026176486}
        inSlope: {x: 0, y: 0, z: 0.041112904, w: 1.5700829}
        outSlope: {x: 0, y: 0, z: 0.041112904, w: 1.5700829}
        tangentMode: 285313020
      - time: 1.0333331
        value: {x: -0, y: -0, z: -0.99862957, w: 0.052335586}
        inSlope: {x: 0, y: 0, z: 0.08219905, w: 1.5684679}
        outSlope: {x: 0, y: 0, z: 0.08219905, w: 1.5684679}
        tangentMode: 207204564
      - time: 1.0499997
        value: {x: -0, y: -0, z: -0.99691737, w: 0.0784587}
        inSlope: {x: 0, y: 0, z: 0.123227954, w: 1.5657716}
        outSlope: {x: 0, y: 0, z: 0.123227954, w: 1.5657716}
        tangentMode: 207340220
      - time: 1.0666664
        value: {x: -0, y: -0, z: -0.994522, w: 0.10452792}
        inSlope: {x: 0, y: 0, z: 0.1641728, w: 1.5620091}
        outSlope: {x: 0, y: 0, z: 0.1641728, w: 1.5620091}
        tangentMode: 207771948
      - time: 1.083333
        value: {x: -0, y: -0, z: -0.99144495, w: 0.13052562}
        inSlope: {x: 0, y: 0, z: 0.2050068, w: 1.5571834}
        outSlope: {x: 0, y: 0, z: 0.2050068, w: 1.5571834}
        tangentMode: 285781764
      - time: 1.0999997
        value: {x: -0, y: -0, z: -0.9876884, w: 0.15643398}
        inSlope: {x: 0, y: 0, z: 0.24569774, w: 1.5512834}
        outSlope: {x: 0, y: 0, z: 0.24569774, w: 1.5512834}
        tangentMode: 285068188
      - time: 1.1166663
        value: {x: -0, y: -0, z: -0.983255, w: 0.18223502}
        inSlope: {x: 0, y: 0, z: 0.2862224, w: 1.5443168}
        outSlope: {x: 0, y: 0, z: 0.2862224, w: 1.5443168}
        tangentMode: 285760672
      - time: 1.133333
        value: {x: -0, y: -0, z: -0.9781477, w: 0.20791116}
        inSlope: {x: 0, y: 0, z: 0.3265503, w: 1.5362952}
        outSlope: {x: 0, y: 0, z: 0.3265503, w: 1.5362952}
        tangentMode: 285379312
      - time: 1.1499996
        value: {x: -0, y: -0, z: -0.97237, w: 0.23344481}
        inSlope: {x: 0, y: 0, z: 0.36665118, w: 1.5272173}
        outSlope: {x: 0, y: 0, z: 0.36665118, w: 1.5272173}
        tangentMode: 136723944
      - time: 1.1666663
        value: {x: -0, y: -0, z: -0.965926, w: 0.25881836}
        inSlope: {x: 0, y: 0, z: 0.40650347, w: 1.5170991}
        outSlope: {x: 0, y: 0, z: 0.40650347, w: 1.5170991}
        tangentMode: 285025068
      - time: 1.1833329
        value: {x: -0, y: -0, z: -0.9588199, w: 0.28401473}
        inSlope: {x: 0, y: 0, z: 0.4460786, w: 1.505942}
        outSlope: {x: 0, y: 0, z: 0.4460786, w: 1.505942}
        tangentMode: 206819636
      - time: 1.1999996
        value: {x: -0, y: -0, z: -0.9510567, w: 0.30901638}
        inSlope: {x: 0, y: 0, z: 0.4853462, w: 1.493746}
        outSlope: {x: 0, y: 0, z: 0.4853462, w: 1.493746}
        tangentMode: 206993744
      - time: 1.2166662
        value: {x: -0, y: -0, z: -0.94264174, w: 0.33380622}
        inSlope: {x: 0, y: 0, z: 0.52428114, w: 1.4805281}
        outSlope: {x: 0, y: 0, z: 0.52428114, w: 1.4805281}
        tangentMode: 207258904
      - time: 1.2333329
        value: {x: -0, y: -0, z: -0.9335807, w: 0.35836726}
        inSlope: {x: 0, y: 0, z: 0.56285673, w: 1.4662936}
        outSlope: {x: 0, y: 0, z: 0.56285673, w: 1.4662936}
        tangentMode: 207376936
      - time: 1.2499995
        value: {x: -0, y: -0, z: -0.92387986, w: 0.38268262}
        inSlope: {x: 0, y: 0, z: 0.6010479, w: 1.4510612}
        outSlope: {x: 0, y: 0, z: 0.6010479, w: 1.4510612}
        tangentMode: 207241876
      - time: 1.2666662
        value: {x: -0, y: -0, z: -0.9135458, w: 0.40673593}
        inSlope: {x: 0, y: 0, z: 0.6388259, w: 1.4348303}
        outSlope: {x: 0, y: 0, z: 0.6388259, w: 1.4348303}
        tangentMode: 207501384
      - time: 1.2833328
        value: {x: -0, y: -0, z: -0.9025857, w: 0.43051025}
        inSlope: {x: 0, y: 0, z: 0.67616767, w: 1.4176159}
        outSlope: {x: 0, y: 0, z: 0.67616767, w: 1.4176159}
        tangentMode: -2147483648
      - time: 1.2999995
        value: {x: -0, y: -0, z: -0.8910069, w: 0.45398974}
        inSlope: {x: 0, y: 0, z: 0.7130463, w: 1.3994367}
        outSlope: {x: 0, y: 0, z: 0.7130463, w: 1.3994367}
        tangentMode: -2147483648
      - time: 1.3166661
        value: {x: -0, y: -0, z: -0.8788175, w: 0.4771581}
        inSlope: {x: 0, y: 0, z: 0.7494314, w: 1.3802857}
        outSlope: {x: 0, y: 0, z: 0.7494314, w: 1.3802857}
        tangentMode: -2147483648
      - time: 1.3333328
        value: {x: -0, y: -0, z: -0.86602587, w: 0.49999923}
        inSlope: {x: 0, y: 0, z: 0.785305, w: 1.360188}
        outSlope: {x: 0, y: 0, z: 0.785305, w: 1.360188}
        tangentMode: -2147483648
      - time: 1.3499994
        value: {x: -0, y: -0, z: -0.8526407, w: 0.52249765}
        inSlope: {x: 0, y: 0, z: 0.8206441, w: 1.339171}
        outSlope: {x: 0, y: 0, z: 0.8206441, w: 1.339171}
        tangentMode: -2147483648
      - time: 1.3666661
        value: {x: -0, y: -0, z: -0.8386711, w: 0.5446382}
        inSlope: {x: 0, y: 0, z: 0.85542166, w: 1.3172376}
        outSlope: {x: 0, y: 0, z: 0.85542166, w: 1.3172376}
        tangentMode: -2147483648
      - time: 1.3833327
        value: {x: -0, y: -0, z: -0.82412666, w: 0.56640553}
        inSlope: {x: 0, y: 0, z: 0.8896055, w: 1.294387}
        outSlope: {x: 0, y: 0, z: 0.8896055, w: 1.294387}
        tangentMode: -2147483648
      - time: 1.3999994
        value: {x: -0, y: -0, z: -0.8090176, w: 0.5877844}
        inSlope: {x: 0, y: 0, z: 0.9231797, w: 1.2706512}
        outSlope: {x: 0, y: 0, z: 0.9231797, w: 1.2706512}
        tangentMode: -2147483648
      - time: 1.416666
        value: {x: -0, y: -0, z: -0.79335403, w: 0.60876054}
        inSlope: {x: 0, y: 0, z: 0.9561298, w: 1.2460554}
        outSlope: {x: 0, y: 0, z: 0.9561298, w: 1.2460554}
        tangentMode: -2147483648
      - time: 1.4333327
        value: {x: -0, y: -0, z: -0.77714664, w: 0.62931955}
        inSlope: {x: 0, y: 0, z: 0.9884236, w: 1.2206048}
        outSlope: {x: 0, y: 0, z: 0.9884236, w: 1.2206048}
        tangentMode: -2147483648
      - time: 1.4499993
        value: {x: -0, y: -0, z: -0.7604066, w: 0.6494473}
        inSlope: {x: 0, y: 0, z: 1.0200325, w: 1.1943083}
        outSlope: {x: 0, y: 0, z: 1.0200325, w: 1.1943083}
        tangentMode: -2147483648
      - time: 1.466666
        value: {x: -0, y: -0, z: -0.7431456, w: 0.6691298}
        inSlope: {x: 0, y: 0, z: 1.0509477, w: 1.1671965}
        outSlope: {x: 0, y: 0, z: 1.0509477, w: 1.1671965}
        tangentMode: -2147483648
      - time: 1.4833326
        value: {x: -0, y: -0, z: -0.72537506, w: 0.68835384}
        inSlope: {x: 0, y: 0, z: 1.0811405, w: 1.1392854}
        outSlope: {x: 0, y: 0, z: 1.0811405, w: 1.1392854}
        tangentMode: -2147483648
      - time: 1.4999993
        value: {x: -0, y: -0, z: -0.7071076, w: 0.70710593}
        inSlope: {x: 0, y: 0, z: 1.1105912, w: 1.1105947}
        outSlope: {x: 0, y: 0, z: 1.1105912, w: 1.1105947}
        tangentMode: -2147483648
      - time: 1.5166659
        value: {x: -0, y: -0, z: -0.6883554, w: 0.7253736}
        inSlope: {x: 0, y: 0, z: 1.139289, w: 1.0811477}
        outSlope: {x: 0, y: 0, z: 1.139289, w: 1.0811477}
        tangentMode: -2147483648
      - time: 1.5333326
        value: {x: -0, y: -0, z: -0.66913134, w: 0.74314415}
        inSlope: {x: 0, y: 0, z: 1.1671947, w: 1.0509496}
        outSlope: {x: 0, y: 0, z: 1.1671947, w: 1.0509496}
        tangentMode: -2147483648
      - time: 1.5499992
        value: {x: -0, y: -0, z: -0.64944893, w: 0.76040524}
        inSlope: {x: 0, y: 0, z: 1.1942995, w: 1.0200307}
        outSlope: {x: 0, y: 0, z: 1.1942995, w: 1.0200307}
        tangentMode: -2147483648
      - time: 1.5666659
        value: {x: -0, y: -0, z: -0.6293214, w: 0.77714515}
        inSlope: {x: 0, y: 0, z: 1.2205923, w: 0.9884182}
        outSlope: {x: 0, y: 0, z: 1.2205923, w: 0.9884182}
        tangentMode: -2147483648
      - time: 1.5833325
        value: {x: -0, y: -0, z: -0.60876256, w: 0.7933525}
        inSlope: {x: 0, y: 0, z: 1.2460518, w: 0.9561316}
        outSlope: {x: 0, y: 0, z: 1.2460518, w: 0.9561316}
        tangentMode: -2147483648
      - time: 1.5999992
        value: {x: -0, y: -0, z: -0.5877864, w: 0.80901617}
        inSlope: {x: 0, y: 0, z: 1.2706602, w: 0.9231904}
        outSlope: {x: 0, y: 0, z: 1.2706602, w: 0.9231904}
        tangentMode: -2147483648
      - time: 1.6166658
        value: {x: -0, y: -0, z: -0.56640726, w: 0.82412547}
        inSlope: {x: 0, y: 0, z: 1.2943852, w: 0.8896091}
        outSlope: {x: 0, y: 0, z: 1.2943852, w: 0.8896091}
        tangentMode: -2147483648
      - time: 1.6333325
        value: {x: -0, y: -0, z: -0.54464024, w: 0.8386698}
        inSlope: {x: 0, y: 0, z: 1.3172288, w: 0.85542166}
        outSlope: {x: 0, y: 0, z: 1.3172288, w: 0.85542166}
        tangentMode: -2147483648
      - time: 1.6499991
        value: {x: -0, y: -0, z: -0.5224997, w: 0.8526395}
        inSlope: {x: 0, y: 0, z: 1.3391764, w: 0.82065123}
        outSlope: {x: 0, y: 0, z: 1.3391764, w: 0.82065123}
        tangentMode: -2147483648
      - time: 1.6666658
        value: {x: -0, y: -0, z: -0.5000011, w: 0.8660248}
        inSlope: {x: 0, y: 0, z: 1.3601924, w: 0.7853086}
        outSlope: {x: 0, y: 0, z: 1.3601924, w: 0.7853086}
        tangentMode: -2147483648
      - time: 1.6833324
        value: {x: -0, y: -0, z: -0.47715998, w: 0.8788164}
        inSlope: {x: 0, y: 0, z: 1.380284, w: 0.74943495}
        outSlope: {x: 0, y: 0, z: 1.380284, w: 0.74943495}
        tangentMode: -2147483648
      - time: 1.6999991
        value: {x: -0, y: -0, z: -0.45399165, w: 0.89100593}
        inSlope: {x: 0, y: 0, z: 1.3994286, w: 0.7130481}
        outSlope: {x: 0, y: 0, z: 1.3994286, w: 0.7130481}
        tangentMode: -2147483648
      - time: 1.7166657
        value: {x: -0, y: -0, z: -0.4305124, w: 0.9025847}
        inSlope: {x: 0, y: 0, z: 1.4176078, w: 0.67616767}
        outSlope: {x: 0, y: 0, z: 1.4176078, w: 0.67616767}
        tangentMode: -2147483648
      - time: 1.7333324
        value: {x: -0, y: -0, z: -0.4067381, w: 0.91354483}
        inSlope: {x: 0, y: 0, z: 1.4348285, w: 0.63882947}
        outSlope: {x: 0, y: 0, z: 1.4348285, w: 0.63882947}
        tangentMode: -2147483648
      - time: 1.749999
        value: {x: -0, y: -0, z: -0.38268483, w: 0.92387897}
        inSlope: {x: 0, y: 0, z: 1.4510596, w: 0.60105145}
        outSlope: {x: 0, y: 0, z: 1.4510596, w: 0.60105145}
        tangentMode: -2147483648
      - time: 1.7666657
        value: {x: -0, y: -0, z: -0.3583695, w: 0.93357986}
        inSlope: {x: 0, y: 0, z: 1.4662962, w: 0.5628603}
        outSlope: {x: 0, y: 0, z: 1.4662962, w: 0.5628603}
        tangentMode: -2147483648
      - time: 1.7833323
        value: {x: -0, y: -0, z: -0.33380833, w: 0.94264096}
        inSlope: {x: 0, y: 0, z: 1.4805281, w: 0.5242847}
        outSlope: {x: 0, y: 0, z: 1.4805281, w: 0.5242847}
        tangentMode: -2147483648
      - time: 1.799999
        value: {x: -0, y: -0, z: -0.3090186, w: 0.951056}
        inSlope: {x: 0, y: 0, z: 1.4937441, w: 0.48534977}
        outSlope: {x: 0, y: 0, z: 1.4937441, w: 0.48534977}
        tangentMode: -2147483648
      - time: 1.8166656
        value: {x: -0, y: -0, z: -0.2840169, w: 0.95881927}
        inSlope: {x: 0, y: 0, z: 1.5059438, w: 0.44608396}
        outSlope: {x: 0, y: 0, z: 1.5059438, w: 0.44608396}
        tangentMode: -2147483648
      - time: 1.8333323
        value: {x: -0, y: -0, z: -0.25882053, w: 0.96592546}
        inSlope: {x: 0, y: 0, z: 1.5170987, w: 0.40650883}
        outSlope: {x: 0, y: 0, z: 1.5170987, w: 0.40650883}
        tangentMode: -2147483648
      - time: 1.849999
        value: {x: -0, y: -0, z: -0.233447, w: 0.97236955}
        inSlope: {x: 0, y: 0, z: 1.52722, w: 0.36665475}
        outSlope: {x: 0, y: 0, z: 1.52722, w: 0.36665475}
        tangentMode: -2147483648
      - time: 1.8666656
        value: {x: -0, y: -0, z: -0.20791325, w: 0.97814727}
        inSlope: {x: 0, y: 0, z: 1.5362943, w: 0.3265521}
        outSlope: {x: 0, y: 0, z: 1.5362943, w: 0.3265521}
        tangentMode: -2147483648
      - time: 1.8833323
        value: {x: -0, y: -0, z: -0.18223724, w: 0.9832546}
        inSlope: {x: 0, y: 0, z: 1.5443163, w: 0.2862242}
        outSlope: {x: 0, y: 0, z: 1.5443163, w: 0.2862242}
        tangentMode: -2147483648
      - time: 1.8999989
        value: {x: -0, y: -0, z: -0.15643609, w: 0.98768806}
        inSlope: {x: 0, y: 0, z: 1.5512793, w: 0.24570131}
        outSlope: {x: 0, y: 0, z: 1.5512793, w: 0.24570131}
        tangentMode: -2147483648
      - time: 1.9166656
        value: {x: -0, y: -0, z: -0.13052797, w: 0.99144465}
        inSlope: {x: 0, y: 0, z: 1.5571722, w: 0.20500858}
        outSlope: {x: 0, y: 0, z: 1.5571722, w: 0.20500858}
        tangentMode: -2147483648
      - time: 1.9333322
        value: {x: -0, y: -0, z: -0.104530394, w: 0.9945217}
        inSlope: {x: 0, y: 0, z: 1.5620124, w: 0.16417637}
        outSlope: {x: 0, y: 0, z: 1.5620124, w: 0.16417637}
        tangentMode: -2147483648
      - time: 1.9499989
        value: {x: -0, y: -0, z: -0.07846094, w: 0.9969172}
        inSlope: {x: 0, y: 0, z: 1.5657748, w: 0.12323332}
        outSlope: {x: 0, y: 0, z: 1.5657748, w: 0.12323332}
        tangentMode: -2147483648
      - time: 1.9666655
        value: {x: -0, y: -0, z: -0.052337952, w: 0.99862945}
        inSlope: {x: 0, y: 0, z: 1.568464, w: 0.08220263}
        outSlope: {x: 0, y: 0, z: 1.568464, w: 0.08220263}
        tangentMode: -2147483648
      - time: 1.9833322
        value: {x: -0, y: -0, z: -0.026178857, w: 0.9996573}
        inSlope: {x: 0, y: 0, z: 1.5700865, w: 0.04111578}
        outSlope: {x: 0, y: 0, z: 1.5700865, w: 0.04111578}
        tangentMode: -2147483648
      - time: 2
        value: {x: -0, y: -0, z: 0.00000008742278, w: 1}
        inSlope: {x: 0, y: 0, z: 1.5706259, w: 0.020562151}
        outSlope: {x: 0, y: 0, z: 1.5706259, w: 0.020562151}
        tangentMode: -2147483648
      m_PreInfinity: 2
      m_PostInfinity: 2
      m_RotationOrder: 4
    path: football
  m_CompressedRotationCurves: []
  m_EulerCurves: []
  m_PositionCurves:
  - curve:
      serializedVersion: 2
      m_Curve:
      - time: 0
        value: {x: 0, y: 45, z: 0}
        inSlope: {x: 0, y: 0.20385572, z: 0}
        outSlope: {x: 0, y: 0.20385572, z: 0}
        tangentMode: 88
      - time: 1
        value: {x: 0, y: 27.9, z: 0}
        inSlope: {x: 0, y: 0.05145259, z: 0}
        outSlope: {x: 0, y: 0.05145259, z: 0}
        tangentMode: 0
      - time: 2
        value: {x: 0, y: 45, z: 0}
        inSlope: {x: 0, y: -0, z: 0}
        outSlope: {x: 0, y: -0, z: 0}
        tangentMode: 4
      m_PreInfinity: 2
      m_PostInfinity: 2
      m_RotationOrder: 4
    path: football
  m_ScaleCurves:
  - curve:
      serializedVersion: 2
      m_Curve:
      - time: 0
        value: {x: 1, y: 1, z: 1}
        inSlope: {x: 0, y: 0, z: 0}
        outSlope: {x: 0, y: 0, z: 0}
        tangentMode: 88
      - time: 2
        value: {x: 1, y: 1, z: 1}
        inSlope: {x: 0, y: 0, z: 0}
        outSlope: {x: 0, y: 0, z: 0}
        tangentMode: 4
      m_PreInfinity: 2
      m_PostInfinity: 2
      m_RotationOrder: 4
    path: football
  m_FloatCurves:
  - curve:
      serializedVersion: 2
      m_Curve:
      - time: 0
        value: 0
        inSlope: Infinity
        outSlope: Infinity
        tangentMode: 31
      m_PreInfinity: 2
      m_PostInfinity: 2
      m_RotationOrder: 4
    attribute: m_IsActive
    path: line
    classID: 1
    script: {fileID: 0}
  m_PPtrCurves: []
  m_SampleRate: 60
  m_WrapMode: 2
  m_Bounds:
    m_Center: {x: 0, y: 0, z: 0}
    m_Extent: {x: 0, y: 0, z: 0}
  m_ClipBindingConstant:
    genericBindings: []
    pptrCurveMapping: []
  m_AnimationClipSettings:
    serializedVersion: 2
    m_AdditiveReferencePoseClip: {fileID: 0}
    m_AdditiveReferencePoseTime: 0
    m_StartTime: 0
    m_StopTime: 2
    m_OrientationOffsetY: 0
    m_Level: 0
    m_CycleOffset: 0
    m_HasAdditiveReferencePose: 0
    m_LoopTime: 0
    m_LoopBlend: 0
    m_LoopBlendOrientation: 0
    m_LoopBlendPositionY: 0
    m_LoopBlendPositionXZ: 0
    m_KeepOriginalOrientation: 0
    m_KeepOriginalPositionY: 1
    m_KeepOriginalPositionXZ: 0
    m_HeightFromFeet: 0
    m_Mirror: 0
  m_EditorCurves:
  - curve:
      serializedVersion: 2
      m_Curve:
      - time: 0
        value: 1
        inSlope: 0
        outSlope: 0
        tangentMode: 10
      - time: 2
        value: 1
        inSlope: 0
        outSlope: 0
        tangentMode: 10
      m_PreInfinity: 2
      m_PostInfinity: 2
      m_RotationOrder: 4
    attribute: m_LocalScale.x
    path: football
    classID: 4
    script: {fileID: 0}
  - curve:
      serializedVersion: 2
      m_Curve:
      - time: 0
        value: 1
        inSlope: 0
        outSlope: 0
        tangentMode: 10
      - time: 2
        value: 1
        inSlope: 0
        outSlope: 0
        tangentMode: 10
      m_PreInfinity: 2
      m_PostInfinity: 2
      m_RotationOrder: 4
    attribute: m_LocalScale.y
    path: football
    classID: 4
    script: {fileID: 0}
  - curve:
      serializedVersion: 2
      m_Curve:
      - time: 0
        value: 1
        inSlope: 0
        outSlope: 0
        tangentMode: 10
      - time: 2
        value: 1
        inSlope: 0
        outSlope: 0
        tangentMode: 10
      m_PreInfinity: 2
      m_PostInfinity: 2
      m_RotationOrder: 4
    attribute: m_LocalScale.z
    path: football
    classID: 4
    script: {fileID: 0}
  - curve:
      serializedVersion: 2
      m_Curve:
      - time: 0
        value: 0
        inSlope: Infinity
        outSlope: Infinity
        tangentMode: 31
      m_PreInfinity: 2
      m_PostInfinity: 2
      m_RotationOrder: 4
    attribute: m_IsActive
    path: line
    classID: 1
    script: {fileID: 0}
  - curve:
      serializedVersion: 2
      m_Curve:
      - time: 0
        value: 0
        inSlope: 0
        outSlope: 0
        tangentMode: 10
      - time: 1
        value: 0
        inSlope: 0
        outSlope: 0
        tangentMode: 10
      - time: 2
        value: 0
        inSlope: 0
        outSlope: 0
        tangentMode: 10
      m_PreInfinity: 2
      m_PostInfinity: 2
      m_RotationOrder: 4
    attribute: m_LocalPosition.x
    path: football
    classID: 4
    script: {fileID: 0}
  - curve:
      serializedVersion: 2
      m_Curve:
      - time: 0
        value: 45
        inSlope: 0.20385572
        outSlope: 0.20385572
        tangentMode: 0
      - time: 1
        value: 27.9
        inSlope: 0.05145259
        outSlope: 0.05145259
        tangentMode: 0
      - time: 2
        value: 45
        inSlope: -0
        outSlope: -0
        tangentMode: 0
      m_PreInfinity: 2
      m_PostInfinity: 2
      m_RotationOrder: 4
    attribute: m_LocalPosition.y
    path: football
    classID: 4
    script: {fileID: 0}
  - curve:
      serializedVersion: 2
      m_Curve:
      - time: 0
        value: 0
        inSlope: 0
        outSlope: 0
        tangentMode: 10
      - time: 1
        value: 0
        inSlope: 0
        outSlope: 0
        tangentMode: 10
      - time: 2
        value: 0
        inSlope: 0
        outSlope: 0
        tangentMode: 10
      m_PreInfinity: 2
      m_PostInfinity: 2
      m_RotationOrder: 4
    attribute: m_LocalPosition.z
    path: football
    classID: 4
    script: {fileID: 0}
  - curve:
      serializedVersion: 2
      m_Curve:
      - time: 0
        value: -0
        inSlope: 0
        outSlope: 0
        tangentMode: 0
      - time: 0.016666668
        value: -0
        inSlope: 0
        outSlope: 0
        tangentMode: 0
      - time: 0.033333335
        value: -0
        inSlope: 0
        outSlope: 0
        tangentMode: 0
      - time: 0.050000004
        value: -0
        inSlope: 0
        outSlope: 0
        tangentMode: 0
      - time: 0.06666667
        value: -0
        inSlope: 0
        outSlope: 0
        tangentMode: 0
      - time: 0.083333336
        value: -0
        inSlope: 0
        outSlope: 0
        tangentMode: 0
      - time: 0.1
        value: -0
        inSlope: 0
        outSlope: 0
        tangentMode: 0
      - time: 0.11666667
        value: -0
        inSlope: 0
        outSlope: 0
        tangentMode: 0
      - time: 0.13333334
        value: -0
        inSlope: 0
        outSlope: 0
        tangentMode: 0
      - time: 0.15
        value: -0
        inSlope: 0
        outSlope: 0
        tangentMode: 0
      - time: 0.16666667
        value: -0
        inSlope: 0
        outSlope: 0
        tangentMode: 0
      - time: 0.18333334
        value: -0
        inSlope: 0
        outSlope: 0
        tangentMode: 0
      - time: 0.2
        value: -0
        inSlope: 0
        outSlope: 0
        tangentMode: 0
      - time: 0.21666667
        value: -0
        inSlope: 0
        outSlope: 0
        tangentMode: 0
      - time: 0.23333333
        value: -0
        inSlope: 0
        outSlope: 0
        tangentMode: 0
      - time: 0.25
        value: -0
        inSlope: 0
        outSlope: 0
        tangentMode: 0
      - time: 0.26666668
        value: -0
        inSlope: 0
        outSlope: 0
        tangentMode: 0
      - time: 0.28333336
        value: -0
        inSlope: 0
        outSlope: 0
        tangentMode: 0
      - time: 0.30000004
        value: -0
        inSlope: 0
        outSlope: 0
        tangentMode: 0
      - time: 0.31666672
        value: -0
        inSlope: 0
        outSlope: 0
        tangentMode: 0
      - time: 0.3333334
        value: -0
        inSlope: 0
        outSlope: 0
        tangentMode: 0
      - time: 0.35000008
        value: -0
        inSlope: 0
        outSlope: 0
        tangentMode: 0
      - time: 0.36666676
        value: -0
        inSlope: 0
        outSlope: 0
        tangentMode: 0
      - time: 0.38333344
        value: -0
        inSlope: 0
        outSlope: 0
        tangentMode: 0
      - time: 0.40000013
        value: -0
        inSlope: 0
        outSlope: 0
        tangentMode: 0
      - time: 0.4166668
        value: -0
        inSlope: 0
        outSlope: 0
        tangentMode: 0
      - time: 0.4333335
        value: -0
        inSlope: 0
        outSlope: 0
        tangentMode: 0
      - time: 0.45000017
        value: -0
        inSlope: 0
        outSlope: 0
        tangentMode: 0
      - time: 0.46666685
        value: -0
        inSlope: 0
        outSlope: 0
        tangentMode: 0
      - time: 0.48333353
        value: -0
        inSlope: 0
        outSlope: 0
        tangentMode: 0
      - time: 0.5000002
        value: -0
        inSlope: 0
        outSlope: 0
        tangentMode: 0
      - time: 0.5166668
        value: -0
        inSlope: 0
        outSlope: 0
        tangentMode: 0
      - time: 0.5333335
        value: -0
        inSlope: 0
        outSlope: 0
        tangentMode: 0
      - time: 0.55000013
        value: -0
        inSlope: 0
        outSlope: 0
        tangentMode: 0
      - time: 0.5666668
        value: -0
        inSlope: 0
        outSlope: 0
        tangentMode: 0
      - time: 0.58333343
        value: -0
        inSlope: 0
        outSlope: 0
        tangentMode: 0
      - time: 0.6000001
        value: -0
        inSlope: 0
        outSlope: 0
        tangentMode: 0
      - time: 0.61666673
        value: -0
        inSlope: 0
        outSlope: 0
        tangentMode: 0
      - time: 0.6333334
        value: -0
        inSlope: 0
        outSlope: 0
        tangentMode: 0
      - time: 0.65000004
        value: -0
        inSlope: 0
        outSlope: 0
        tangentMode: 0
      - time: 0.6666667
        value: -0
        inSlope: 0
        outSlope: 0
        tangentMode: 0
      - time: 0.68333334
        value: -0
        inSlope: 0
        outSlope: 0
        tangentMode: 0
      - time: 0.7
        value: -0
        inSlope: 0
        outSlope: 0
        tangentMode: 0
      - time: 0.71666664
        value: -0
        inSlope: 0
        outSlope: 0
        tangentMode: 0
      - time: 0.7333333
        value: -0
        inSlope: 0
        outSlope: 0
        tangentMode: 0
      - time: 0.74999994
        value: -0
        inSlope: 0
        outSlope: 0
        tangentMode: 0
      - time: 0.7666666
        value: -0
        inSlope: 0
        outSlope: 0
        tangentMode: 0
      - time: 0.78333324
        value: -0
        inSlope: 0
        outSlope: 0
        tangentMode: 0
      - time: 0.7999999
        value: -0
        inSlope: 0
        outSlope: 0
        tangentMode: 0
      - time: 0.81666654
        value: -0
        inSlope: 0
        outSlope: 0
        tangentMode: 0
      - time: 0.8333332
        value: -0
        inSlope: 0
        outSlope: 0
        tangentMode: 0
      - time: 0.84999985
        value: -0
        inSlope: 0
        outSlope: 0
        tangentMode: 0
      - time: 0.8666665
        value: -0
        inSlope: 0
        outSlope: 0
        tangentMode: 0
      - time: 0.88333315
        value: -0
        inSlope: 0
        outSlope: 0
        tangentMode: 0
      - time: 0.8999998
        value: -0
        inSlope: 0
        outSlope: 0
        tangentMode: 0
      - time: 0.91666645
        value: -0
        inSlope: 0
        outSlope: 0
        tangentMode: 0
      - time: 0.9333331
        value: -0
        inSlope: 0
        outSlope: 0
        tangentMode: 0
      - time: 0.94999975
        value: -0
        inSlope: 0
        outSlope: 0
        tangentMode: 0
      - time: 0.9666664
        value: -0
        inSlope: 0
        outSlope: 0
        tangentMode: 0
      - time: 0.98333305
        value: -0
        inSlope: 0
        outSlope: 0
        tangentMode: 0
      - time: 0.9999997
        value: -0
        inSlope: 0
        outSlope: 0
        tangentMode: 0
      - time: 1.0166664
        value: -0
        inSlope: 0
        outSlope: 0
        tangentMode: 0
      - time: 1.0333331
        value: -0
        inSlope: 0
        outSlope: 0
        tangentMode: 0
      - time: 1.0499997
        value: -0
        inSlope: 0
        outSlope: 0
        tangentMode: 0
      - time: 1.0666664
        value: -0
        inSlope: 0
        outSlope: 0
        tangentMode: 0
      - time: 1.083333
        value: -0
        inSlope: 0
        outSlope: 0
        tangentMode: 0
      - time: 1.0999997
        value: -0
        inSlope: 0
        outSlope: 0
        tangentMode: 0
      - time: 1.1166663
        value: -0
        inSlope: 0
        outSlope: 0
        tangentMode: 0
      - time: 1.133333
        value: -0
        inSlope: 0
        outSlope: 0
        tangentMode: 0
      - time: 1.1499996
        value: -0
        inSlope: 0
        outSlope: 0
        tangentMode: 0
      - time: 1.1666663
        value: -0
        inSlope: 0
        outSlope: 0
        tangentMode: 0
      - time: 1.1833329
        value: -0
        inSlope: 0
        outSlope: 0
        tangentMode: 0
      - time: 1.1999996
        value: -0
        inSlope: 0
        outSlope: 0
        tangentMode: 0
      - time: 1.2166662
        value: -0
        inSlope: 0
        outSlope: 0
        tangentMode: 0
      - time: 1.2333329
        value: -0
        inSlope: 0
        outSlope: 0
        tangentMode: 0
      - time: 1.2499995
        value: -0
        inSlope: 0
        outSlope: 0
        tangentMode: 0
      - time: 1.2666662
        value: -0
        inSlope: 0
        outSlope: 0
        tangentMode: 0
      - time: 1.2833328
        value: -0
        inSlope: 0
        outSlope: 0
        tangentMode: 0
      - time: 1.2999995
        value: -0
        inSlope: 0
        outSlope: 0
        tangentMode: 0
      - time: 1.3166661
        value: -0
        inSlope: 0
        outSlope: 0
        tangentMode: 0
      - time: 1.3333328
        value: -0
        inSlope: 0
        outSlope: 0
        tangentMode: 0
      - time: 1.3499994
        value: -0
        inSlope: 0
        outSlope: 0
        tangentMode: 0
      - time: 1.3666661
        value: -0
        inSlope: 0
        outSlope: 0
        tangentMode: 0
      - time: 1.3833327
        value: -0
        inSlope: 0
        outSlope: 0
        tangentMode: 0
      - time: 1.3999994
        value: -0
        inSlope: 0
        outSlope: 0
        tangentMode: 0
      - time: 1.416666
        value: -0
        inSlope: 0
        outSlope: 0
        tangentMode: 0
      - time: 1.4333327
        value: -0
        inSlope: 0
        outSlope: 0
        tangentMode: 0
      - time: 1.4499993
        value: -0
        inSlope: 0
        outSlope: 0
        tangentMode: 0
      - time: 1.466666
        value: -0
        inSlope: 0
        outSlope: 0
        tangentMode: 0
      - time: 1.4833326
        value: -0
        inSlope: 0
        outSlope: 0
        tangentMode: 0
      - time: 1.4999993
        value: -0
        inSlope: 0
        outSlope: 0
        tangentMode: 0
      - time: 1.5166659
        value: -0
        inSlope: 0
        outSlope: 0
        tangentMode: 0
      - time: 1.5333326
        value: -0
        inSlope: 0
        outSlope: 0
        tangentMode: 0
      - time: 1.5499992
        value: -0
        inSlope: 0
        outSlope: 0
        tangentMode: 0
      - time: 1.5666659
        value: -0
        inSlope: 0
        outSlope: 0
        tangentMode: 0
      - time: 1.5833325
        value: -0
        inSlope: 0
        outSlope: 0
        tangentMode: 0
      - time: 1.5999992
        value: -0
        inSlope: 0
        outSlope: 0
        tangentMode: 0
      - time: 1.6166658
        value: -0
        inSlope: 0
        outSlope: 0
        tangentMode: 0
      - time: 1.6333325
        value: -0
        inSlope: 0
        outSlope: 0
        tangentMode: 0
      - time: 1.6499991
        value: -0
        inSlope: 0
        outSlope: 0
        tangentMode: 0
      - time: 1.6666658
        value: -0
        inSlope: 0
        outSlope: 0
        tangentMode: 0
      - time: 1.6833324
        value: -0
        inSlope: 0
        outSlope: 0
        tangentMode: 0
      - time: 1.6999991
        value: -0
        inSlope: 0
        outSlope: 0
        tangentMode: 0
      - time: 1.7166657
        value: -0
        inSlope: 0
        outSlope: 0
        tangentMode: 0
      - time: 1.7333324
        value: -0
        inSlope: 0
        outSlope: 0
        tangentMode: 0
      - time: 1.749999
        value: -0
        inSlope: 0
        outSlope: 0
        tangentMode: 0
      - time: 1.7666657
        value: -0
        inSlope: 0
        outSlope: 0
        tangentMode: 0
      - time: 1.7833323
        value: -0
        inSlope: 0
        outSlope: 0
        tangentMode: 0
      - time: 1.799999
        value: -0
        inSlope: 0
        outSlope: 0
        tangentMode: 0
      - time: 1.8166656
        value: -0
        inSlope: 0
        outSlope: 0
        tangentMode: 0
      - time: 1.8333323
        value: -0
        inSlope: 0
        outSlope: 0
        tangentMode: 0
      - time: 1.849999
        value: -0
        inSlope: 0
        outSlope: 0
        tangentMode: 0
      - time: 1.8666656
        value: -0
        inSlope: 0
        outSlope: 0
        tangentMode: 0
      - time: 1.8833323
        value: -0
        inSlope: 0
        outSlope: 0
        tangentMode: 0
      - time: 1.8999989
        value: -0
        inSlope: 0
        outSlope: 0
        tangentMode: 0
      - time: 1.9166656
        value: -0
        inSlope: 0
        outSlope: 0
        tangentMode: 0
      - time: 1.9333322
        value: -0
        inSlope: 0
        outSlope: 0
        tangentMode: 0
      - time: 1.9499989
        value: -0
        inSlope: 0
        outSlope: 0
        tangentMode: 0
      - time: 1.9666655
        value: -0
        inSlope: 0
        outSlope: 0
        tangentMode: 0
      - time: 1.9833322
        value: -0
        inSlope: 0
        outSlope: 0
        tangentMode: 0
      - time: 2
        value: -0
        inSlope: 0
        outSlope: 0
        tangentMode: 0
      m_PreInfinity: 2
      m_PostInfinity: 2
      m_RotationOrder: 4
    attribute: m_LocalRotation.x
    path: football
    classID: 4
    script: {fileID: 0}
  - curve:
      serializedVersion: 2
      m_Curve:
      - time: 0
        value: -0
        inSlope: 0
        outSlope: 0
        tangentMode: 0
      - time: 0.016666668
        value: -0
        inSlope: 0
        outSlope: 0
        tangentMode: 0
      - time: 0.033333335
        value: -0
        inSlope: 0
        outSlope: 0
        tangentMode: 0
      - time: 0.050000004
        value: -0
        inSlope: 0
        outSlope: 0
        tangentMode: 0
      - time: 0.06666667
        value: -0
        inSlope: 0
        outSlope: 0
        tangentMode: 0
      - time: 0.083333336
        value: -0
        inSlope: 0
        outSlope: 0
        tangentMode: 0
      - time: 0.1
        value: -0
        inSlope: 0
        outSlope: 0
        tangentMode: 0
      - time: 0.11666667
        value: -0
        inSlope: 0
        outSlope: 0
        tangentMode: 0
      - time: 0.13333334
        value: -0
        inSlope: 0
        outSlope: 0
        tangentMode: 0
      - time: 0.15
        value: -0
        inSlope: 0
        outSlope: 0
        tangentMode: 0
      - time: 0.16666667
        value: -0
        inSlope: 0
        outSlope: 0
        tangentMode: 0
      - time: 0.18333334
        value: -0
        inSlope: 0
        outSlope: 0
        tangentMode: 0
      - time: 0.2
        value: -0
        inSlope: 0
        outSlope: 0
        tangentMode: 0
      - time: 0.21666667
        value: -0
        inSlope: 0
        outSlope: 0
        tangentMode: 0
      - time: 0.23333333
        value: -0
        inSlope: 0
        outSlope: 0
        tangentMode: 0
      - time: 0.25
        value: -0
        inSlope: 0
        outSlope: 0
        tangentMode: 0
      - time: 0.26666668
        value: -0
        inSlope: 0
        outSlope: 0
        tangentMode: 0
      - time: 0.28333336
        value: -0
        inSlope: 0
        outSlope: 0
        tangentMode: 0
      - time: 0.30000004
        value: -0
        inSlope: 0
        outSlope: 0
        tangentMode: 0
      - time: 0.31666672
        value: -0
        inSlope: 0
        outSlope: 0
        tangentMode: 0
      - time: 0.3333334
        value: -0
        inSlope: 0
        outSlope: 0
        tangentMode: 0
      - time: 0.35000008
        value: -0
        inSlope: 0
        outSlope: 0
        tangentMode: 0
      - time: 0.36666676
        value: -0
        inSlope: 0
        outSlope: 0
        tangentMode: 0
      - time: 0.38333344
        value: -0
        inSlope: 0
        outSlope: 0
        tangentMode: 0
      - time: 0.40000013
        value: -0
        inSlope: 0
        outSlope: 0
        tangentMode: 0
      - time: 0.4166668
        value: -0
        inSlope: 0
        outSlope: 0
        tangentMode: 0
      - time: 0.4333335
        value: -0
        inSlope: 0
        outSlope: 0
        tangentMode: 0
      - time: 0.45000017
        value: -0
        inSlope: 0
        outSlope: 0
        tangentMode: 0
      - time: 0.46666685
        value: -0
        inSlope: 0
        outSlope: 0
        tangentMode: 0
      - time: 0.48333353
        value: -0
        inSlope: 0
        outSlope: 0
        tangentMode: 0
      - time: 0.5000002
        value: -0
        inSlope: 0
        outSlope: 0
        tangentMode: 0
      - time: 0.5166668
        value: -0
        inSlope: 0
        outSlope: 0
        tangentMode: 0
      - time: 0.5333335
        value: -0
        inSlope: 0
        outSlope: 0
        tangentMode: 0
      - time: 0.55000013
        value: -0
        inSlope: 0
        outSlope: 0
        tangentMode: 0
      - time: 0.5666668
        value: -0
        inSlope: 0
        outSlope: 0
        tangentMode: 0
      - time: 0.58333343
        value: -0
        inSlope: 0
        outSlope: 0
        tangentMode: 0
      - time: 0.6000001
        value: -0
        inSlope: 0
        outSlope: 0
        tangentMode: 0
      - time: 0.61666673
        value: -0
        inSlope: 0
        outSlope: 0
        tangentMode: 0
      - time: 0.6333334
        value: -0
        inSlope: 0
        outSlope: 0
        tangentMode: 0
      - time: 0.65000004
        value: -0
        inSlope: 0
        outSlope: 0
        tangentMode: 0
      - time: 0.6666667
        value: -0
        inSlope: 0
        outSlope: 0
        tangentMode: 0
      - time: 0.68333334
        value: -0
        inSlope: 0
        outSlope: 0
        tangentMode: 0
      - time: 0.7
        value: -0
        inSlope: 0
        outSlope: 0
        tangentMode: 0
      - time: 0.71666664
        value: -0
        inSlope: 0
        outSlope: 0
        tangentMode: 0
      - time: 0.7333333
        value: -0
        inSlope: 0
        outSlope: 0
        tangentMode: 0
      - time: 0.74999994
        value: -0
        inSlope: 0
        outSlope: 0
        tangentMode: 0
      - time: 0.7666666
        value: -0
        inSlope: 0
        outSlope: 0
        tangentMode: 0
      - time: 0.78333324
        value: -0
        inSlope: 0
        outSlope: 0
        tangentMode: 0
      - time: 0.7999999
        value: -0
        inSlope: 0
        outSlope: 0
        tangentMode: 0
      - time: 0.81666654
        value: -0
        inSlope: 0
        outSlope: 0
        tangentMode: 0
      - time: 0.8333332
        value: -0
        inSlope: 0
        outSlope: 0
        tangentMode: 0
      - time: 0.84999985
        value: -0
        inSlope: 0
        outSlope: 0
        tangentMode: 0
      - time: 0.8666665
        value: -0
        inSlope: 0
        outSlope: 0
        tangentMode: 0
      - time: 0.88333315
        value: -0
        inSlope: 0
        outSlope: 0
        tangentMode: 0
      - time: 0.8999998
        value: -0
        inSlope: 0
        outSlope: 0
        tangentMode: 0
      - time: 0.91666645
        value: -0
        inSlope: 0
        outSlope: 0
        tangentMode: 0
      - time: 0.9333331
        value: -0
        inSlope: 0
        outSlope: 0
        tangentMode: 0
      - time: 0.94999975
        value: -0
        inSlope: 0
        outSlope: 0
        tangentMode: 0
      - time: 0.9666664
        value: -0
        inSlope: 0
        outSlope: 0
        tangentMode: 0
      - time: 0.98333305
        value: -0
        inSlope: 0
        outSlope: 0
        tangentMode: 0
      - time: 0.9999997
        value: -0
        inSlope: 0
        outSlope: 0
        tangentMode: 0
      - time: 1.0166664
        value: -0
        inSlope: 0
        outSlope: 0
        tangentMode: 0
      - time: 1.0333331
        value: -0
        inSlope: 0
        outSlope: 0
        tangentMode: 0
      - time: 1.0499997
        value: -0
        inSlope: 0
        outSlope: 0
        tangentMode: 0
      - time: 1.0666664
        value: -0
        inSlope: 0
        outSlope: 0
        tangentMode: 0
      - time: 1.083333
        value: -0
        inSlope: 0
        outSlope: 0
        tangentMode: 0
      - time: 1.0999997
        value: -0
        inSlope: 0
        outSlope: 0
        tangentMode: 0
      - time: 1.1166663
        value: -0
        inSlope: 0
        outSlope: 0
        tangentMode: 0
      - time: 1.133333
        value: -0
        inSlope: 0
        outSlope: 0
        tangentMode: 0
      - time: 1.1499996
        value: -0
        inSlope: 0
        outSlope: 0
        tangentMode: 0
      - time: 1.1666663
        value: -0
        inSlope: 0
        outSlope: 0
        tangentMode: 0
      - time: 1.1833329
        value: -0
        inSlope: 0
        outSlope: 0
        tangentMode: 0
      - time: 1.1999996
        value: -0
        inSlope: 0
        outSlope: 0
        tangentMode: 0
      - time: 1.2166662
        value: -0
        inSlope: 0
        outSlope: 0
        tangentMode: 0
      - time: 1.2333329
        value: -0
        inSlope: 0
        outSlope: 0
        tangentMode: 0
      - time: 1.2499995
        value: -0
        inSlope: 0
        outSlope: 0
        tangentMode: 0
      - time: 1.2666662
        value: -0
        inSlope: 0
        outSlope: 0
        tangentMode: 0
      - time: 1.2833328
        value: -0
        inSlope: 0
        outSlope: 0
        tangentMode: 0
      - time: 1.2999995
        value: -0
        inSlope: 0
        outSlope: 0
        tangentMode: 0
      - time: 1.3166661
        value: -0
        inSlope: 0
        outSlope: 0
        tangentMode: 0
      - time: 1.3333328
        value: -0
        inSlope: 0
        outSlope: 0
        tangentMode: 0
      - time: 1.3499994
        value: -0
        inSlope: 0
        outSlope: 0
        tangentMode: 0
      - time: 1.3666661
        value: -0
        inSlope: 0
        outSlope: 0
        tangentMode: 0
      - time: 1.3833327
        value: -0
        inSlope: 0
        outSlope: 0
        tangentMode: 0
      - time: 1.3999994
        value: -0
        inSlope: 0
        outSlope: 0
        tangentMode: 0
      - time: 1.416666
        value: -0
        inSlope: 0
        outSlope: 0
        tangentMode: 0
      - time: 1.4333327
        value: -0
        inSlope: 0
        outSlope: 0
        tangentMode: 0
      - time: 1.4499993
        value: -0
        inSlope: 0
        outSlope: 0
        tangentMode: 0
      - time: 1.466666
        value: -0
        inSlope: 0
        outSlope: 0
        tangentMode: 0
      - time: 1.4833326
        value: -0
        inSlope: 0
        outSlope: 0
        tangentMode: 0
      - time: 1.4999993
        value: -0
        inSlope: 0
        outSlope: 0
        tangentMode: 0
      - time: 1.5166659
        value: -0
        inSlope: 0
        outSlope: 0
        tangentMode: 0
      - time: 1.5333326
        value: -0
        inSlope: 0
        outSlope: 0
        tangentMode: 0
      - time: 1.5499992
        value: -0
        inSlope: 0
        outSlope: 0
        tangentMode: 0
      - time: 1.5666659
        value: -0
        inSlope: 0
        outSlope: 0
        tangentMode: 0
      - time: 1.5833325
        value: -0
        inSlope: 0
        outSlope: 0
        tangentMode: 0
      - time: 1.5999992
        value: -0
        inSlope: 0
        outSlope: 0
        tangentMode: 0
      - time: 1.6166658
        value: -0
        inSlope: 0
        outSlope: 0
        tangentMode: 0
      - time: 1.6333325
        value: -0
        inSlope: 0
        outSlope: 0
        tangentMode: 0
      - time: 1.6499991
        value: -0
        inSlope: 0
        outSlope: 0
        tangentMode: 0
      - time: 1.6666658
        value: -0
        inSlope: 0
        outSlope: 0
        tangentMode: 0
      - time: 1.6833324
        value: -0
        inSlope: 0
        outSlope: 0
        tangentMode: 0
      - time: 1.6999991
        value: -0
        inSlope: 0
        outSlope: 0
        tangentMode: 0
      - time: 1.7166657
        value: -0
        inSlope: 0
        outSlope: 0
        tangentMode: 0
      - time: 1.7333324
        value: -0
        inSlope: 0
        outSlope: 0
        tangentMode: 0
      - time: 1.749999
        value: -0
        inSlope: 0
        outSlope: 0
        tangentMode: 0
      - time: 1.7666657
        value: -0
        inSlope: 0
        outSlope: 0
        tangentMode: 0
      - time: 1.7833323
        value: -0
        inSlope: 0
        outSlope: 0
        tangentMode: 0
      - time: 1.799999
        value: -0
        inSlope: 0
        outSlope: 0
        tangentMode: 0
      - time: 1.8166656
        value: -0
        inSlope: 0
        outSlope: 0
        tangentMode: 0
      - time: 1.8333323
        value: -0
        inSlope: 0
        outSlope: 0
        tangentMode: 0
      - time: 1.849999
        value: -0
        inSlope: 0
        outSlope: 0
        tangentMode: 0
      - time: 1.8666656
        value: -0
        inSlope: 0
        outSlope: 0
        tangentMode: 0
      - time: 1.8833323
        value: -0
        inSlope: 0
        outSlope: 0
        tangentMode: 0
      - time: 1.8999989
        value: -0
        inSlope: 0
        outSlope: 0
        tangentMode: 0
      - time: 1.9166656
        value: -0
        inSlope: 0
        outSlope: 0
        tangentMode: 0
      - time: 1.9333322
        value: -0
        inSlope: 0
        outSlope: 0
        tangentMode: 0
      - time: 1.9499989
        value: -0
        inSlope: 0
        outSlope: 0
        tangentMode: 0
      - time: 1.9666655
        value: -0
        inSlope: 0
        outSlope: 0
        tangentMode: 0
      - time: 1.9833322
        value: -0
        inSlope: 0
        outSlope: 0
        tangentMode: 0
      - time: 2
        value: -0
        inSlope: 0
        outSlope: 0
        tangentMode: 0
      m_PreInfinity: 2
      m_PostInfinity: 2
      m_RotationOrder: 4
    attribute: m_LocalRotation.y
    path: football
    classID: 4
    script: {fileID: 0}
  - curve:
      serializedVersion: 2
      m_Curve:
      - time: 0
        value: -0
        inSlope: -1.5706171
        outSlope: -1.5706171
        tangentMode: 0
      - time: 0.016666668
        value: -0.026176952
        inSlope: -1.5700788
        outSlope: -1.5700788
        tangentMode: 0
      - time: 0.033333335
        value: -0.052335963
        inSlope: -1.5684645
        outSlope: -1.5684645
        tangentMode: 0
      - time: 0.050000004
        value: -0.07845911
        inSlope: -1.5657752
        outSlope: -1.5657752
        tangentMode: 0
      - time: 0.06666667
        value: -0.10452847
        inSlope: -1.5620129
        outSlope: -1.5620129
        tangentMode: 0
      - time: 0.083333336
        value: -0.1305262
        inSlope: -1.5571802
        outSlope: -1.5571802
        tangentMode: 0
      - time: 0.1
        value: -0.15643448
        inSlope: -1.5512798
        outSlope: -1.5512798
        tangentMode: 0
      - time: 0.11666667
        value: -0.18223552
        inSlope: -1.5443169
        outSlope: -1.5443169
        tangentMode: 0
      - time: 0.13333334
        value: -0.20791171
        inSlope: -1.5362958
        outSlope: -1.5362958
        tangentMode: 0
      - time: 0.15
        value: -0.23344539
        inSlope: -1.52722
        outSlope: -1.52722
        tangentMode: 0
      - time: 0.16666667
        value: -0.25881904
        inSlope: -1.5170991
        outSlope: -1.5170991
        tangentMode: 0
      - time: 0.18333334
        value: -0.28401536
        inSlope: -1.5059389
        outSlope: -1.5059389
        tangentMode: 0
      - time: 0.2
        value: -0.309017
        inSlope: -1.4937456
        outSlope: -1.4937456
        tangentMode: 0
      - time: 0.21666667
        value: -0.33380687
        inSlope: -1.4805286
        outSlope: -1.4805286
        tangentMode: 0
      - time: 0.23333333
        value: -0.35836795
        inSlope: -1.4662976
        outSlope: -1.4662976
        tangentMode: 0
      - time: 0.25
        value: -0.38268346
        inSlope: -1.4510611
        outSlope: -1.4510611
        tangentMode: 0
      - time: 0.26666668
        value: -0.40673667
        inSlope: -1.4348295
        outSlope: -1.4348295
        tangentMode: 0
      - time: 0.28333336
        value: -0.43051115
        inSlope: -1.417616
        outSlope: -1.417616
        tangentMode: 0
      - time: 0.30000004
        value: -0.45399058
        inSlope: -1.3994298
        outSlope: -1.3994298
        tangentMode: 0
      - time: 0.31666672
        value: -0.47715884
        inSlope: -1.3802832
        outSlope: -1.3802832
        tangentMode: 0
      - time: 0.3333334
        value: -0.50000006
        inSlope: -1.3601935
        outSlope: -1.3601935
        tangentMode: 0
      - time: 0.35000008
        value: -0.52249867
        inSlope: -1.3391722
        outSlope: -1.3391722
        tangentMode: 0
      - time: 0.36666676
        value: -0.54463917
        inSlope: -1.31723
        outSlope: -1.31723
        tangentMode: 0
      - time: 0.38333344
        value: -0.56640637
        inSlope: -1.2943865
        outSlope: -1.2943865
        tangentMode: 0
      - time: 0.40000013
        value: -0.5877854
        inSlope: -1.2706543
        outSlope: -1.2706543
        tangentMode: 0
      - time: 0.4166668
        value: -0.60876155
        inSlope: -1.2460531
        outSlope: -1.2460531
        tangentMode: 0
      - time: 0.4333335
        value: -0.62932056
        inSlope: -1.2206008
        outSlope: -1.2206008
        tangentMode: 0
      - time: 0.45000017
        value: -0.6494483
        inSlope: -1.1943063
        outSlope: -1.1943063
        tangentMode: 0
      - time: 0.46666685
        value: -0.6691308
        inSlope: -1.1671963
        outSlope: -1.1671963
        tangentMode: 0
      - time: 0.48333353
        value: -0.68835485
        inSlope: -1.1392844
        outSlope: -1.1392844
        tangentMode: 0
      - time: 0.5000002
        value: -0.70710695
        inSlope: -1.1105912
        outSlope: -1.1105912
        tangentMode: 0
      - time: 0.5166668
        value: -0.7253745
        inSlope: -1.0811423
        outSlope: -1.0811423
        tangentMode: 0
      - time: 0.5333335
        value: -0.743145
        inSlope: -1.0509477
        outSlope: -1.0509477
        tangentMode: 0
      - time: 0.55000013
        value: -0.7604061
        inSlope: -1.0200343
        outSlope: -1.0200343
        tangentMode: 0
      - time: 0.5666668
        value: -0.7771461
        inSlope: -0.9884218
        outSlope: -0.9884218
        tangentMode: 0
      - time: 0.58333343
        value: -0.79335344
        inSlope: -0.9561298
        outSlope: -0.9561298
        tangentMode: 0
      - time: 0.6000001
        value: -0.80901706
        inSlope: -0.92318505
        outSlope: -0.92318505
        tangentMode: 0
      - time: 0.61666673
        value: -0.82412624
        inSlope: -0.8896073
        outSlope: -0.8896073
        tangentMode: 0
      - time: 0.6333334
        value: -0.8386706
        inSlope: -0.8554199
        outSlope: -0.8554199
        tangentMode: 0
      - time: 0.65000004
        value: -0.8526402
        inSlope: -0.82064587
        outSlope: -0.82064587
        tangentMode: 0
      - time: 0.6666667
        value: -0.86602545
        inSlope: -0.7853086
        outSlope: -0.7853086
        tangentMode: 0
      - time: 0.68333334
        value: -0.87881714
        inSlope: -0.74943316
        outSlope: -0.74943316
        tangentMode: 0
      - time: 0.7
        value: -0.8910065
        inSlope: -0.7130445
        outSlope: -0.7130445
        tangentMode: 0
      - time: 0.71666664
        value: -0.90258527
        inSlope: -0.67616767
        outSlope: -0.67616767
        tangentMode: 0
      - time: 0.7333333
        value: -0.9135454
        inSlope: -0.6388277
        outSlope: -0.6388277
        tangentMode: 0
      - time: 0.74999994
        value: -0.9238795
        inSlope: -0.60104966
        outSlope: -0.60104966
        tangentMode: 0
      - time: 0.7666666
        value: -0.9335804
        inSlope: -0.5628585
        outSlope: -0.5628585
        tangentMode: 0
      - time: 0.78333324
        value: -0.94264144
        inSlope: -0.52428293
        outSlope: -0.52428293
        tangentMode: 0
      - time: 0.7999999
        value: -0.9510565
        inSlope: -0.485348
        outSlope: -0.485348
        tangentMode: 0
      - time: 0.81666654
        value: -0.9588197
        inSlope: -0.4460786
        outSlope: -0.4460786
        tangentMode: 0
      - time: 0.8333332
        value: -0.96592575
        inSlope: -0.40650526
        outSlope: -0.40650526
        tangentMode: 0
      - time: 0.84999985
        value: -0.97236985
        inSlope: -0.36665297
        outSlope: -0.36665297
        tangentMode: 0
      - time: 0.8666665
        value: -0.9781475
        inSlope: -0.3265503
        outSlope: -0.3265503
        tangentMode: 0
      - time: 0.88333315
        value: -0.98325485
        inSlope: -0.2862242
        outSlope: -0.2862242
        tangentMode: 0
      - time: 0.8999998
        value: -0.9876883
        inSlope: -0.24569952
        outSlope: -0.24569952
        tangentMode: 0
      - time: 0.91666645
        value: -0.9914448
        inSlope: -0.2050068
        outSlope: -0.2050068
        tangentMode: 0
      - time: 0.9333331
        value: -0.99452186
        inSlope: -0.16417459
        outSlope: -0.16417459
        tangentMode: 0
      - time: 0.94999975
        value: -0.9969173
        inSlope: -0.12322974
        outSlope: -0.12322974
        tangentMode: 0
      - time: 0.9666664
        value: -0.9986295
        inSlope: -0.08220084
        outSlope: -0.08220084
        tangentMode: 0
      - time: 0.98333305
        value: -0.99965733
        inSlope: -0.04111473
        outSlope: -0.04111473
        tangentMode: 0
      - time: 0.9999997
        value: -1
        inSlope: -0.000000037252903
        outSlope: -0.000000037252903
        tangentMode: 0
      - time: 1.0166664
        value: -0.99965733
        inSlope: 0.041112904
        outSlope: 0.041112904
        tangentMode: 0
      - time: 1.0333331
        value: -0.99862957
        inSlope: 0.08219905
        outSlope: 0.08219905
        tangentMode: 0
      - time: 1.0499997
        value: -0.99691737
        inSlope: 0.123227954
        outSlope: 0.123227954
        tangentMode: 0
      - time: 1.0666664
        value: -0.994522
        inSlope: 0.1641728
        outSlope: 0.1641728
        tangentMode: 0
      - time: 1.083333
        value: -0.99144495
        inSlope: 0.2050068
        outSlope: 0.2050068
        tangentMode: 0
      - time: 1.0999997
        value: -0.9876884
        inSlope: 0.24569774
        outSlope: 0.24569774
        tangentMode: 0
      - time: 1.1166663
        value: -0.983255
        inSlope: 0.2862224
        outSlope: 0.2862224
        tangentMode: 0
      - time: 1.133333
        value: -0.9781477
        inSlope: 0.3265503
        outSlope: 0.3265503
        tangentMode: 0
      - time: 1.1499996
        value: -0.97237
        inSlope: 0.36665118
        outSlope: 0.36665118
        tangentMode: 0
      - time: 1.1666663
        value: -0.965926
        inSlope: 0.40650347
        outSlope: 0.40650347
        tangentMode: 0
      - time: 1.1833329
        value: -0.9588199
        inSlope: 0.4460786
        outSlope: 0.4460786
        tangentMode: 0
      - time: 1.1999996
        value: -0.9510567
        inSlope: 0.4853462
        outSlope: 0.4853462
        tangentMode: 0
      - time: 1.2166662
        value: -0.94264174
        inSlope: 0.52428114
        outSlope: 0.52428114
        tangentMode: 0
      - time: 1.2333329
        value: -0.9335807
        inSlope: 0.56285673
        outSlope: 0.56285673
        tangentMode: 0
      - time: 1.2499995
        value: -0.92387986
        inSlope: 0.6010479
        outSlope: 0.6010479
        tangentMode: 0
      - time: 1.2666662
        value: -0.9135458
        inSlope: 0.6388259
        outSlope: 0.6388259
        tangentMode: 0
      - time: 1.2833328
        value: -0.9025857
        inSlope: 0.67616767
        outSlope: 0.67616767
        tangentMode: 0
      - time: 1.2999995
        value: -0.8910069
        inSlope: 0.7130463
        outSlope: 0.7130463
        tangentMode: 0
      - time: 1.3166661
        value: -0.8788175
        inSlope: 0.7494314
        outSlope: 0.7494314
        tangentMode: 0
      - time: 1.3333328
        value: -0.86602587
        inSlope: 0.785305
        outSlope: 0.785305
        tangentMode: 0
      - time: 1.3499994
        value: -0.8526407
        inSlope: 0.8206441
        outSlope: 0.8206441
        tangentMode: 0
      - time: 1.3666661
        value: -0.8386711
        inSlope: 0.85542166
        outSlope: 0.85542166
        tangentMode: 0
      - time: 1.3833327
        value: -0.82412666
        inSlope: 0.8896055
        outSlope: 0.8896055
        tangentMode: 0
      - time: 1.3999994
        value: -0.8090176
        inSlope: 0.9231797
        outSlope: 0.9231797
        tangentMode: 0
      - time: 1.416666
        value: -0.79335403
        inSlope: 0.9561298
        outSlope: 0.9561298
        tangentMode: 0
      - time: 1.4333327
        value: -0.77714664
        inSlope: 0.9884236
        outSlope: 0.9884236
        tangentMode: 0
      - time: 1.4499993
        value: -0.7604066
        inSlope: 1.0200325
        outSlope: 1.0200325
        tangentMode: 0
      - time: 1.466666
        value: -0.7431456
        inSlope: 1.0509477
        outSlope: 1.0509477
        tangentMode: 0
      - time: 1.4833326
        value: -0.72537506
        inSlope: 1.0811405
        outSlope: 1.0811405
        tangentMode: 0
      - time: 1.4999993
        value: -0.7071076
        inSlope: 1.1105912
        outSlope: 1.1105912
        tangentMode: 0
      - time: 1.5166659
        value: -0.6883554
        inSlope: 1.139289
        outSlope: 1.139289
        tangentMode: 0
      - time: 1.5333326
        value: -0.66913134
        inSlope: 1.1671947
        outSlope: 1.1671947
        tangentMode: 0
      - time: 1.5499992
        value: -0.64944893
        inSlope: 1.1942995
        outSlope: 1.1942995
        tangentMode: 0
      - time: 1.5666659
        value: -0.6293214
        inSlope: 1.2205923
        outSlope: 1.2205923
        tangentMode: 0
      - time: 1.5833325
        value: -0.60876256
        inSlope: 1.2460518
        outSlope: 1.2460518
        tangentMode: 0
      - time: 1.5999992
        value: -0.5877864
        inSlope: 1.2706602
        outSlope: 1.2706602
        tangentMode: 0
      - time: 1.6166658
        value: -0.56640726
        inSlope: 1.2943852
        outSlope: 1.2943852
        tangentMode: 0
      - time: 1.6333325
        value: -0.54464024
        inSlope: 1.3172288
        outSlope: 1.3172288
        tangentMode: 0
      - time: 1.6499991
        value: -0.5224997
        inSlope: 1.3391764
        outSlope: 1.3391764
        tangentMode: 0
      - time: 1.6666658
        value: -0.5000011
        inSlope: 1.3601924
        outSlope: 1.3601924
        tangentMode: 0
      - time: 1.6833324
        value: -0.47715998
        inSlope: 1.380284
        outSlope: 1.380284
        tangentMode: 0
      - time: 1.6999991
        value: -0.45399165
        inSlope: 1.3994286
        outSlope: 1.3994286
        tangentMode: 0
      - time: 1.7166657
        value: -0.4305124
        inSlope: 1.4176078
        outSlope: 1.4176078
        tangentMode: 0
      - time: 1.7333324
        value: -0.4067381
        inSlope: 1.4348285
        outSlope: 1.4348285
        tangentMode: 0
      - time: 1.749999
        value: -0.38268483
        inSlope: 1.4510596
        outSlope: 1.4510596
        tangentMode: 0
      - time: 1.7666657
        value: -0.3583695
        inSlope: 1.4662962
        outSlope: 1.4662962
        tangentMode: 0
      - time: 1.7833323
        value: -0.33380833
        inSlope: 1.4805281
        outSlope: 1.4805281
        tangentMode: 0
      - time: 1.799999
        value: -0.3090186
        inSlope: 1.4937441
        outSlope: 1.4937441
        tangentMode: 0
      - time: 1.8166656
        value: -0.2840169
        inSlope: 1.5059438
        outSlope: 1.5059438
        tangentMode: 0
      - time: 1.8333323
        value: -0.25882053
        inSlope: 1.5170987
        outSlope: 1.5170987
        tangentMode: 0
      - time: 1.849999
        value: -0.233447
        inSlope: 1.52722
        outSlope: 1.52722
        tangentMode: 0
      - time: 1.8666656
        value: -0.20791325
        inSlope: 1.5362943
        outSlope: 1.5362943
        tangentMode: 0
      - time: 1.8833323
        value: -0.18223724
        inSlope: 1.5443163
        outSlope: 1.5443163
        tangentMode: 0
      - time: 1.8999989
        value: -0.15643609
        inSlope: 1.5512793
        outSlope: 1.5512793
        tangentMode: 0
      - time: 1.9166656
        value: -0.13052797
        inSlope: 1.5571722
        outSlope: 1.5571722
        tangentMode: 0
      - time: 1.9333322
        value: -0.104530394
        inSlope: 1.5620124
        outSlope: 1.5620124
        tangentMode: 0
      - time: 1.9499989
        value: -0.07846094
        inSlope: 1.5657748
        outSlope: 1.5657748
        tangentMode: 0
      - time: 1.9666655
        value: -0.052337952
        inSlope: 1.568464
        outSlope: 1.568464
        tangentMode: 0
      - time: 1.9833322
        value: -0.026178857
        inSlope: 1.5700865
        outSlope: 1.5700865
        tangentMode: 0
      - time: 2
        value: 0.00000008742278
        inSlope: 1.5706259
        outSlope: 1.5706259
        tangentMode: 0
      m_PreInfinity: 2
      m_PostInfinity: 2
      m_RotationOrder: 4
    attribute: m_LocalRotation.z
    path: football
    classID: 4
    script: {fileID: 0}
  - curve:
      serializedVersion: 2
      m_Curve:
      - time: 0
        value: -1
        inSlope: 0.020560024
        outSlope: 0.020560024
        tangentMode: 0
      - time: 0.016666668
        value: -0.99965733
        inSlope: 0.041114684
        outSlope: 0.041114684
        tangentMode: 0
      - time: 0.033333335
        value: -0.9986295
        inSlope: 0.08220076
        outSlope: 0.08220076
        tangentMode: 0
      - time: 0.050000004
        value: -0.9969173
        inSlope: 0.123227835
        outSlope: 0.123227835
        tangentMode: 0
      - time: 0.06666667
        value: -0.9945219
        inSlope: 0.16417266
        outSlope: 0.16417266
        tangentMode: 0
      - time: 0.083333336
        value: -0.9914449
        inSlope: 0.20500661
        outSlope: 0.20500661
        tangentMode: 0
      - time: 0.1
        value: -0.98768836
        inSlope: 0.24569932
        outSlope: 0.24569932
        tangentMode: 0
      - time: 0.11666667
        value: -0.9832549
        inSlope: 0.28622204
        outSlope: 0.28622204
        tangentMode: 0
      - time: 0.13333334
        value: -0.9781476
        inSlope: 0.32654995
        outSlope: 0.32654995
        tangentMode: 0
      - time: 0.15
        value: -0.9723699
        inSlope: 0.36665443
        outSlope: 0.36665443
        tangentMode: 0
      - time: 0.16666667
        value: -0.9659258
        inSlope: 0.4065049
        outSlope: 0.4065049
        tangentMode: 0
      - time: 0.18333334
        value: -0.95881975
        inSlope: 0.4460782
        outSlope: 0.4460782
        tangentMode: 0
      - time: 0.2
        value: -0.95105654
        inSlope: 0.48534757
        outSlope: 0.48534757
        tangentMode: 0
      - time: 0.21666667
        value: -0.9426415
        inSlope: 0.5242843
        outSlope: 0.5242843
        tangentMode: 0
      - time: 0.23333333
        value: -0.9335804
        inSlope: 0.56285983
        outSlope: 0.56285983
        tangentMode: 0
      - time: 0.25
        value: -0.9238795
        inSlope: 0.6010488
        outSlope: 0.6010488
        tangentMode: 0
      - time: 0.26666668
        value: -0.9135454
        inSlope: 0.63882655
        outSlope: 0.63882655
        tangentMode: 0
      - time: 0.28333336
        value: -0.90258527
        inSlope: 0.6761682
        outSlope: 0.6761682
        tangentMode: 0
      - time: 0.30000004
        value: -0.89100647
        inSlope: 0.713045
        outSlope: 0.713045
        tangentMode: 0
      - time: 0.31666672
        value: -0.8788171
        inSlope: 0.74943185
        outSlope: 0.74943185
        tangentMode: 0
      - time: 0.3333334
        value: -0.8660254
        inSlope: 0.785309
        outSlope: 0.785309
        tangentMode: 0
      - time: 0.35000008
        value: -0.8526401
        inSlope: 0.82064617
        outSlope: 0.82064617
        tangentMode: 0
      - time: 0.36666676
        value: -0.8386705
        inSlope: 0.8554183
        outSlope: 0.8554183
        tangentMode: 0
      - time: 0.38333344
        value: -0.8241261
        inSlope: 0.88960755
        outSlope: 0.88960755
        tangentMode: 0
      - time: 0.40000013
        value: -0.8090169
        inSlope: 0.92318517
        outSlope: 0.92318517
        tangentMode: 0
      - time: 0.4166668
        value: -0.79335326
        inSlope: 0.9561316
        outSlope: 0.9561316
        tangentMode: 0
      - time: 0.4333335
        value: -0.7771458
        inSlope: 0.9884236
        outSlope: 0.9884236
        tangentMode: 0
      - time: 0.45000017
        value: -0.7604058
        inSlope: 1.0200343
        outSlope: 1.0200343
        tangentMode: 0
      - time: 0.46666685
        value: -0.74314463
        inSlope: 1.0509495
        outSlope: 1.0509495
        tangentMode: 0
      - time: 0.48333353
        value: -0.7253741
        inSlope: 1.0811414
        outSlope: 1.0811414
        tangentMode: 0
      - time: 0.5000002
        value: -0.7071066
        inSlope: 1.1105912
        outSlope: 1.1105912
        tangentMode: 0
      - time: 0.5166668
        value: -0.68835443
        inSlope: 1.1392854
        outSlope: 1.1392854
        tangentMode: 0
      - time: 0.5333335
        value: -0.66913044
        inSlope: 1.1671965
        outSlope: 1.1671965
        tangentMode: 0
      - time: 0.55000013
        value: -0.6494479
        inSlope: 1.1943083
        outSlope: 1.1943083
        tangentMode: 0
      - time: 0.5666668
        value: -0.6293202
        inSlope: 1.2205994
        outSlope: 1.2205994
        tangentMode: 0
      - time: 0.58333343
        value: -0.6087613
        inSlope: 1.2460536
        outSlope: 1.2460536
        tangentMode: 0
      - time: 0.6000001
        value: -0.5877851
        inSlope: 1.2706566
        outSlope: 1.2706566
        tangentMode: 0
      - time: 0.61666673
        value: -0.56640613
        inSlope: 1.2943852
        outSlope: 1.2943852
        tangentMode: 0
      - time: 0.6333334
        value: -0.544639
        inSlope: 1.3172305
        outSlope: 1.3172305
        tangentMode: 0
      - time: 0.65000004
        value: -0.5224985
        inSlope: 1.3391719
        outSlope: 1.3391719
        tangentMode: 0
      - time: 0.6666667
        value: -0.49999997
        inSlope: 1.3601933
        outSlope: 1.3601933
        tangentMode: 0
      - time: 0.68333334
        value: -0.47715876
        inSlope: 1.3802848
        outSlope: 1.3802848
        tangentMode: 0
      - time: 0.7
        value: -0.45399052
        inSlope: 1.3994296
        outSlope: 1.3994296
        tangentMode: 0
      - time: 0.71666664
        value: -0.43051115
        inSlope: 1.4176149
        outSlope: 1.4176149
        tangentMode: 0
      - time: 0.7333333
        value: -0.40673673
        inSlope: 1.4348295
        outSlope: 1.4348295
        tangentMode: 0
      - time: 0.74999994
        value: -0.38268355
        inSlope: 1.4510604
        outSlope: 1.4510604
        tangentMode: 0
      - time: 0.7666666
        value: -0.3583681
        inSlope: 1.4662971
        outSlope: 1.4662971
        tangentMode: 0
      - time: 0.78333324
        value: -0.33380702
        inSlope: 1.4805325
        outSlope: 1.4805325
        tangentMode: 0
      - time: 0.7999999
        value: -0.30901706
        inSlope: 1.4937487
        outSlope: 1.4937487
        tangentMode: 0
      - time: 0.81666654
        value: -0.28401545
        inSlope: 1.505934
        outSlope: 1.505934
        tangentMode: 0
      - time: 0.8333332
        value: -0.2588193
        inSlope: 1.5170956
        outSlope: 1.5170956
        tangentMode: 0
      - time: 0.84999985
        value: -0.23344564
        inSlope: 1.5272208
        outSlope: 1.5272208
        tangentMode: 0
      - time: 0.8666665
        value: -0.207912
        inSlope: 1.5362983
        outSlope: 1.5362983
        tangentMode: 0
      - time: 0.88333315
        value: -0.18223575
        inSlope: 1.5443199
        outSlope: 1.5443199
        tangentMode: 0
      - time: 0.8999998
        value: -0.15643471
        inSlope: 1.5512757
        outSlope: 1.5512757
        tangentMode: 0
      - time: 0.91666645
        value: -0.1305266
        inSlope: 1.557176
        outSlope: 1.557176
        tangentMode: 0
      - time: 0.9333331
        value: -0.1045289
        inSlope: 1.5620127
        outSlope: 1.5620127
        tangentMode: 0
      - time: 0.94999975
        value: -0.07845956
        inSlope: 1.5657785
        outSlope: 1.5657785
        tangentMode: 0
      - time: 0.9666664
        value: -0.05233633
        inSlope: 1.5684677
        outSlope: 1.5684677
        tangentMode: 0
      - time: 0.98333305
        value: -0.026177352
        inSlope: 1.5700748
        outSlope: 1.5700748
        tangentMode: 0
      - time: 0.9999997
        value: -0.00000055233505
        inSlope: 1.5706139
        outSlope: 1.5706139
        tangentMode: 0
      - time: 1.0166664
        value: 0.026176486
        inSlope: 1.5700829
        outSlope: 1.5700829
        tangentMode: 0
      - time: 1.0333331
        value: 0.052335586
        inSlope: 1.5684679
        outSlope: 1.5684679
        tangentMode: 0
      - time: 1.0499997
        value: 0.0784587
        inSlope: 1.5657716
        outSlope: 1.5657716
        tangentMode: 0
      - time: 1.0666664
        value: 0.10452792
        inSlope: 1.5620091
        outSlope: 1.5620091
        tangentMode: 0
      - time: 1.083333
        value: 0.13052562
        inSlope: 1.5571834
        outSlope: 1.5571834
        tangentMode: 0
      - time: 1.0999997
        value: 0.15643398
        inSlope: 1.5512834
        outSlope: 1.5512834
        tangentMode: 0
      - time: 1.1166663
        value: 0.18223502
        inSlope: 1.5443168
        outSlope: 1.5443168
        tangentMode: 0
      - time: 1.133333
        value: 0.20791116
        inSlope: 1.5362952
        outSlope: 1.5362952
        tangentMode: 0
      - time: 1.1499996
        value: 0.23344481
        inSlope: 1.5272173
        outSlope: 1.5272173
        tangentMode: 0
      - time: 1.1666663
        value: 0.25881836
        inSlope: 1.5170991
        outSlope: 1.5170991
        tangentMode: 0
      - time: 1.1833329
        value: 0.28401473
        inSlope: 1.505942
        outSlope: 1.505942
        tangentMode: 0
      - time: 1.1999996
        value: 0.30901638
        inSlope: 1.493746
        outSlope: 1.493746
        tangentMode: 0
      - time: 1.2166662
        value: 0.33380622
        inSlope: 1.4805281
        outSlope: 1.4805281
        tangentMode: 0
      - time: 1.2333329
        value: 0.35836726
        inSlope: 1.4662936
        outSlope: 1.4662936
        tangentMode: 0
      - time: 1.2499995
        value: 0.38268262
        inSlope: 1.4510612
        outSlope: 1.4510612
        tangentMode: 0
      - time: 1.2666662
        value: 0.40673593
        inSlope: 1.4348303
        outSlope: 1.4348303
        tangentMode: 0
      - time: 1.2833328
        value: 0.43051025
        inSlope: 1.4176159
        outSlope: 1.4176159
        tangentMode: 0
      - time: 1.2999995
        value: 0.45398974
        inSlope: 1.3994367
        outSlope: 1.3994367
        tangentMode: 0
      - time: 1.3166661
        value: 0.4771581
        inSlope: 1.3802857
        outSlope: 1.3802857
        tangentMode: 0
      - time: 1.3333328
        value: 0.49999923
        inSlope: 1.360188
        outSlope: 1.360188
        tangentMode: 0
      - time: 1.3499994
        value: 0.52249765
        inSlope: 1.339171
        outSlope: 1.339171
        tangentMode: 0
      - time: 1.3666661
        value: 0.5446382
        inSlope: 1.3172376
        outSlope: 1.3172376
        tangentMode: 0
      - time: 1.3833327
        value: 0.56640553
        inSlope: 1.294387
        outSlope: 1.294387
        tangentMode: 0
      - time: 1.3999994
        value: 0.5877844
        inSlope: 1.2706512
        outSlope: 1.2706512
        tangentMode: 0
      - time: 1.416666
        value: 0.60876054
        inSlope: 1.2460554
        outSlope: 1.2460554
        tangentMode: 0
      - time: 1.4333327
        value: 0.62931955
        inSlope: 1.2206048
        outSlope: 1.2206048
        tangentMode: 0
      - time: 1.4499993
        value: 0.6494473
        inSlope: 1.1943083
        outSlope: 1.1943083
        tangentMode: 0
      - time: 1.466666
        value: 0.6691298
        inSlope: 1.1671965
        outSlope: 1.1671965
        tangentMode: 0
      - time: 1.4833326
        value: 0.68835384
        inSlope: 1.1392854
        outSlope: 1.1392854
        tangentMode: 0
      - time: 1.4999993
        value: 0.70710593
        inSlope: 1.1105947
        outSlope: 1.1105947
        tangentMode: 0
      - time: 1.5166659
        value: 0.7253736
        inSlope: 1.0811477
        outSlope: 1.0811477
        tangentMode: 0
      - time: 1.5333326
        value: 0.74314415
        inSlope: 1.0509496
        outSlope: 1.0509496
        tangentMode: 0
      - time: 1.5499992
        value: 0.76040524
        inSlope: 1.0200307
        outSlope: 1.0200307
        tangentMode: 0
      - time: 1.5666659
        value: 0.77714515
        inSlope: 0.9884182
        outSlope: 0.9884182
        tangentMode: 0
      - time: 1.5833325
        value: 0.7933525
        inSlope: 0.9561316
        outSlope: 0.9561316
        tangentMode: 0
      - time: 1.5999992
        value: 0.80901617
        inSlope: 0.9231904
        outSlope: 0.9231904
        tangentMode: 0
      - time: 1.6166658
        value: 0.82412547
        inSlope: 0.8896091
        outSlope: 0.8896091
        tangentMode: 0
      - time: 1.6333325
        value: 0.8386698
        inSlope: 0.85542166
        outSlope: 0.85542166
        tangentMode: 0
      - time: 1.6499991
        value: 0.8526395
        inSlope: 0.82065123
        outSlope: 0.82065123
        tangentMode: 0
      - time: 1.6666658
        value: 0.8660248
        inSlope: 0.7853086
        outSlope: 0.7853086
        tangentMode: 0
      - time: 1.6833324
        value: 0.8788164
        inSlope: 0.74943495
        outSlope: 0.74943495
        tangentMode: 0
      - time: 1.6999991
        value: 0.89100593
        inSlope: 0.7130481
        outSlope: 0.7130481
        tangentMode: 0
      - time: 1.7166657
        value: 0.9025847
        inSlope: 0.67616767
        outSlope: 0.67616767
        tangentMode: 0
      - time: 1.7333324
        value: 0.91354483
        inSlope: 0.63882947
        outSlope: 0.63882947
        tangentMode: 0
      - time: 1.749999
        value: 0.92387897
        inSlope: 0.60105145
        outSlope: 0.60105145
        tangentMode: 0
      - time: 1.7666657
        value: 0.93357986
        inSlope: 0.5628603
        outSlope: 0.5628603
        tangentMode: 0
      - time: 1.7833323
        value: 0.94264096
        inSlope: 0.5242847
        outSlope: 0.5242847
        tangentMode: 0
      - time: 1.799999
        value: 0.951056
        inSlope: 0.48534977
        outSlope: 0.48534977
        tangentMode: 0
      - time: 1.8166656
        value: 0.95881927
        inSlope: 0.44608396
        outSlope: 0.44608396
        tangentMode: 0
      - time: 1.8333323
        value: 0.96592546
        inSlope: 0.40650883
        outSlope: 0.40650883
        tangentMode: 0
      - time: 1.849999
        value: 0.97236955
        inSlope: 0.36665475
        outSlope: 0.36665475
        tangentMode: 0
      - time: 1.8666656
        value: 0.97814727
        inSlope: 0.3265521
        outSlope: 0.3265521
        tangentMode: 0
      - time: 1.8833323
        value: 0.9832546
        inSlope: 0.2862242
        outSlope: 0.2862242
        tangentMode: 0
      - time: 1.8999989
        value: 0.98768806
        inSlope: 0.24570131
        outSlope: 0.24570131
        tangentMode: 0
      - time: 1.9166656
        value: 0.99144465
        inSlope: 0.20500858
        outSlope: 0.20500858
        tangentMode: 0
      - time: 1.9333322
        value: 0.9945217
        inSlope: 0.16417637
        outSlope: 0.16417637
        tangentMode: 0
      - time: 1.9499989
        value: 0.9969172
        inSlope: 0.12323332
        outSlope: 0.12323332
        tangentMode: 0
      - time: 1.9666655
        value: 0.99862945
        inSlope: 0.08220263
        outSlope: 0.08220263
        tangentMode: 0
      - time: 1.9833322
        value: 0.9996573
        inSlope: 0.04111578
        outSlope: 0.04111578
        tangentMode: 0
      - time: 2
        value: 1
        inSlope: 0.020562151
        outSlope: 0.020562151
        tangentMode: 0
      m_PreInfinity: 2
      m_PostInfinity: 2
      m_RotationOrder: 4
    attribute: m_LocalRotation.w
    path: football
    classID: 4
    script: {fileID: 0}
  m_EulerEditorCurves:
  - curve:
      serializedVersion: 2
      m_Curve:
      - time: 0
        value: 0
        inSlope: 0
        outSlope: 0
        tangentMode: 10
      - time: 2
        value: 0
        inSlope: 0
        outSlope: 0
        tangentMode: 10
      m_PreInfinity: 2
      m_PostInfinity: 2
      m_RotationOrder: 4
    attribute: localEulerAnglesBaked.x
    path: football
    classID: 4
    script: {fileID: 0}
  - curve:
      serializedVersion: 2
      m_Curve:
      - time: 0
        value: 0
        inSlope: 0
        outSlope: 0
        tangentMode: 10
      - time: 2
        value: 0
        inSlope: 0
        outSlope: 0
        tangentMode: 10
      m_PreInfinity: 2
      m_PostInfinity: 2
      m_RotationOrder: 4
    attribute: localEulerAnglesBaked.y
    path: football
    classID: 4
    script: {fileID: 0}
  - curve:
      serializedVersion: 2
      m_Curve:
      - time: 0
        value: 0
        inSlope: 180
        outSlope: 180
        tangentMode: 10
      - time: 2
        value: 360
        inSlope: 180
        outSlope: 180
        tangentMode: 10
      m_PreInfinity: 2
      m_PostInfinity: 2
      m_RotationOrder: 4
    attribute: localEulerAnglesBaked.z
    path: football
    classID: 4
    script: {fileID: 0}
  m_HasGenericRootTransform: 0
  m_HasMotionFloatCurves: 0
  m_GenerateMotionCurves: 0
  m_Events: []
