%YAML 1.1
%TAG !u! tag:unity3d.com,2011:
--- !u!74 &7400000
AnimationClip:
  m_ObjectHideFlags: 0
  m_PrefabParentObject: {fileID: 0}
  m_PrefabInternal: {fileID: 0}
  m_Name: pointsBoost
  serializedVersion: 6
  m_Legacy: 1
  m_Compressed: 0
  m_UseHighQualityCurve: 1
  m_RotationCurves: []
  m_CompressedRotationCurves: []
  m_EulerCurves: []
  m_PositionCurves:
  - curve:
      serializedVersion: 2
      m_Curve:
      - time: 0
        value: {x: 0, y: 8, z: 0}
        inSlope: {x: 0, y: 0, z: 0}
        outSlope: {x: 0, y: 0, z: 0}
        tangentMode: 1
      - time: 0.33333334
        value: {x: 0, y: -69, z: 0}
        inSlope: {x: 0, y: 0, z: 0}
        outSlope: {x: 0, y: 0, z: 0}
        tangentMode: 0
      - time: 4.1666665
        value: {x: 0, y: -69, z: 0}
        inSlope: {x: 0, y: 0, z: 0}
        outSlope: {x: 0, y: 0, z: 0}
        tangentMode: 0
      - time: 4.516667
        value: {x: 0, y: 8, z: 0}
        inSlope: {x: 0, y: 0, z: 0}
        outSlope: {x: 0, y: 0, z: 0}
        tangentMode: 1818583649
      - time: 5.016667
        value: {x: 0, y: 8, z: 0}
        inSlope: {x: 0, y: 0, z: 0}
        outSlope: {x: 0, y: 0, z: 0}
        tangentMode: 0
      m_PreInfinity: 2
      m_PostInfinity: 2
      m_RotationOrder: 4
    path: Score
  - curve:
      serializedVersion: 2
      m_Curve:
      - time: 0
        value: {x: 474.0379, y: 0.017990112, z: 0}
        inSlope: {x: 0, y: 0, z: 0}
        outSlope: {x: 0, y: 0, z: 0}
        tangentMode: 0
      - time: 1.3166667
        value: {x: 474.0379, y: 0.017990112, z: 0}
        inSlope: {x: 0, y: 0, z: 0}
        outSlope: {x: 0, y: 0, z: 0}
        tangentMode: 1
      - time: 1.3333334
        value: {x: 0, y: 0, z: 0}
        inSlope: {x: -4.1562877, y: -4.657351, z: 0}
        outSlope: {x: -4.1562877, y: -4.657351, z: 0}
        tangentMode: 0
      - time: 2.1833334
        value: {x: 0, y: -7, z: 0}
        inSlope: {x: -9.12645, y: 0, z: 0}
        outSlope: {x: -9.12645, y: 0, z: 0}
        tangentMode: 58
      - time: 2.5
        value: {x: 0, y: -7, z: 0}
        inSlope: {x: -50.71995, y: 0, z: 0}
        outSlope: {x: -50.71995, y: 0, z: 0}
        tangentMode: 0
      - time: 2.6833334
        value: {x: -331, y: -7, z: 0}
        inSlope: {x: -1805.454, y: 0, z: 0}
        outSlope: {x: -1805.454, y: 0, z: 0}
        tangentMode: 1250198944
      m_PreInfinity: 2
      m_PostInfinity: 2
      m_RotationOrder: 4
    path: timeBanner/x2
  - curve:
      serializedVersion: 2
      m_Curve:
      - time: 0
        value: {x: 67, y: -32, z: 0}
        inSlope: {x: 0, y: 0, z: 0}
        outSlope: {x: 0, y: 0, z: 0}
        tangentMode: 1066751317
      - time: 1.3166667
        value: {x: 67, y: -32, z: 0}
        inSlope: {x: 0, y: 0, z: 0}
        outSlope: {x: 0, y: 0, z: 0}
        tangentMode: 1141473280
      - time: 1.3333334
        value: {x: 471, y: -18, z: 0}
        inSlope: {x: 24240.023, y: 840.0008, z: 0}
        outSlope: {x: 24240.023, y: 840.0008, z: 0}
        tangentMode: 0
      m_PreInfinity: 2
      m_PostInfinity: 2
      m_RotationOrder: 4
    path: timeBanner/Label2points
  - curve:
      serializedVersion: 2
      m_Curve:
      - time: 0
        value: {x: 294, y: -30, z: 0}
        inSlope: {x: 0, y: 0, z: 0}
        outSlope: {x: 0, y: 0, z: 0}
        tangentMode: 1243476004
      - time: 1.3166667
        value: {x: 348.3, y: -30, z: 0}
        inSlope: {x: 0, y: 0, z: 0}
        outSlope: {x: 0, y: 0, z: 0}
        tangentMode: 0
      - time: 1.3333334
        value: {x: 0, y: -11, z: 0}
        inSlope: {x: -20898.02, y: 1140.0011, z: 0}
        outSlope: {x: -20898.02, y: 1140.0011, z: 0}
        tangentMode: 0
      m_PreInfinity: 2
      m_PostInfinity: 2
      m_RotationOrder: 4
    path: timeBanner/Label1points
  m_ScaleCurves:
  - curve:
      serializedVersion: 2
      m_Curve:
      - time: 0
        value: {x: 1, y: 1, z: 1}
        inSlope: {x: 0, y: 0, z: 0}
        outSlope: {x: 0, y: 0, z: 0}
        tangentMode: 0
      - time: 1.3166667
        value: {x: 1, y: 1, z: 1}
        inSlope: {x: 0, y: 0, z: 0}
        outSlope: {x: 0, y: 0, z: 0}
        tangentMode: 1
      - time: 1.3333334
        value: {x: 2.4327812, y: 2.4327817, z: 2.4327817}
        inSlope: {x: 43.033894, y: 43.033905, z: 43.108902}
        outSlope: {x: 43.033894, y: 43.033905, z: 43.108902}
        tangentMode: 0
      - time: 2
        value: {x: 2.5, y: 2.5, z: 2.6}
        inSlope: {x: -4.895904, y: -4.8959045, z: -5.0936313}
        outSlope: {x: -4.895904, y: -4.8959045, z: -5.0936313}
        tangentMode: 58
      - time: 2.1833334
        value: {x: 0.6863494, y: 0.6863494, z: 0.6863494}
        inSlope: {x: -3.900815, y: -3.900815, z: -4.173542}
        outSlope: {x: -3.900815, y: -3.900815, z: -4.173542}
        tangentMode: 0
      - time: 2.3333333
        value: {x: 1, y: 1, z: 1}
        inSlope: {x: 2.091006, y: 2.091006, z: 2.091006}
        outSlope: {x: 2.091006, y: 2.091006, z: 2.091006}
        tangentMode: 1249214820
      m_PreInfinity: 2
      m_PostInfinity: 2
      m_RotationOrder: 4
    path: timeBanner/x2
  - curve:
      serializedVersion: 2
      m_Curve:
      - time: 0
        value: {x: 1, y: 1, z: 1}
        inSlope: {x: 0, y: 0, z: 0}
        outSlope: {x: 0, y: 0, z: 0}
        tangentMode: 0
      - time: 1.3166667
        value: {x: 1, y: 1, z: 1}
        inSlope: {x: 0, y: 0, z: 0}
        outSlope: {x: 0, y: 0, z: 0}
        tangentMode: 0
      - time: 1.3333334
        value: {x: 2.212049, y: 2.2120488, z: 2.2120488}
        inSlope: {x: 34.54343, y: 34.543423, z: 34.543423}
        outSlope: {x: 34.54343, y: 34.543423, z: 34.543423}
        tangentMode: 0
      - time: 1.6666666
        value: {x: 1, y: 1, z: 1}
        inSlope: {x: -1.818074, y: -1.8180736, z: -1.8180736}
        outSlope: {x: -1.818074, y: -1.8180736, z: -1.8180736}
        tangentMode: 0
      - time: 1.8333334
        value: {x: 1, y: 1, z: 1}
        inSlope: {x: 0, y: 0, z: 0}
        outSlope: {x: 0, y: 0, z: 0}
        tangentMode: 0
      - time: 2
        value: {x: 1, y: 1, z: 1}
        inSlope: {x: 0, y: 0, z: 0}
        outSlope: {x: 0, y: 0, z: 0}
        tangentMode: 0
      - time: 2.1833334
        value: {x: 1, y: 1, z: 1}
        inSlope: {x: 0, y: 0, z: 0}
        outSlope: {x: 0, y: 0, z: 0}
        tangentMode: 0
      m_PreInfinity: 2
      m_PostInfinity: 2
      m_RotationOrder: 4
    path: timeBanner/Label1points
  m_FloatCurves:
  - curve:
      serializedVersion: 2
      m_Curve:
      - time: 0
        value: 0
        inSlope: 0
        outSlope: 0
        tangentMode: 0
      - time: 0.5
        value: 0
        inSlope: 0
        outSlope: 0
        tangentMode: 0
      - time: 0.6666667
        value: 550
        inSlope: 0
        outSlope: 0
        tangentMode: 0
      - time: 3.55
        value: 550
        inSlope: 0
        outSlope: 0
        tangentMode: 0
      - time: 3.7166667
        value: 0
        inSlope: 0
        outSlope: 0
        tangentMode: 0
      m_PreInfinity: 2
      m_PostInfinity: 2
      m_RotationOrder: 4
    attribute: width
    path: timeBanner/TopBgtimer
    classID: 114
    script: {fileID: 11500000, guid: 27adfee35dd94cb4a8d0cd2ed7d934be, type: 3}
  - curve:
      serializedVersion: 2
      m_Curve:
      - time: 0
        value: 0
        inSlope: 0
        outSlope: 0
        tangentMode: 0
      - time: 0.5
        value: 0
        inSlope: 0
        outSlope: 0
        tangentMode: 0
      - time: 0.6666667
        value: 550
        inSlope: 0
        outSlope: 0
        tangentMode: 0
      - time: 3.55
        value: 550
        inSlope: 0
        outSlope: 0
        tangentMode: 0
      - time: 3.7166667
        value: 0
        inSlope: 0
        outSlope: 0
        tangentMode: 0
      m_PreInfinity: 2
      m_PostInfinity: 2
      m_RotationOrder: 4
    attribute: width
    path: timeBanner/DownBgCardW
    classID: 114
    script: {fileID: 11500000, guid: 27adfee35dd94cb4a8d0cd2ed7d934be, type: 3}
  - curve:
      serializedVersion: 2
      m_Curve:
      - time: 0
        value: 40
        inSlope: 0
        outSlope: 0
        tangentMode: 0
      - time: 0.5
        value: 40
        inSlope: 0
        outSlope: 0
        tangentMode: 0
      m_PreInfinity: 2
      m_PostInfinity: 2
      m_RotationOrder: 4
    attribute: height
    path: timeBanner/TopBgtimer
    classID: 114
    script: {fileID: 11500000, guid: 27adfee35dd94cb4a8d0cd2ed7d934be, type: 3}
  - curve:
      serializedVersion: 2
      m_Curve:
      - time: 0
        value: 40
        inSlope: 0
        outSlope: 0
        tangentMode: 0
      - time: 0.5
        value: 40
        inSlope: 0
        outSlope: 0
        tangentMode: 0
      m_PreInfinity: 2
      m_PostInfinity: 2
      m_RotationOrder: 4
    attribute: height
    path: timeBanner/DownBgCardW
    classID: 114
    script: {fileID: 11500000, guid: 27adfee35dd94cb4a8d0cd2ed7d934be, type: 3}
  - curve:
      serializedVersion: 2
      m_Curve:
      - time: 0
        value: 0
        inSlope: 0
        outSlope: 0
        tangentMode: 0
      - time: 0.8333333
        value: 1
        inSlope: 0
        outSlope: 0
        tangentMode: 0
      - time: 3.55
        value: 0
        inSlope: Infinity
        outSlope: Infinity
        tangentMode: 31
      m_PreInfinity: 2
      m_PostInfinity: 2
      m_RotationOrder: 4
    attribute: m_IsActive
    path: timeBanner/centerWhitetimer
    classID: 1
    script: {fileID: 0}
  - curve:
      serializedVersion: 2
      m_Curve:
      - time: 0
        value: 0
        inSlope: 0
        outSlope: 0
        tangentMode: 0
      - time: 0.8333333
        value: 1
        inSlope: 0
        outSlope: 0
        tangentMode: 0
      - time: 1.1666666
        value: 550
        inSlope: 0
        outSlope: 0
        tangentMode: 0
      - time: 1.3166667
        value: 550
        inSlope: 0
        outSlope: 0
        tangentMode: 0
      - time: 2.8833334
        value: 550
        inSlope: 0
        outSlope: 0
        tangentMode: 0
      - time: 3.05
        value: 550
        inSlope: 0
        outSlope: 0
        tangentMode: 0
      - time: 3.2166667
        value: 550
        inSlope: 0
        outSlope: 0
        tangentMode: 0
      - time: 3.3833334
        value: 0
        inSlope: 0
        outSlope: 0
        tangentMode: 0
      m_PreInfinity: 2
      m_PostInfinity: 2
      m_RotationOrder: 4
    attribute: width
    path: timeBanner/centerWhitetimer
    classID: 114
    script: {fileID: 11500000, guid: 27adfee35dd94cb4a8d0cd2ed7d934be, type: 3}
  - curve:
      serializedVersion: 2
      m_Curve:
      - time: 0
        value: 0
        inSlope: 0
        outSlope: 0
        tangentMode: 0
      - time: 0.8333333
        value: 1
        inSlope: 0
        outSlope: 0
        tangentMode: 0
      - time: 1.1666666
        value: 0
        inSlope: 0
        outSlope: 0
        tangentMode: 0
      - time: 1.3166667
        value: 0
        inSlope: 0
        outSlope: 0
        tangentMode: 0
      - time: 1.3333334
        value: 100
        inSlope: 0
        outSlope: 0
        tangentMode: 0
      - time: 2.8833334
        value: 100
        inSlope: 0
        outSlope: 0
        tangentMode: 0
      - time: 3.05
        value: 0
        inSlope: 0
        outSlope: 0
        tangentMode: 0
      m_PreInfinity: 2
      m_PostInfinity: 2
      m_RotationOrder: 4
    attribute: height
    path: timeBanner/centerWhitetimer
    classID: 114
    script: {fileID: 11500000, guid: 27adfee35dd94cb4a8d0cd2ed7d934be, type: 3}
  - curve:
      serializedVersion: 2
      m_Curve:
      - time: 0
        value: 0
        inSlope: 0
        outSlope: 0
        tangentMode: 0
      - time: 1.3166667
        value: 0
        inSlope: 0
        outSlope: 0
        tangentMode: 0
      - time: 1.3333334
        value: 0
        inSlope: 0
        outSlope: 0
        tangentMode: 10
      - time: 2
        value: 0
        inSlope: 2.7272718
        outSlope: 2.7272718
        tangentMode: 10
      - time: 2.1833334
        value: 1
        inSlope: 2.7272718
        outSlope: 2.7272718
        tangentMode: 10
      - time: 2.3333333
        value: 1
        inSlope: 0
        outSlope: 0
        tangentMode: 10
      m_PreInfinity: 2
      m_PostInfinity: 2
      m_RotationOrder: 4
    attribute: alpha
    path: timeBanner/x2
    classID: 114
    script: {fileID: 11500000, guid: 6f9aef6d5962d8849aa830ef46c7c993, type: 3}
  - curve:
      serializedVersion: 2
      m_Curve:
      - time: 0
        value: 1
        inSlope: 0
        outSlope: 0
        tangentMode: 0
      - time: 1.3166667
        value: 1
        inSlope: 0
        outSlope: 0
        tangentMode: 0
      - time: 1.3333334
        value: 0
        inSlope: -28.500029
        outSlope: -28.500029
        tangentMode: 10
      - time: 1.6666666
        value: 1
        inSlope: 1.5000004
        outSlope: 1.5000004
        tangentMode: 10
      - time: 2
        value: 1
        inSlope: -2.7272718
        outSlope: -2.7272718
        tangentMode: 10
      - time: 2.1833334
        value: 0
        inSlope: -5.4545436
        outSlope: -5.4545436
        tangentMode: 10
      m_PreInfinity: 2
      m_PostInfinity: 2
      m_RotationOrder: 4
    attribute: alpha
    path: timeBanner/Label1points
    classID: 114
    script: {fileID: 11500000, guid: 6f9aef6d5962d8849aa830ef46c7c993, type: 3}
  m_PPtrCurves: []
  m_SampleRate: 60
  m_WrapMode: 0
  m_Bounds:
    m_Center: {x: 0, y: 0, z: 0}
    m_Extent: {x: 0, y: 0, z: 0}
  m_ClipBindingConstant:
    genericBindings: []
    pptrCurveMapping: []
  m_AnimationClipSettings:
    serializedVersion: 2
    m_AdditiveReferencePoseClip: {fileID: 0}
    m_AdditiveReferencePoseTime: 0
    m_StartTime: 0
    m_StopTime: 5.016667
    m_OrientationOffsetY: 0
    m_Level: 0
    m_CycleOffset: 0
    m_HasAdditiveReferencePose: 0
    m_LoopTime: 0
    m_LoopBlend: 0
    m_LoopBlendOrientation: 0
    m_LoopBlendPositionY: 0
    m_LoopBlendPositionXZ: 0
    m_KeepOriginalOrientation: 0
    m_KeepOriginalPositionY: 1
    m_KeepOriginalPositionXZ: 0
    m_HeightFromFeet: 0
    m_Mirror: 0
  m_EditorCurves:
  - curve:
      serializedVersion: 2
      m_Curve:
      - time: 0
        value: 0
        inSlope: 0
        outSlope: 0
        tangentMode: 0
      - time: 0.33333334
        value: 0
        inSlope: 0
        outSlope: 0
        tangentMode: 0
      - time: 4.1666665
        value: 0
        inSlope: 0
        outSlope: 0
        tangentMode: 0
      - time: 4.516667
        value: 0
        inSlope: 0
        outSlope: 0
        tangentMode: 0
      - time: 5.016667
        value: 0
        inSlope: 0
        outSlope: 0
        tangentMode: 0
      m_PreInfinity: 2
      m_PostInfinity: 2
      m_RotationOrder: 4
    attribute: m_LocalPosition.x
    path: Score
    classID: 4
    script: {fileID: 0}
  - curve:
      serializedVersion: 2
      m_Curve:
      - time: 0
        value: 8
        inSlope: 0
        outSlope: 0
        tangentMode: 0
      - time: 0.33333334
        value: -69
        inSlope: 0
        outSlope: 0
        tangentMode: 0
      - time: 4.1666665
        value: -69
        inSlope: 0
        outSlope: 0
        tangentMode: 0
      - time: 4.516667
        value: 8
        inSlope: 0
        outSlope: 0
        tangentMode: 0
      - time: 5.016667
        value: 8
        inSlope: 0
        outSlope: 0
        tangentMode: 0
      m_PreInfinity: 2
      m_PostInfinity: 2
      m_RotationOrder: 4
    attribute: m_LocalPosition.y
    path: Score
    classID: 4
    script: {fileID: 0}
  - curve:
      serializedVersion: 2
      m_Curve:
      - time: 0
        value: 0
        inSlope: 0
        outSlope: 0
        tangentMode: 0
      - time: 0.33333334
        value: 0
        inSlope: 0
        outSlope: 0
        tangentMode: 0
      - time: 4.1666665
        value: 0
        inSlope: 0
        outSlope: 0
        tangentMode: 0
      - time: 4.516667
        value: 0
        inSlope: 0
        outSlope: 0
        tangentMode: 0
      - time: 5.016667
        value: 0
        inSlope: 0
        outSlope: 0
        tangentMode: 0
      m_PreInfinity: 2
      m_PostInfinity: 2
      m_RotationOrder: 4
    attribute: m_LocalPosition.z
    path: Score
    classID: 4
    script: {fileID: 0}
  - curve:
      serializedVersion: 2
      m_Curve:
      - time: 0
        value: 0
        inSlope: 0
        outSlope: 0
        tangentMode: 0
      - time: 0.5
        value: 0
        inSlope: 0
        outSlope: 0
        tangentMode: 0
      - time: 0.6666667
        value: 550
        inSlope: 0
        outSlope: 0
        tangentMode: 0
      - time: 3.55
        value: 550
        inSlope: 0
        outSlope: 0
        tangentMode: 0
      - time: 3.7166667
        value: 0
        inSlope: 0
        outSlope: 0
        tangentMode: 0
      m_PreInfinity: 2
      m_PostInfinity: 2
      m_RotationOrder: 4
    attribute: width
    path: timeBanner/TopBgtimer
    classID: 114
    script: {fileID: 11500000, guid: 27adfee35dd94cb4a8d0cd2ed7d934be, type: 3}
  - curve:
      serializedVersion: 2
      m_Curve:
      - time: 0
        value: 0
        inSlope: 0
        outSlope: 0
        tangentMode: 0
      - time: 0.5
        value: 0
        inSlope: 0
        outSlope: 0
        tangentMode: 0
      - time: 0.6666667
        value: 550
        inSlope: 0
        outSlope: 0
        tangentMode: 0
      - time: 3.55
        value: 550
        inSlope: 0
        outSlope: 0
        tangentMode: 0
      - time: 3.7166667
        value: 0
        inSlope: 0
        outSlope: 0
        tangentMode: 0
      m_PreInfinity: 2
      m_PostInfinity: 2
      m_RotationOrder: 4
    attribute: width
    path: timeBanner/DownBgCardW
    classID: 114
    script: {fileID: 11500000, guid: 27adfee35dd94cb4a8d0cd2ed7d934be, type: 3}
  - curve:
      serializedVersion: 2
      m_Curve:
      - time: 0
        value: 40
        inSlope: 0
        outSlope: 0
        tangentMode: 0
      - time: 0.5
        value: 40
        inSlope: 0
        outSlope: 0
        tangentMode: 0
      m_PreInfinity: 2
      m_PostInfinity: 2
      m_RotationOrder: 4
    attribute: height
    path: timeBanner/TopBgtimer
    classID: 114
    script: {fileID: 11500000, guid: 27adfee35dd94cb4a8d0cd2ed7d934be, type: 3}
  - curve:
      serializedVersion: 2
      m_Curve:
      - time: 0
        value: 40
        inSlope: 0
        outSlope: 0
        tangentMode: 0
      - time: 0.5
        value: 40
        inSlope: 0
        outSlope: 0
        tangentMode: 0
      m_PreInfinity: 2
      m_PostInfinity: 2
      m_RotationOrder: 4
    attribute: height
    path: timeBanner/DownBgCardW
    classID: 114
    script: {fileID: 11500000, guid: 27adfee35dd94cb4a8d0cd2ed7d934be, type: 3}
  - curve:
      serializedVersion: 2
      m_Curve:
      - time: 0
        value: 0
        inSlope: 0
        outSlope: 0
        tangentMode: 0
      - time: 0.8333333
        value: 1
        inSlope: 0
        outSlope: 0
        tangentMode: 0
      - time: 3.55
        value: 0
        inSlope: Infinity
        outSlope: Infinity
        tangentMode: 31
      m_PreInfinity: 2
      m_PostInfinity: 2
      m_RotationOrder: 4
    attribute: m_IsActive
    path: timeBanner/centerWhitetimer
    classID: 1
    script: {fileID: 0}
  - curve:
      serializedVersion: 2
      m_Curve:
      - time: 0
        value: 0
        inSlope: 0
        outSlope: 0
        tangentMode: 0
      - time: 0.8333333
        value: 1
        inSlope: 0
        outSlope: 0
        tangentMode: 0
      - time: 1.1666666
        value: 550
        inSlope: 0
        outSlope: 0
        tangentMode: 0
      - time: 1.3166667
        value: 550
        inSlope: 0
        outSlope: 0
        tangentMode: 0
      - time: 2.8833334
        value: 550
        inSlope: 0
        outSlope: 0
        tangentMode: 0
      - time: 3.05
        value: 550
        inSlope: 0
        outSlope: 0
        tangentMode: 0
      - time: 3.2166667
        value: 550
        inSlope: 0
        outSlope: 0
        tangentMode: 0
      - time: 3.3833334
        value: 0
        inSlope: 0
        outSlope: 0
        tangentMode: 0
      m_PreInfinity: 2
      m_PostInfinity: 2
      m_RotationOrder: 4
    attribute: width
    path: timeBanner/centerWhitetimer
    classID: 114
    script: {fileID: 11500000, guid: 27adfee35dd94cb4a8d0cd2ed7d934be, type: 3}
  - curve:
      serializedVersion: 2
      m_Curve:
      - time: 0
        value: 0
        inSlope: 0
        outSlope: 0
        tangentMode: 0
      - time: 0.8333333
        value: 1
        inSlope: 0
        outSlope: 0
        tangentMode: 0
      - time: 1.1666666
        value: 0
        inSlope: 0
        outSlope: 0
        tangentMode: 0
      - time: 1.3166667
        value: 0
        inSlope: 0
        outSlope: 0
        tangentMode: 0
      - time: 1.3333334
        value: 100
        inSlope: 0
        outSlope: 0
        tangentMode: 0
      - time: 2.8833334
        value: 100
        inSlope: 0
        outSlope: 0
        tangentMode: 0
      - time: 3.05
        value: 0
        inSlope: 0
        outSlope: 0
        tangentMode: 0
      m_PreInfinity: 2
      m_PostInfinity: 2
      m_RotationOrder: 4
    attribute: height
    path: timeBanner/centerWhitetimer
    classID: 114
    script: {fileID: 11500000, guid: 27adfee35dd94cb4a8d0cd2ed7d934be, type: 3}
  - curve:
      serializedVersion: 2
      m_Curve:
      - time: 0
        value: 474.0379
        inSlope: 0
        outSlope: 0
        tangentMode: 0
      - time: 1.3166667
        value: 474.0379
        inSlope: 0
        outSlope: 0
        tangentMode: 0
      - time: 1.3333334
        value: 0
        inSlope: -4.1562877
        outSlope: -4.1562877
        tangentMode: 0
      - time: 2.1833334
        value: 0
        inSlope: -9.12645
        outSlope: -9.12645
        tangentMode: 0
      - time: 2.5
        value: 0
        inSlope: -50.71995
        outSlope: -50.71995
        tangentMode: 0
      - time: 2.6833334
        value: -331
        inSlope: -1805.454
        outSlope: -1805.454
        tangentMode: 10
      m_PreInfinity: 2
      m_PostInfinity: 2
      m_RotationOrder: 4
    attribute: m_LocalPosition.x
    path: timeBanner/x2
    classID: 4
    script: {fileID: 0}
  - curve:
      serializedVersion: 2
      m_Curve:
      - time: 0
        value: 0.017990112
        inSlope: 0
        outSlope: 0
        tangentMode: 0
      - time: 1.3166667
        value: 0.017990112
        inSlope: 0
        outSlope: 0
        tangentMode: 0
      - time: 1.3333334
        value: 0
        inSlope: -4.657351
        outSlope: -4.657351
        tangentMode: 10
      - time: 2.1833334
        value: -7
        inSlope: 0
        outSlope: 0
        tangentMode: 0
      - time: 2.5
        value: -7
        inSlope: 0
        outSlope: 0
        tangentMode: 10
      - time: 2.6833334
        value: -7
        inSlope: 0
        outSlope: 0
        tangentMode: 10
      m_PreInfinity: 2
      m_PostInfinity: 2
      m_RotationOrder: 4
    attribute: m_LocalPosition.y
    path: timeBanner/x2
    classID: 4
    script: {fileID: 0}
  - curve:
      serializedVersion: 2
      m_Curve:
      - time: 0
        value: 0
        inSlope: 0
        outSlope: 0
        tangentMode: 0
      - time: 1.3166667
        value: 0
        inSlope: 0
        outSlope: 0
        tangentMode: 0
      - time: 1.3333334
        value: 0
        inSlope: 0
        outSlope: 0
        tangentMode: 10
      - time: 2.1833334
        value: 0
        inSlope: 0
        outSlope: 0
        tangentMode: 0
      - time: 2.5
        value: 0
        inSlope: 0
        outSlope: 0
        tangentMode: 10
      - time: 2.6833334
        value: 0
        inSlope: 0
        outSlope: 0
        tangentMode: 10
      m_PreInfinity: 2
      m_PostInfinity: 2
      m_RotationOrder: 4
    attribute: m_LocalPosition.z
    path: timeBanner/x2
    classID: 4
    script: {fileID: 0}
  - curve:
      serializedVersion: 2
      m_Curve:
      - time: 0
        value: 1
        inSlope: 0
        outSlope: 0
        tangentMode: 0
      - time: 1.3166667
        value: 1
        inSlope: 0
        outSlope: 0
        tangentMode: 0
      - time: 1.3333334
        value: 2.4327812
        inSlope: 43.033894
        outSlope: 43.033894
        tangentMode: 10
      - time: 2
        value: 2.5
        inSlope: -4.895904
        outSlope: -4.895904
        tangentMode: 10
      - time: 2.1833334
        value: 0.6863494
        inSlope: -3.900815
        outSlope: -3.900815
        tangentMode: 10
      - time: 2.3333333
        value: 1
        inSlope: 2.091006
        outSlope: 2.091006
        tangentMode: 10
      m_PreInfinity: 2
      m_PostInfinity: 2
      m_RotationOrder: 4
    attribute: m_LocalScale.x
    path: timeBanner/x2
    classID: 4
    script: {fileID: 0}
  - curve:
      serializedVersion: 2
      m_Curve:
      - time: 0
        value: 1
        inSlope: 0
        outSlope: 0
        tangentMode: 0
      - time: 1.3166667
        value: 1
        inSlope: 0
        outSlope: 0
        tangentMode: 0
      - time: 1.3333334
        value: 2.4327817
        inSlope: 43.033905
        outSlope: 43.033905
        tangentMode: 10
      - time: 2
        value: 2.5
        inSlope: -4.8959045
        outSlope: -4.8959045
        tangentMode: 10
      - time: 2.1833334
        value: 0.6863494
        inSlope: -3.900815
        outSlope: -3.900815
        tangentMode: 10
      - time: 2.3333333
        value: 1
        inSlope: 2.091006
        outSlope: 2.091006
        tangentMode: 10
      m_PreInfinity: 2
      m_PostInfinity: 2
      m_RotationOrder: 4
    attribute: m_LocalScale.y
    path: timeBanner/x2
    classID: 4
    script: {fileID: 0}
  - curve:
      serializedVersion: 2
      m_Curve:
      - time: 0
        value: 1
        inSlope: 0
        outSlope: 0
        tangentMode: 0
      - time: 1.3166667
        value: 1
        inSlope: 0
        outSlope: 0
        tangentMode: 0
      - time: 1.3333334
        value: 2.4327817
        inSlope: 43.108902
        outSlope: 43.108902
        tangentMode: 10
      - time: 2
        value: 2.6
        inSlope: -5.0936313
        outSlope: -5.0936313
        tangentMode: 10
      - time: 2.1833334
        value: 0.6863494
        inSlope: -4.173542
        outSlope: -4.173542
        tangentMode: 10
      - time: 2.3333333
        value: 1
        inSlope: 2.091006
        outSlope: 2.091006
        tangentMode: 10
      m_PreInfinity: 2
      m_PostInfinity: 2
      m_RotationOrder: 4
    attribute: m_LocalScale.z
    path: timeBanner/x2
    classID: 4
    script: {fileID: 0}
  - curve:
      serializedVersion: 2
      m_Curve:
      - time: 0
        value: 67
        inSlope: 0
        outSlope: 0
        tangentMode: 0
      - time: 1.3166667
        value: 67
        inSlope: 0
        outSlope: 0
        tangentMode: 0
      - time: 1.3333334
        value: 471
        inSlope: 24240.023
        outSlope: 24240.023
        tangentMode: 10
      m_PreInfinity: 2
      m_PostInfinity: 2
      m_RotationOrder: 4
    attribute: m_LocalPosition.x
    path: timeBanner/Label2points
    classID: 4
    script: {fileID: 0}
  - curve:
      serializedVersion: 2
      m_Curve:
      - time: 0
        value: -32
        inSlope: 0
        outSlope: 0
        tangentMode: 0
      - time: 1.3166667
        value: -32
        inSlope: 0
        outSlope: 0
        tangentMode: 0
      - time: 1.3333334
        value: -18
        inSlope: 840.0008
        outSlope: 840.0008
        tangentMode: 10
      m_PreInfinity: 2
      m_PostInfinity: 2
      m_RotationOrder: 4
    attribute: m_LocalPosition.y
    path: timeBanner/Label2points
    classID: 4
    script: {fileID: 0}
  - curve:
      serializedVersion: 2
      m_Curve:
      - time: 0
        value: 0
        inSlope: 0
        outSlope: 0
        tangentMode: 0
      - time: 1.3166667
        value: 0
        inSlope: 0
        outSlope: 0
        tangentMode: 0
      - time: 1.3333334
        value: 0
        inSlope: 0
        outSlope: 0
        tangentMode: 10
      m_PreInfinity: 2
      m_PostInfinity: 2
      m_RotationOrder: 4
    attribute: m_LocalPosition.z
    path: timeBanner/Label2points
    classID: 4
    script: {fileID: 0}
  - curve:
      serializedVersion: 2
      m_Curve:
      - time: 0
        value: 0
        inSlope: 0
        outSlope: 0
        tangentMode: 0
      - time: 1.3166667
        value: 0
        inSlope: 0
        outSlope: 0
        tangentMode: 0
      - time: 1.3333334
        value: 0
        inSlope: 0
        outSlope: 0
        tangentMode: 10
      - time: 2
        value: 0
        inSlope: 2.7272718
        outSlope: 2.7272718
        tangentMode: 10
      - time: 2.1833334
        value: 1
        inSlope: 2.7272718
        outSlope: 2.7272718
        tangentMode: 10
      - time: 2.3333333
        value: 1
        inSlope: 0
        outSlope: 0
        tangentMode: 10
      m_PreInfinity: 2
      m_PostInfinity: 2
      m_RotationOrder: 4
    attribute: alpha
    path: timeBanner/x2
    classID: 114
    script: {fileID: 11500000, guid: 6f9aef6d5962d8849aa830ef46c7c993, type: 3}
  - curve:
      serializedVersion: 2
      m_Curve:
      - time: 0
        value: 294
        inSlope: 0
        outSlope: 0
        tangentMode: 0
      - time: 1.3166667
        value: 348.3
        inSlope: 0
        outSlope: 0
        tangentMode: 0
      - time: 1.3333334
        value: 0
        inSlope: -20898.02
        outSlope: -20898.02
        tangentMode: 10
      m_PreInfinity: 2
      m_PostInfinity: 2
      m_RotationOrder: 4
    attribute: m_LocalPosition.x
    path: timeBanner/Label1points
    classID: 4
    script: {fileID: 0}
  - curve:
      serializedVersion: 2
      m_Curve:
      - time: 0
        value: -30
        inSlope: 0
        outSlope: 0
        tangentMode: 0
      - time: 1.3166667
        value: -30
        inSlope: 0
        outSlope: 0
        tangentMode: 0
      - time: 1.3333334
        value: -11
        inSlope: 1140.0011
        outSlope: 1140.0011
        tangentMode: 10
      m_PreInfinity: 2
      m_PostInfinity: 2
      m_RotationOrder: 4
    attribute: m_LocalPosition.y
    path: timeBanner/Label1points
    classID: 4
    script: {fileID: 0}
  - curve:
      serializedVersion: 2
      m_Curve:
      - time: 0
        value: 0
        inSlope: 0
        outSlope: 0
        tangentMode: 0
      - time: 1.3166667
        value: 0
        inSlope: 0
        outSlope: 0
        tangentMode: 0
      - time: 1.3333334
        value: 0
        inSlope: 0
        outSlope: 0
        tangentMode: 10
      m_PreInfinity: 2
      m_PostInfinity: 2
      m_RotationOrder: 4
    attribute: m_LocalPosition.z
    path: timeBanner/Label1points
    classID: 4
    script: {fileID: 0}
  - curve:
      serializedVersion: 2
      m_Curve:
      - time: 0
        value: 1
        inSlope: 0
        outSlope: 0
        tangentMode: 0
      - time: 1.3166667
        value: 1
        inSlope: 0
        outSlope: 0
        tangentMode: 0
      - time: 1.3333334
        value: 2.212049
        inSlope: 34.54343
        outSlope: 34.54343
        tangentMode: 10
      - time: 1.6666666
        value: 1
        inSlope: -1.818074
        outSlope: -1.818074
        tangentMode: 10
      - time: 1.8333334
        value: 1
        inSlope: 0
        outSlope: 0
        tangentMode: 10
      - time: 2
        value: 1
        inSlope: 0
        outSlope: 0
        tangentMode: 10
      - time: 2.1833334
        value: 1
        inSlope: 0
        outSlope: 0
        tangentMode: 10
      m_PreInfinity: 2
      m_PostInfinity: 2
      m_RotationOrder: 4
    attribute: m_LocalScale.x
    path: timeBanner/Label1points
    classID: 4
    script: {fileID: 0}
  - curve:
      serializedVersion: 2
      m_Curve:
      - time: 0
        value: 1
        inSlope: 0
        outSlope: 0
        tangentMode: 0
      - time: 1.3166667
        value: 1
        inSlope: 0
        outSlope: 0
        tangentMode: 0
      - time: 1.3333334
        value: 2.2120488
        inSlope: 34.543423
        outSlope: 34.543423
        tangentMode: 10
      - time: 1.6666666
        value: 1
        inSlope: -1.8180736
        outSlope: -1.8180736
        tangentMode: 10
      - time: 1.8333334
        value: 1
        inSlope: 0
        outSlope: 0
        tangentMode: 10
      - time: 2
        value: 1
        inSlope: 0
        outSlope: 0
        tangentMode: 10
      - time: 2.1833334
        value: 1
        inSlope: 0
        outSlope: 0
        tangentMode: 10
      m_PreInfinity: 2
      m_PostInfinity: 2
      m_RotationOrder: 4
    attribute: m_LocalScale.y
    path: timeBanner/Label1points
    classID: 4
    script: {fileID: 0}
  - curve:
      serializedVersion: 2
      m_Curve:
      - time: 0
        value: 1
        inSlope: 0
        outSlope: 0
        tangentMode: 0
      - time: 1.3166667
        value: 1
        inSlope: 0
        outSlope: 0
        tangentMode: 0
      - time: 1.3333334
        value: 2.2120488
        inSlope: 34.543423
        outSlope: 34.543423
        tangentMode: 10
      - time: 1.6666666
        value: 1
        inSlope: -1.8180736
        outSlope: -1.8180736
        tangentMode: 10
      - time: 1.8333334
        value: 1
        inSlope: 0
        outSlope: 0
        tangentMode: 10
      - time: 2
        value: 1
        inSlope: 0
        outSlope: 0
        tangentMode: 10
      - time: 2.1833334
        value: 1
        inSlope: 0
        outSlope: 0
        tangentMode: 10
      m_PreInfinity: 2
      m_PostInfinity: 2
      m_RotationOrder: 4
    attribute: m_LocalScale.z
    path: timeBanner/Label1points
    classID: 4
    script: {fileID: 0}
  - curve:
      serializedVersion: 2
      m_Curve:
      - time: 0
        value: 1
        inSlope: 0
        outSlope: 0
        tangentMode: 0
      - time: 1.3166667
        value: 1
        inSlope: 0
        outSlope: 0
        tangentMode: 0
      - time: 1.3333334
        value: 0
        inSlope: -28.500029
        outSlope: -28.500029
        tangentMode: 10
      - time: 1.6666666
        value: 1
        inSlope: 1.5000004
        outSlope: 1.5000004
        tangentMode: 10
      - time: 2
        value: 1
        inSlope: -2.7272718
        outSlope: -2.7272718
        tangentMode: 10
      - time: 2.1833334
        value: 0
        inSlope: -5.4545436
        outSlope: -5.4545436
        tangentMode: 10
      m_PreInfinity: 2
      m_PostInfinity: 2
      m_RotationOrder: 4
    attribute: alpha
    path: timeBanner/Label1points
    classID: 114
    script: {fileID: 11500000, guid: 6f9aef6d5962d8849aa830ef46c7c993, type: 3}
  m_EulerEditorCurves: []
  m_HasGenericRootTransform: 0
  m_HasMotionFloatCurves: 0
  m_GenerateMotionCurves: 0
  m_Events: []
