%YAML 1.1
%TAG !u! tag:unity3d.com,2011:
--- !u!74 &7400000
AnimationClip:
  m_ObjectHideFlags: 0
  m_PrefabParentObject: {fileID: 0}
  m_PrefabInternal: {fileID: 0}
  m_Name: RollerBtnPop
  serializedVersion: 6
  m_Legacy: 1
  m_Compressed: 0
  m_UseHighQualityCurve: 1
  m_RotationCurves: []
  m_CompressedRotationCurves: []
  m_EulerCurves: []
  m_PositionCurves:
  - curve:
      serializedVersion: 2
      m_Curve:
      - time: 0.13333334
        value: {x: 2.3, y: 36.8, z: 0}
        inSlope: {x: 0, y: -2.571422, z: 0}
        outSlope: {x: 0, y: -2.571422, z: 0}
        tangentMode: 0
      - time: 0.25
        value: {x: 2.3, y: 36.5, z: 0}
        inSlope: {x: 0, y: -2.571422, z: 0}
        outSlope: {x: 0, y: -55.739998, z: 0}
        tangentMode: 0
      - time: 0.41666666
        value: {x: 2.3, y: -19.3, z: 0}
        inSlope: {x: 0, y: -111.60002, z: 0}
        outSlope: {x: 0, y: -111.60002, z: 0}
        tangentMode: 0
      - time: 0.5
        value: {x: 2.3, y: -10, z: 0}
        inSlope: {x: 0, y: 111.599976, z: 0}
        outSlope: {x: 0, y: 111.599976, z: 0}
        tangentMode: 0
      m_PreInfinity: 2
      m_PostInfinity: 2
      m_RotationOrder: 4
    path: CarsdBtnDown
  - curve:
      serializedVersion: 2
      m_Curve:
      - time: 0
        value: {x: 1.6, y: 47, z: 0}
        inSlope: {x: 0, y: 0, z: 0}
        outSlope: {x: 0, y: 0, z: 0}
        tangentMode: 0
      - time: 0.2
        value: {x: 1.6, y: 47, z: 0}
        inSlope: {x: 0, y: 0, z: 0}
        outSlope: {x: 0, y: 0, z: 0}
        tangentMode: 0
      m_PreInfinity: 2
      m_PostInfinity: 2
      m_RotationOrder: 4
    path: CarsdBtnUp
  m_ScaleCurves:
  - curve:
      serializedVersion: 2
      m_Curve:
      - time: 0.13333334
        value: {x: 1, y: 0, z: 1}
        inSlope: {x: 0, y: 0, z: 0}
        outSlope: {x: 0, y: 0, z: 0}
        tangentMode: 0
      - time: 0.25
        value: {x: 1, y: 0, z: 1}
        inSlope: {x: 0, y: 0, z: 0}
        outSlope: {x: 0, y: 1.4399999, z: 0}
        tangentMode: 0
      - time: 0.41666666
        value: {x: 1, y: 1.2, z: 1}
        inSlope: {x: 0, y: 2.4, z: 0}
        outSlope: {x: 0, y: 2.4, z: 0}
        tangentMode: 0
      - time: 0.5
        value: {x: 1, y: 1, z: 1}
        inSlope: {x: 0, y: -2.4000003, z: 0}
        outSlope: {x: 0, y: -2.4000003, z: 0}
        tangentMode: 0
      m_PreInfinity: 2
      m_PostInfinity: 2
      m_RotationOrder: 4
    path: CarsdBtnDown
  m_FloatCurves:
  - curve:
      serializedVersion: 2
      m_Curve:
      - time: 0.13333334
        value: 0
        inSlope: Infinity
        outSlope: Infinity
        tangentMode: 31
      - time: 0.5833333
        value: 0
        inSlope: Infinity
        outSlope: Infinity
        tangentMode: 31
      - time: 0.75
        value: 1
        inSlope: Infinity
        outSlope: Infinity
        tangentMode: 31
      m_PreInfinity: 2
      m_PostInfinity: 2
      m_RotationOrder: 4
    attribute: m_IsActive
    path: CardDesc
    classID: 1
    script: {fileID: 0}
  m_PPtrCurves: []
  m_SampleRate: 60
  m_WrapMode: 0
  m_Bounds:
    m_Center: {x: 0, y: 0, z: 0}
    m_Extent: {x: 0, y: 0, z: 0}
  m_ClipBindingConstant:
    genericBindings: []
    pptrCurveMapping: []
  m_AnimationClipSettings:
    serializedVersion: 2
    m_AdditiveReferencePoseClip: {fileID: 0}
    m_AdditiveReferencePoseTime: 0
    m_StartTime: 0
    m_StopTime: 0.75
    m_OrientationOffsetY: 0
    m_Level: 0
    m_CycleOffset: 0
    m_HasAdditiveReferencePose: 0
    m_LoopTime: 0
    m_LoopBlend: 0
    m_LoopBlendOrientation: 0
    m_LoopBlendPositionY: 0
    m_LoopBlendPositionXZ: 0
    m_KeepOriginalOrientation: 0
    m_KeepOriginalPositionY: 1
    m_KeepOriginalPositionXZ: 0
    m_HeightFromFeet: 0
    m_Mirror: 0
  m_EditorCurves:
  - curve:
      serializedVersion: 2
      m_Curve:
      - time: 0.13333334
        value: 1
        inSlope: 0
        outSlope: 0
        tangentMode: 10
      - time: 0.25
        value: 1
        inSlope: 0
        outSlope: 0
        tangentMode: 5
      - time: 0.41666666
        value: 1
        inSlope: 0
        outSlope: 0
        tangentMode: 10
      - time: 0.5
        value: 1
        inSlope: 0
        outSlope: 0
        tangentMode: 10
      m_PreInfinity: 2
      m_PostInfinity: 2
      m_RotationOrder: 4
    attribute: m_LocalScale.x
    path: CarsdBtnDown
    classID: 4
    script: {fileID: 0}
  - curve:
      serializedVersion: 2
      m_Curve:
      - time: 0.13333334
        value: 0
        inSlope: 0
        outSlope: 0
        tangentMode: 10
      - time: 0.25
        value: 0
        inSlope: 0
        outSlope: 1.4399999
        tangentMode: 5
      - time: 0.41666666
        value: 1.2
        inSlope: 2.4
        outSlope: 2.4
        tangentMode: 10
      - time: 0.5
        value: 1
        inSlope: -2.4000003
        outSlope: -2.4000003
        tangentMode: 10
      m_PreInfinity: 2
      m_PostInfinity: 2
      m_RotationOrder: 4
    attribute: m_LocalScale.y
    path: CarsdBtnDown
    classID: 4
    script: {fileID: 0}
  - curve:
      serializedVersion: 2
      m_Curve:
      - time: 0.13333334
        value: 1
        inSlope: 0
        outSlope: 0
        tangentMode: 10
      - time: 0.25
        value: 1
        inSlope: 0
        outSlope: 0
        tangentMode: 5
      - time: 0.41666666
        value: 1
        inSlope: 0
        outSlope: 0
        tangentMode: 10
      - time: 0.5
        value: 1
        inSlope: 0
        outSlope: 0
        tangentMode: 10
      m_PreInfinity: 2
      m_PostInfinity: 2
      m_RotationOrder: 4
    attribute: m_LocalScale.z
    path: CarsdBtnDown
    classID: 4
    script: {fileID: 0}
  - curve:
      serializedVersion: 2
      m_Curve:
      - time: 0.13333334
        value: 2.3
        inSlope: 0
        outSlope: 0
        tangentMode: 10
      - time: 0.25
        value: 2.3
        inSlope: 0
        outSlope: 0
        tangentMode: 5
      - time: 0.41666666
        value: 2.3
        inSlope: 0
        outSlope: 0
        tangentMode: 10
      - time: 0.5
        value: 2.3
        inSlope: 0
        outSlope: 0
        tangentMode: 10
      m_PreInfinity: 2
      m_PostInfinity: 2
      m_RotationOrder: 4
    attribute: m_LocalPosition.x
    path: CarsdBtnDown
    classID: 4
    script: {fileID: 0}
  - curve:
      serializedVersion: 2
      m_Curve:
      - time: 0.13333334
        value: 36.8
        inSlope: -2.571422
        outSlope: -2.571422
        tangentMode: 10
      - time: 0.25
        value: 36.5
        inSlope: -2.571422
        outSlope: -55.739998
        tangentMode: 5
      - time: 0.41666666
        value: -19.3
        inSlope: -111.60002
        outSlope: -111.60002
        tangentMode: 10
      - time: 0.5
        value: -10
        inSlope: 111.599976
        outSlope: 111.599976
        tangentMode: 10
      m_PreInfinity: 2
      m_PostInfinity: 2
      m_RotationOrder: 4
    attribute: m_LocalPosition.y
    path: CarsdBtnDown
    classID: 4
    script: {fileID: 0}
  - curve:
      serializedVersion: 2
      m_Curve:
      - time: 0.13333334
        value: 0
        inSlope: 0
        outSlope: 0
        tangentMode: 10
      - time: 0.25
        value: 0
        inSlope: 0
        outSlope: 0
        tangentMode: 5
      - time: 0.41666666
        value: 0
        inSlope: 0
        outSlope: 0
        tangentMode: 10
      - time: 0.5
        value: 0
        inSlope: 0
        outSlope: 0
        tangentMode: 10
      m_PreInfinity: 2
      m_PostInfinity: 2
      m_RotationOrder: 4
    attribute: m_LocalPosition.z
    path: CarsdBtnDown
    classID: 4
    script: {fileID: 0}
  - curve:
      serializedVersion: 2
      m_Curve:
      - time: 0.13333334
        value: 0
        inSlope: Infinity
        outSlope: Infinity
        tangentMode: 31
      - time: 0.5833333
        value: 0
        inSlope: Infinity
        outSlope: Infinity
        tangentMode: 31
      - time: 0.75
        value: 1
        inSlope: Infinity
        outSlope: Infinity
        tangentMode: 31
      m_PreInfinity: 2
      m_PostInfinity: 2
      m_RotationOrder: 4
    attribute: m_IsActive
    path: CardDesc
    classID: 1
    script: {fileID: 0}
  - curve:
      serializedVersion: 2
      m_Curve:
      - time: 0
        value: 1.6
        inSlope: 0
        outSlope: 0
        tangentMode: 10
      - time: 0.2
        value: 1.6
        inSlope: 0
        outSlope: 0
        tangentMode: 10
      m_PreInfinity: 2
      m_PostInfinity: 2
      m_RotationOrder: 4
    attribute: m_LocalPosition.x
    path: CarsdBtnUp
    classID: 4
    script: {fileID: 0}
  - curve:
      serializedVersion: 2
      m_Curve:
      - time: 0
        value: 47
        inSlope: 0
        outSlope: 0
        tangentMode: 10
      - time: 0.2
        value: 47
        inSlope: 0
        outSlope: 0
        tangentMode: 10
      m_PreInfinity: 2
      m_PostInfinity: 2
      m_RotationOrder: 4
    attribute: m_LocalPosition.y
    path: CarsdBtnUp
    classID: 4
    script: {fileID: 0}
  - curve:
      serializedVersion: 2
      m_Curve:
      - time: 0
        value: 0
        inSlope: 0
        outSlope: 0
        tangentMode: 10
      - time: 0.2
        value: 0
        inSlope: 0
        outSlope: 0
        tangentMode: 10
      m_PreInfinity: 2
      m_PostInfinity: 2
      m_RotationOrder: 4
    attribute: m_LocalPosition.z
    path: CarsdBtnUp
    classID: 4
    script: {fileID: 0}
  m_EulerEditorCurves: []
  m_HasGenericRootTransform: 0
  m_HasMotionFloatCurves: 0
  m_GenerateMotionCurves: 0
  m_Events: []
